<svg class="lds-dna" width="200px"  height="200px"  xmlns="http://www.w3.org/2000/svg" xmlns:xlink="http://www.w3.org/1999/xlink" viewBox="0 0 100 100" preserveAspectRatio="xMidYMid" style="background: none;"><circle cx="6.451612903225806" cy="33.8765" r="2.77982">
  <animate attributeName="r" times="0;0.5;1" values="2.4000000000000004;3.5999999999999996;2.4000000000000004" dur="2s" repeatCount="indefinite" begin="-0.5s"></animate>
  <animate attributeName="cy" keyTimes="0;0.5;1" values="32;68;32" dur="2s" repeatCount="indefinite" begin="0s" keySplines="0.5 0 0.5 1;0.5 0 0.5 1" calcMode="spline"></animate>
  <animate attributeName="fill" keyTimes="0;0.5;1" values="#b5ccf1;#94a9ce;#b5ccf1" dur="2s" repeatCount="indefinite" begin="-0.5s"></animate>
</circle><circle cx="6.451612903225806" cy="66.1235" r="3.22018">
  <animate attributeName="r" times="0;0.5;1" values="2.4000000000000004;3.5999999999999996;2.4000000000000004" dur="2s" repeatCount="indefinite" begin="-1.5s"></animate>
  <animate attributeName="cy" keyTimes="0;0.5;1" values="32;68;32" dur="2s" repeatCount="indefinite" begin="-1s" keySplines="0.5 0 0.5 1;0.5 0 0.5 1" calcMode="spline"></animate>
  <animate attributeName="fill" keyTimes="0;0.5;1" values="#667395;#292664;#667395" dur="2s" repeatCount="indefinite" begin="-0.5s"></animate>
</circle><circle cx="16.129032258064512" cy="32.0132" r="3.01982">
  <animate attributeName="r" times="0;0.5;1" values="2.4000000000000004;3.5999999999999996;2.4000000000000004" dur="2s" repeatCount="indefinite" begin="-0.7s"></animate>
  <animate attributeName="cy" keyTimes="0;0.5;1" values="32;68;32" dur="2s" repeatCount="indefinite" begin="-0.2s" keySplines="0.5 0 0.5 1;0.5 0 0.5 1" calcMode="spline"></animate>
  <animate attributeName="fill" keyTimes="0;0.5;1" values="#b5ccf1;#94a9ce;#b5ccf1" dur="2s" repeatCount="indefinite" begin="-0.7s"></animate>
</circle><circle cx="16.129032258064512" cy="67.9868" r="2.98018">
  <animate attributeName="r" times="0;0.5;1" values="2.4000000000000004;3.5999999999999996;2.4000000000000004" dur="2s" repeatCount="indefinite" begin="-1.7s"></animate>
  <animate attributeName="cy" keyTimes="0;0.5;1" values="32;68;32" dur="2s" repeatCount="indefinite" begin="-1.2s" keySplines="0.5 0 0.5 1;0.5 0 0.5 1" calcMode="spline"></animate>
  <animate attributeName="fill" keyTimes="0;0.5;1" values="#667395;#292664;#667395" dur="2s" repeatCount="indefinite" begin="-0.7s"></animate>
</circle><circle cx="25.806451612903224" cy="34.7066" r="3.25982">
  <animate attributeName="r" times="0;0.5;1" values="2.4000000000000004;3.5999999999999996;2.4000000000000004" dur="2s" repeatCount="indefinite" begin="-0.9s"></animate>
  <animate attributeName="cy" keyTimes="0;0.5;1" values="32;68;32" dur="2s" repeatCount="indefinite" begin="-0.4s" keySplines="0.5 0 0.5 1;0.5 0 0.5 1" calcMode="spline"></animate>
  <animate attributeName="fill" keyTimes="0;0.5;1" values="#b5ccf1;#94a9ce;#b5ccf1" dur="2s" repeatCount="indefinite" begin="-0.9s"></animate>
</circle><circle cx="25.806451612903224" cy="65.2934" r="2.74018">
  <animate attributeName="r" times="0;0.5;1" values="2.4000000000000004;3.5999999999999996;2.4000000000000004" dur="2s" repeatCount="indefinite" begin="-1.9s"></animate>
  <animate attributeName="cy" keyTimes="0;0.5;1" values="32;68;32" dur="2s" repeatCount="indefinite" begin="-1.4s" keySplines="0.5 0 0.5 1;0.5 0 0.5 1" calcMode="spline"></animate>
  <animate attributeName="fill" keyTimes="0;0.5;1" values="#667395;#292664;#667395" dur="2s" repeatCount="indefinite" begin="-0.9s"></animate>
</circle><circle cx="35.48387096774193" cy="44.1659" r="3.49982">
  <animate attributeName="r" times="0;0.5;1" values="2.4000000000000004;3.5999999999999996;2.4000000000000004" dur="2s" repeatCount="indefinite" begin="-1.1s"></animate>
  <animate attributeName="cy" keyTimes="0;0.5;1" values="32;68;32" dur="2s" repeatCount="indefinite" begin="-0.6s" keySplines="0.5 0 0.5 1;0.5 0 0.5 1" calcMode="spline"></animate>
  <animate attributeName="fill" keyTimes="0;0.5;1" values="#b5ccf1;#94a9ce;#b5ccf1" dur="2s" repeatCount="indefinite" begin="-1.1s"></animate>
</circle><circle cx="35.48387096774193" cy="55.8341" r="2.50018">
  <animate attributeName="r" times="0;0.5;1" values="2.4000000000000004;3.5999999999999996;2.4000000000000004" dur="2s" repeatCount="indefinite" begin="-2.1s"></animate>
  <animate attributeName="cy" keyTimes="0;0.5;1" values="32;68;32" dur="2s" repeatCount="indefinite" begin="-1.6s" keySplines="0.5 0 0.5 1;0.5 0 0.5 1" calcMode="spline"></animate>
  <animate attributeName="fill" keyTimes="0;0.5;1" values="#667395;#292664;#667395" dur="2s" repeatCount="indefinite" begin="-1.1s"></animate>
</circle><circle cx="45.16129032258064" cy="57.9233" r="3.46018">
  <animate attributeName="r" times="0;0.5;1" values="2.4000000000000004;3.5999999999999996;2.4000000000000004" dur="2s" repeatCount="indefinite" begin="-1.3s"></animate>
  <animate attributeName="cy" keyTimes="0;0.5;1" values="32;68;32" dur="2s" repeatCount="indefinite" begin="-0.8s" keySplines="0.5 0 0.5 1;0.5 0 0.5 1" calcMode="spline"></animate>
  <animate attributeName="fill" keyTimes="0;0.5;1" values="#b5ccf1;#94a9ce;#b5ccf1" dur="2s" repeatCount="indefinite" begin="-1.3s"></animate>
</circle><circle cx="45.16129032258064" cy="42.0767" r="2.53982">
  <animate attributeName="r" times="0;0.5;1" values="2.4000000000000004;3.5999999999999996;2.4000000000000004" dur="2s" repeatCount="indefinite" begin="-2.3s"></animate>
  <animate attributeName="cy" keyTimes="0;0.5;1" values="32;68;32" dur="2s" repeatCount="indefinite" begin="-1.8s" keySplines="0.5 0 0.5 1;0.5 0 0.5 1" calcMode="spline"></animate>
  <animate attributeName="fill" keyTimes="0;0.5;1" values="#667395;#292664;#667395" dur="2s" repeatCount="indefinite" begin="-1.3s"></animate>
</circle><circle cx="54.838709677419345" cy="66.1235" r="3.22018">
  <animate attributeName="r" times="0;0.5;1" values="2.4000000000000004;3.5999999999999996;2.4000000000000004" dur="2s" repeatCount="indefinite" begin="-1.5s"></animate>
  <animate attributeName="cy" keyTimes="0;0.5;1" values="32;68;32" dur="2s" repeatCount="indefinite" begin="-1s" keySplines="0.5 0 0.5 1;0.5 0 0.5 1" calcMode="spline"></animate>
  <animate attributeName="fill" keyTimes="0;0.5;1" values="#b5ccf1;#94a9ce;#b5ccf1" dur="2s" repeatCount="indefinite" begin="-1.5s"></animate>
</circle><circle cx="54.838709677419345" cy="33.8765" r="2.77982">
  <animate attributeName="r" times="0;0.5;1" values="2.4000000000000004;3.5999999999999996;2.4000000000000004" dur="2s" repeatCount="indefinite" begin="-2.5s"></animate>
  <animate attributeName="cy" keyTimes="0;0.5;1" values="32;68;32" dur="2s" repeatCount="indefinite" begin="-2s" keySplines="0.5 0 0.5 1;0.5 0 0.5 1" calcMode="spline"></animate>
  <animate attributeName="fill" keyTimes="0;0.5;1" values="#667395;#292664;#667395" dur="2s" repeatCount="indefinite" begin="-1.5s"></animate>
</circle><circle cx="64.51612903225805" cy="67.9868" r="2.98018">
  <animate attributeName="r" times="0;0.5;1" values="2.4000000000000004;3.5999999999999996;2.4000000000000004" dur="2s" repeatCount="indefinite" begin="-1.7s"></animate>
  <animate attributeName="cy" keyTimes="0;0.5;1" values="32;68;32" dur="2s" repeatCount="indefinite" begin="-1.2s" keySplines="0.5 0 0.5 1;0.5 0 0.5 1" calcMode="spline"></animate>
  <animate attributeName="fill" keyTimes="0;0.5;1" values="#b5ccf1;#94a9ce;#b5ccf1" dur="2s" repeatCount="indefinite" begin="-1.7s"></animate>
</circle><circle cx="64.51612903225805" cy="32.0132" r="3.01982">
  <animate attributeName="r" times="0;0.5;1" values="2.4000000000000004;3.5999999999999996;2.4000000000000004" dur="2s" repeatCount="indefinite" begin="-2.7s"></animate>
  <animate attributeName="cy" keyTimes="0;0.5;1" values="32;68;32" dur="2s" repeatCount="indefinite" begin="-2.2s" keySplines="0.5 0 0.5 1;0.5 0 0.5 1" calcMode="spline"></animate>
  <animate attributeName="fill" keyTimes="0;0.5;1" values="#667395;#292664;#667395" dur="2s" repeatCount="indefinite" begin="-1.7s"></animate>
</circle><circle cx="74.19354838709677" cy="65.2934" r="2.74018">
  <animate attributeName="r" times="0;0.5;1" values="2.4000000000000004;3.5999999999999996;2.4000000000000004" dur="2s" repeatCount="indefinite" begin="-1.9s"></animate>
  <animate attributeName="cy" keyTimes="0;0.5;1" values="32;68;32" dur="2s" repeatCount="indefinite" begin="-1.4s" keySplines="0.5 0 0.5 1;0.5 0 0.5 1" calcMode="spline"></animate>
  <animate attributeName="fill" keyTimes="0;0.5;1" values="#b5ccf1;#94a9ce;#b5ccf1" dur="2s" repeatCount="indefinite" begin="-1.9s"></animate>
</circle><circle cx="74.19354838709677" cy="34.7066" r="3.25982">
  <animate attributeName="r" times="0;0.5;1" values="2.4000000000000004;3.5999999999999996;2.4000000000000004" dur="2s" repeatCount="indefinite" begin="-2.9s"></animate>
  <animate attributeName="cy" keyTimes="0;0.5;1" values="32;68;32" dur="2s" repeatCount="indefinite" begin="-2.4s" keySplines="0.5 0 0.5 1;0.5 0 0.5 1" calcMode="spline"></animate>
  <animate attributeName="fill" keyTimes="0;0.5;1" values="#667395;#292664;#667395" dur="2s" repeatCount="indefinite" begin="-1.9s"></animate>
</circle><circle cx="83.87096774193547" cy="55.8341" r="2.50018">
  <animate attributeName="r" times="0;0.5;1" values="2.4000000000000004;3.5999999999999996;2.4000000000000004" dur="2s" repeatCount="indefinite" begin="-2.1s"></animate>
  <animate attributeName="cy" keyTimes="0;0.5;1" values="32;68;32" dur="2s" repeatCount="indefinite" begin="-1.6s" keySplines="0.5 0 0.5 1;0.5 0 0.5 1" calcMode="spline"></animate>
  <animate attributeName="fill" keyTimes="0;0.5;1" values="#b5ccf1;#94a9ce;#b5ccf1" dur="2s" repeatCount="indefinite" begin="-2.1s"></animate>
</circle><circle cx="83.87096774193547" cy="44.1659" r="3.49982">
  <animate attributeName="r" times="0;0.5;1" values="2.4000000000000004;3.5999999999999996;2.4000000000000004" dur="2s" repeatCount="indefinite" begin="-3.1s"></animate>
  <animate attributeName="cy" keyTimes="0;0.5;1" values="32;68;32" dur="2s" repeatCount="indefinite" begin="-2.6s" keySplines="0.5 0 0.5 1;0.5 0 0.5 1" calcMode="spline"></animate>
  <animate attributeName="fill" keyTimes="0;0.5;1" values="#667395;#292664;#667395" dur="2s" repeatCount="indefinite" begin="-2.1s"></animate>
</circle><circle cx="93.54838709677418" cy="42.0767" r="2.53982">
  <animate attributeName="r" times="0;0.5;1" values="2.4000000000000004;3.5999999999999996;2.4000000000000004" dur="2s" repeatCount="indefinite" begin="-2.3s"></animate>
  <animate attributeName="cy" keyTimes="0;0.5;1" values="32;68;32" dur="2s" repeatCount="indefinite" begin="-1.8s" keySplines="0.5 0 0.5 1;0.5 0 0.5 1" calcMode="spline"></animate>
  <animate attributeName="fill" keyTimes="0;0.5;1" values="#b5ccf1;#94a9ce;#b5ccf1" dur="2s" repeatCount="indefinite" begin="-2.3s"></animate>
</circle><circle cx="93.54838709677418" cy="57.9233" r="3.46018">
  <animate attributeName="r" times="0;0.5;1" values="2.4000000000000004;3.5999999999999996;2.4000000000000004" dur="2s" repeatCount="indefinite" begin="-3.3s"></animate>
  <animate attributeName="cy" keyTimes="0;0.5;1" values="32;68;32" dur="2s" repeatCount="indefinite" begin="-2.8s" keySplines="0.5 0 0.5 1;0.5 0 0.5 1" calcMode="spline"></animate>
  <animate attributeName="fill" keyTimes="0;0.5;1" values="#667395;#292664;#667395" dur="2s" repeatCount="indefinite" begin="-2.3s"></animate>
</circle></svg>