1512,physics_in,12616074301,Physics,,"✍️Check my all posts, stories and do follow for more
♥Physics♥
📌Explaining concept of Physics
📌Special QnA stories and quiz
#physics #science",https://www.thephysics.in/2019/06/solar-system-explore-details.html?m=1,24722,1357,5.49,contact.thephysics.in@gmail.com,,"Science, Technology & Engineering","#physics #universe #fysik",https://scontent-lht6-1.cdninstagram.com/vp/ad73e039609f135be48816f93620310a/5E3DCA39/t51.2885-19/s150x150/60191045_547292329131229_7212994276202905600_n.jpg?_nc_ht=scontent-lht6-1.cdninstagram.com,0,0,1,"2019-09-14 22:08:32"
1516,gmrafaelleitao,1361252115,"GM Rafael Leitão",,"⚬ Grande Mestre Internacional de Xadrez
⚬ Bicampeão Mundial (Sub-12/1991; Sub-18/1996)
⚬ Heptacampeão Brasileiro Absoluto
⚬ Jogador n°1 do Brasil",http://linktr.ee/gmrafaelleitao,11547,442,3.83,rafael@rafaelleitao.com,,Athlete,#xadrez,https://scontent-lht6-1.cdninstagram.com/vp/e4a8127183df749917a3cafef32a89ee/5E3D1DB2/t51.2885-19/s150x150/12750236_1072768399410636_1259506416_a.jpg?_nc_ht=scontent-lht6-1.cdninstagram.com,0,0,1,"2019-09-14 22:08:57"
1522,nasasolarsystem,1611722079,"NASA Solar System Exploration",,"We are NASA's Planetary Science Division. Our hardworking robots explore the planets and more on the wild frontiers of our solar system.",https://mars.nasa.gov/participate/send-your-name/mars2020/,525858,13631,2.59,solarsystem@jpl.nasa.gov,,"Government Organization","#nasa #science #space",https://scontent-lht6-1.cdninstagram.com/vp/445e589e5325ff60d9b4816a22d3ea75/5E391A32/t51.2885-19/s150x150/30918009_188302818466362_8038805281930477568_n.jpg?_nc_ht=scontent-lht6-1.cdninstagram.com,0,0,1,"2019-09-14 22:09:40"
1528,stlchessclub,2262931984,"Saint Louis Chess Club",,"Stop by the #STLChessClub in the heart of the #CWE for open #chess play, tournaments, and more. First visit is free!",http://saintlouischessclub.org/,16645,443,2.66,info@saintlouischessclub.org,3143612437,"Nonprofit Organization","#championsshowdown #chess9lx",https://scontent-lht6-1.cdninstagram.com/vp/3ad26eeaf03896f3afb9f7c544a6c200/5E3A43DF/t51.2885-19/s150x150/29090041_2035410586782380_7957959922811928576_n.jpg?_nc_ht=scontent-lht6-1.cdninstagram.com,0,0,1,"2019-09-14 22:10:20"
1529,chessmaestro,2345932470,"ШАХМАТЫ ♕ ШКОЛА CHESSMASTER",,"♔Обучайтесь шахматам онлайн - весело и результативно!♟
📚Получите книгу ""21 критическая ошибка новичка в шахматах"" БЕСПЛАТНО!⤵️",http://chessmaestro.ru/21mistake/,10291,173,1.68,info@chessmaestro.ru,,"Sports & Recreation",,https://scontent-lht6-1.cdninstagram.com/vp/b61a2e4618fe68aa00764a05ffa05f22/5E10B485/t51.2885-19/s150x150/12338555_937790366315810_931345650_a.jpg?_nc_ht=scontent-lht6-1.cdninstagram.com,0,0,1,"2019-09-14 22:10:25"
1530,levonaronian,2917356039,"Levon Aronian",Levon,"The Chess Prophet",http://twitter.com/levaronian,10722,915,8.53,burundjuk@yahoo.com,1794893784,Athlete,,https://scontent-lht6-1.cdninstagram.com/vp/2adfbb97784e42c1b1c643bbb0a3776b/5E0FABC9/t51.2885-19/s150x150/56398527_335537573765126_5188639326170251264_n.jpg?_nc_ht=scontent-lht6-1.cdninstagram.com,0,0,1,"2019-09-14 22:10:33"
1533,grandchesstourofficial,3422361791,"Grand Chess Tour",Grand,"The next leg of the #GrandChessTour, Superbet Rapid and Blitz, will take place from November 6-10",https://grandchesstour.org/,22772,1280,5.62,info@grandchesstour.org,,Organization,"#chess #grandmaster #grandchesstour",https://scontent-lht6-1.cdninstagram.com/vp/8859c77e279911c4f577d6da3c1f01db/5E3AA311/t51.2885-19/s150x150/19227865_459854641058471_1009872043946016768_a.jpg?_nc_ht=scontent-lht6-1.cdninstagram.com,0,0,1,"2019-09-14 22:10:53"
1535,chessbase,3559994484,ChessBase,,"Explore the world of #chess with ChessBase. 
Play, Watch, Read and Enjoy.",http://chessbase.com/,15508,442,2.85,info@chessbase.com,406390600,"Software Company","#chessbase #chessnews #chess",https://scontent-lht6-1.cdninstagram.com/vp/21a63985fc3ffb88f4a73dec39679b70/5DF53951/t51.2885-19/s150x150/43392175_1925292554206210_3767191561364832256_n.jpg?_nc_ht=scontent-lht6-1.cdninstagram.com,0,0,1,"2019-09-14 22:11:04"
1536,chessbaseindia,3669990437,"ChessBase India",,"ChessBase India is a place where you get all the information and updates about the Indian chess scene, tournaments and players.",https://chessbase.in/news/Live-games-from-FIDE-World-Cup-2019,15130,455,3.01,chessbaseindia@gmail.com,7304087464,Sports,"#chess #chessbaseindia #fideworldcup",https://scontent-lht6-1.cdninstagram.com/vp/0b1f64fbbdcb6777ef943af2ce8b5f36/5DF9C394/t51.2885-19/s150x150/25011740_2033005793580489_2094325529267142656_n.jpg?_nc_ht=scontent-lht6-1.cdninstagram.com,0,0,1,"2019-09-14 22:11:11"
1537,sergey_karjakin,398263757,"Sergey Karjakin",Sergey,"♟Grand Master
Vice-champion-2016
World Cup winner-2015
World chess champion in rapid-2012, blitz-2016
👨‍👩‍👦‍👦Семья - моя лучшая в жизни партия",https://www.labirint.ru/books/700198/,34257,1497,4.37,gmkarjakin@gmail.com,,"Personal Blog",,https://scontent-lht6-1.cdninstagram.com/vp/a78734a9c4785b02d45e5fc6b7453515/5E052A15/t51.2885-19/s150x150/17125491_570423973162447_3246212436381925376_a.jpg?_nc_ht=scontent-lht6-1.cdninstagram.com,0,0,1,"2019-09-14 22:11:18"
1538,wwwchesscom,4016044398,Chess.com,,"The world's largest chess website. With 30,000,000+ members, you'll always find a game!
Follow us for chess tips/puzzles/quotes and more!",https://www.chess.com/,43176,1453,3.37,chesscom@gmail.com,6507964810,Games/Toys,"#chess #grandmaster #chesslife",https://scontent-lht6-1.cdninstagram.com/vp/69e132aa2e5179a78cabbc8e9497199b/5DFD2C72/t51.2885-19/s150x150/61959374_1675416135935131_5059390527439372288_n.jpg?_nc_ht=scontent-lht6-1.cdninstagram.com,0,0,1,"2019-09-14 22:11:25"
1539,magnuscarlsen_fanpage,4032290652,"Magnus Carlsen® [Fan Page]",Magnus,"The World Chess Champion Fanpage
👑King-Magnus Carlsen👑
(Fan Account- I'm not Magnus Carlsen)",,23486,1080,4.6,harpreet.brar494@gmail.com,,"Entertainment Website","#chess #grandchesstour #sinquefieldcup",https://scontent-lht6-1.cdninstagram.com/vp/3d9302e9f68794c6e3ad52bacf95c9ba/5E3AA679/t51.2885-19/s150x150/66223743_336029080657740_5687316330957504512_n.jpg?_nc_ht=scontent-lht6-1.cdninstagram.com,0,0,1,"2019-09-14 22:11:33"
1540,thecybersecurityhub,4098700639,"The Cyber Security Hub™",,"Instagram Account of The Cyber Security Hub - World's Premier Information Security & Cyber Security Portal™
📧 info@thecybersecurityhub.com",http://thecybersecurityhub.com/,168654,1640,0.97,info@thecybersecurityhub.com,,"Media/News Company","#cybersecurity #coding #security",https://scontent-lht6-1.cdninstagram.com/vp/7900b92d0835944df7da0a0ba11d70b2/5DFC13C2/t51.2885-19/s150x150/42135256_273539176624850_4270726603660591104_n.jpg?_nc_ht=scontent-lht6-1.cdninstagram.com,0,0,1,"2019-09-14 22:11:40"
1714,pycoders,4124563134,"Python Coders",,"Lets Code 👨‍💻
Dm us for Projects, Business & Promotions
We Build Projects too
ML enthusiastic
Freelancer
Use Tag #pycoders",https://www.python.org/doc/sunset-python-2/,325207,12708,3.91,pythoncoders@yahoo.com,,Business,"#pycoders #sql #opensource",https://scontent-lht6-1.cdninstagram.com/vp/89c8f103b1f0752e8cf48f16815a62c4/5E06F432/t51.2885-19/s150x150/30841402_1706980969382484_3227704632029478912_n.jpg?_nc_ht=scontent-lht6-1.cdninstagram.com,0,0,1,"2019-09-15 21:20:24"
1541,chessverse,4412005106,Chessverse,,"Hi! If you love chess, if you want to play and improve then consider following us. 😇 Pics, news, puzzles and much needed motivation coming your way!",,11624,458,3.94,chessverse@gmail.com,,Organization,"#chess #ambitious #chessverse",https://scontent-lht6-1.cdninstagram.com/vp/1119700de75a31e9fc65ff6728ed1444/5E1130FD/t51.2885-19/s150x150/36553848_282265222525148_9137716155450916864_n.jpg?_nc_ht=scontent-lht6-1.cdninstagram.com,0,0,1,"2019-09-14 22:11:47"
1543,annarudolf_chess,52081707,"Anna Rudolf",Anna,"#Chess commentator, TV reporter, freelance edutainer. Passionate and loud. Yoga and zumba aficionado, lipstick maniac. Olympic player.",https://youtu.be/BZJQ9s5dYPM,20196,799,3.96,contact@annarudolfchess.com,,"Public Figure","#chess #streamalert #newyoutubevideo",https://scontent-lht6-1.cdninstagram.com/vp/df46c1b08476e2b267198abf5af231d9/5E3DBB0E/t51.2885-19/s150x150/38445082_232405910742367_5556366338630352896_n.jpg?_nc_ht=scontent-lht6-1.cdninstagram.com,0,0,1,"2019-09-14 22:11:59"
1545,dailychessproblem,5269692123,Moorflax,,"Hit like and please comment if you manage to solve the puzzle. One problem a day! Join us on the journey to 2000 puzzles! 😃",,12550,214,1.71,mattias@hedlin.nu,,Coach,"#chessmoves #gameofchess #echecs",https://scontent-lht6-1.cdninstagram.com/vp/b50f37e009b1f51df266aecad63461f8/5E1B207A/t51.2885-19/s150x150/18722115_1188229574621131_6120300531052183552_a.jpg?_nc_ht=scontent-lht6-1.cdninstagram.com,0,0,0,"2019-09-14 22:12:13"
1546,fermatslibrary,5383193223,"Fermat's Library",,"A platform for illuminating academic papers. We publish an annotated paper every week.",http://fermatslibrary.com/,17225,1749,10.15,team@fermatslibrary.com,,Education,"#math #science #mathematics",https://scontent-lht6-1.cdninstagram.com/vp/d0d1076a82e221c49a12099d5dcbe53a/5E0490DD/t51.2885-19/s150x150/18096075_294955987625642_7972004964086054912_n.jpg?_nc_ht=scontent-lht6-1.cdninstagram.com,0,0,1,"2019-09-14 22:12:18"
1547,shakh_mamedyarov,5575386069,"Shakhriyar Mamedyarov",,"Azerbaijani Chess Grand Master",http://mamedyarov.com/,22076,3340,15.13,boss@webinno.az,554266468,Sports,,https://scontent-lht6-1.cdninstagram.com/vp/41986e9e6a1be74096d689eebd72b4d6/5E0FA77C/t51.2885-19/s150x150/58453468_381518656030069_8555904543911575552_n.jpg?_nc_ht=scontent-lht6-1.cdninstagram.com,0,0,1,"2019-09-14 22:12:26"
1548,chessonofficial,5845814335,"Chess ON",Chess,https://www.facebook.com/chessonofficial/,,17845,920,5.16,info@chess-on.net,,Sports,"#chess #chessonofficial #moveoftheday",https://scontent-lht6-1.cdninstagram.com/vp/f80d2ce985058c724aa932f2f452f571/5E0D13F9/t51.2885-19/s150x150/61339123_2422222247842016_7606123112525987840_n.jpg?_nc_ht=scontent-lht6-1.cdninstagram.com,0,0,1,"2019-09-14 22:12:32"
1549,chess24es,5850306076,Chess24es,,"Juega, aprende y sigue #ajedrez con chess24 de forma moderna y divertida con @pepe_cuenca y @eldivis",http://chess24.com/,10889,507,4.66,Divis@chess24.com,,Sports,"#ajedrez #chess #chess24",https://scontent-lht6-1.cdninstagram.com/vp/1473336cb200ae161cbd52ffda655be8/5E394D2E/t51.2885-19/s150x150/20633348_302094563532499_6243554272697384960_a.jpg?_nc_ht=scontent-lht6-1.cdninstagram.com,0,0,1,"2019-09-14 22:12:39"
1550,ichessnet,6736661046,iChess,,"Chess enthusiasts ♔♕ specializing in videos 🎥 by the world's 🌎 best chess masters/coaches. Best known for 👑 Master Method and EMPIRE chess series.",https://ichs.co/masterclass,19590,397,2.03,info@ichess.net,,"Education Website",#chess,https://scontent-lht6-1.cdninstagram.com/vp/df68fed7da20c0e0acaae552b9d00007/5E0A8EA5/t51.2885-19/s150x150/41837601_336948320204136_5457487850649944064_n.jpg?_nc_ht=scontent-lht6-1.cdninstagram.com,0,0,1,"2019-09-14 22:12:46"
1555,theoretical_physics_forum_,7125024283,"theoretical physics 101",,"For those interested in Physics and Cosmology 😎
Admin: @underdog7716
Also do check out our other pages: @scienceandfacts101
@motivational.vibes_",,206790,4035,1.95,theoreticalphysicsforum@gmail.com,,"Educational Research Center","#quantummechanics #computers #universe",https://scontent-lht6-1.cdninstagram.com/vp/e25428421ad6c02bd94f1ddd5170ce7b/5DFA0F51/t51.2885-19/s150x150/64443401_627649064385981_1702382185522135040_n.jpg?_nc_ht=scontent-lht6-1.cdninstagram.com,0,0,1,"2019-09-14 22:13:17"
1558,science_explosion,7286346114,"science explosion!🔥",,"I want friends not followers,💙 keep engaged on my post and DM me📩
I post to alive your curiosity
Backup id: @space_time62
Paid promotions available➜",,33367,2562,7.68,sarthakbose123123b@gmail.com,7003626465,"Science Website","#theoreticalphysics #quantumphysics #physicstoy",https://scontent-lht6-1.cdninstagram.com/vp/024149d1e1bece25036ca9441fd5dc9e/5DFA59F7/t51.2885-19/s150x150/44552927_652015675194372_1969295844414849024_n.jpg?_nc_ht=scontent-lht6-1.cdninstagram.com,0,0,0,"2019-09-14 22:13:37"
1562,elisabeth_paehtz,7690843375,"Elisabeth Paehtz🇩🇪",Elisabeth,"Women’s European Rapid & Vice European Blitz Chess Champion 2018   
#europeanchampion
For Inquires contact:
Elisabeth.Paehtz.BIN@gmail.com",https://chessqueens.com/,10701,887,8.29,Elisabeth.paehtz.bin@gmail.com,,"Personal Blog","#womeninchess #womenpower #chessboard",https://scontent-lht6-1.cdninstagram.com/vp/db6703fd282bd2fdfd3e07756a3fb494/5DF778B5/t51.2885-19/s150x150/64555814_328054301421720_8628084999783972864_n.jpg?_nc_ht=scontent-lht6-1.cdninstagram.com,0,0,1,"2019-09-14 22:14:00"
1566,pibyme_maths,7989180363,PIBYME_Maths,,"Pure Mathematics
No.1 math page on Instagram
Math questions | answers
Facts | Memes | Quotes
Subscribe my Youtube channel 👇🏼",http://www.youtube.com/c/pibyme,10523,2111,20.06,pibyme@gmail.com,,Education,"#student #puns #mathstricks",https://scontent-lht6-1.cdninstagram.com/vp/23634f9005a8ae53450cb7208474ca3c/5E003997/t51.2885-19/s150x150/61221119_480034396068689_8867531367861190656_n.jpg?_nc_ht=scontent-lht6-1.cdninstagram.com,0,0,1,"2019-09-14 22:14:27"
1567,quantum_curiosity,8041987802,"Quantum Mechanics",,"● Witness How Life Inside An Atom Looks like!
● Curiosity Mode ON
● DM For Business",,215758,6899,3.2,mechanicsquantum8@gmail.com,,"Education Website","#saygoodbyetoyourmind #universe #science",https://scontent-lht6-1.cdninstagram.com/vp/e8bbe2305aaffbaea1c6b7ab8ef12ace/5DF74CC9/t51.2885-19/s150x150/50307127_598416887272690_6447069330923323392_n.jpg?_nc_ht=scontent-lht6-1.cdninstagram.com,0,0,1,"2019-09-14 22:14:34"
1568,chess_hype,8154974914,"Partnership? Write!",,"Chess coach, CM,rating Fide2130, Russia♥️ 
Look at the link below-help our community!📘
Chess LESSONS?Direct!🔥
КМС по шахматам, даю уроки по скайп",https://m.twitch.tv/lilekoridze/profile,14029,892,6.36,celticforever@mail.ru,,"Board Game","#chess #xadrez #ajedrez",https://scontent-lht6-1.cdninstagram.com/vp/7baff060e709c3cb15e60c2be415d13c/5E0A3EA3/t51.2885-19/s150x150/65387349_352398282105974_4333994998098821120_n.jpg?_nc_ht=scontent-lht6-1.cdninstagram.com,0,0,1,"2019-09-14 22:14:41"
1569,inspirationalchessdose,8231297146,inspirationalchessdose,,"🏅 | chess Entrepreneur 
     .
🎯 | chess dose + life dose
     .
📲 | dm for online coachings
     _
             #inspirationalchessdose
     _",,10667,635,5.95,inspirationalchessdose@gmail.com,,Sports,"#inspirationalchessdose #ajedrez #chess",https://scontent-lht6-1.cdninstagram.com/vp/8ac0f412c2dd778bbe0679c955ef542c/5DF52771/t51.2885-19/s150x150/47693237_401261727279658_6875843419390869504_n.jpg?_nc_ht=scontent-lht6-1.cdninstagram.com,0,0,1,"2019-09-14 22:14:47"
1570,moiitjee,8417949690,Mathematics💙,,"• Official Page of @moiitjee only for MathLovers🤘
• No.1 page for #IIT-JEE Mathematics
• Follow us to learn something new👍
• DM me for paid promotio",https://www.youtube.com/channel/UCXlrO1Z0-WVRZFp21F44gkg,20823,550,2.64,moiitjee@gmail.com,8219730427,Tutor/Teacher,"#mathematics #moiitjee #maths",https://scontent-lht6-1.cdninstagram.com/vp/83d7077ec3b76e76894d8c43ac7f9215/5E0AF176/t51.2885-19/s150x150/38194816_2235267600091193_2384446670281637888_n.jpg?_nc_ht=scontent-lht6-1.cdninstagram.com,0,0,0,"2019-09-14 22:14:53"
1575,fide_chess,8921693839,FIDE,,"Fédération Internationale des Échecs",http://fide.com/,32455,871,2.68,federations@fide.com,,Sports,"#chess #fide #fideworldcup",https://scontent-lht6-1.cdninstagram.com/vp/0fd7073343ae798ce95714bc83cc0fd1/5DF8062E/t51.2885-19/s150x150/41785437_1344514485685632_7713309059394306048_n.jpg?_nc_ht=scontent-lht6-1.cdninstagram.com,0,0,1,"2019-09-14 22:15:30"
1577,mathe_magician_,9125282705,MatheMagician,,"Backup- @mathe_magician_2.0_
                #mathe_magician
☣The Mathematics Trickster
☣We Provide Relatable Posts
☣Science Memes|| Trolls",,31062,4369,14.07,ayushisingh1290@gmail.com,7906482970,"Science, Technology & Engineering","#mathe_magician #astroscience #einstein",https://scontent-lht6-1.cdninstagram.com/vp/c45331a2273965499a0a3de04aa1694b/5DF76729/t51.2885-19/s150x150/67190173_409231026373349_1245908036191518720_n.jpg?_nc_ht=scontent-lht6-1.cdninstagram.com,0,0,1,"2019-09-14 22:15:43"
