2665,vitaliia,10499262,"Vitaliia 🦄🐒🐣",,"vancouver ✌🏻
💌 pls DM 
@lulus ambassador
Next: Paris",,47814,4699,9.83,viktoriya_17@msn.com,,Blogger,,https://scontent-lhr3-1.cdninstagram.com/vp/87377d8a0ada23cc5f11015a07b6ff51/5E330DAA/t51.2885-19/s150x150/64889087_2266102903719726_1745344489980952576_n.jpg?_nc_ht=scontent-lhr3-1.cdninstagram.com,0,0,1,"2019-10-03 10:17:51"
2666,deluxechokersnew,10898998282,DeluxeChokers,,"•Your favourite jewellery brand•
.
✖️Personalised hair clips 
✖️tees 
✖️Chain belts 
✖️necklaces/earrings 
..
.
NO RETURNS > unless damaged!",https://www.deluxechokers.co.uk/collections,10959,111,1.01,deluxechokers111@outlook.com,,Product/Service,,https://scontent-lhr3-1.cdninstagram.com/vp/c89c52bc99a8d154bf2696c93c1a9549/5E2BBE8B/t51.2885-19/s150x150/65305417_648672472265596_8984174776880726016_n.jpg?_nc_ht=scontent-lhr3-1.cdninstagram.com,0,0,1,"2019-10-03 10:17:57"
2667,amybethvdl,1286998810,"Amy-Beth van der Lowen",,"business: amvdlow@gmail.com
youtube: Amy van der Lowen
@klarna.uk ambassador",https://m.youtube.com/watch?v=6fBUVd3FOms&t=4s,21979,1677,7.63,amvdlow@gmail.com,,Blogger,,https://scontent-lhr3-1.cdninstagram.com/vp/9c992282d1b23e4c766ae8f5dfb6a01d/5E1D4C7F/t51.2885-19/s150x150/69258652_2481662541916125_7692798266978598912_n.jpg?_nc_ht=scontent-lhr3-1.cdninstagram.com,0,0,0,"2019-10-03 10:18:03"
2668,dbzdutch,14430210,DABZ,,contact@dbzdutch.com,,440822,25623,5.81,contact@dbzdutch.com,,"Personal Blog",,https://scontent-lhr3-1.cdninstagram.com/vp/38e47edc4ca8ffd0bae2aa8aa750b259/5E365F83/t51.2885-19/s150x150/69618347_1448194791998590_883156451286056960_n.jpg?_nc_ht=scontent-lhr3-1.cdninstagram.com,0,0,1,"2019-10-03 10:18:10"
2669,fashionbymnp,1457639812,"Monique Nadia Palombo",Monique,,http://www.fashionbymnp.com/,39798,1006,2.53,moniquepalombo3@hotmail.com,,Blogger,,https://scontent-lhr3-1.cdninstagram.com/vp/46dce1511d3583ea5bae558ec5f6abdc/5E356796/t51.2885-19/s150x150/61851278_459587894612349_5080987529969139712_n.jpg?_nc_ht=scontent-lhr3-1.cdninstagram.com,0,0,1,"2019-10-03 10:18:18"
2670,itslibes,1462250781,"E S",,"instagram is NOT real life
itslibes@gmail.com",,119795,12869,10.74,itslibes@gmail.com,,"Personal Blog",#mirrorselfie,https://scontent-lhr3-1.cdninstagram.com/vp/697b64e0db533c9ffb823a733854a7cb/5E3B189C/t51.2885-19/s150x150/70807628_559448851465535_6934216264076230656_n.jpg?_nc_ht=scontent-lhr3-1.cdninstagram.com,0,0,1,"2019-10-03 10:18:26"
2671,rubyholley_,1523641,"RUBY HOLLEY",RUBY,"Clothes, interiors and travel 
contact@rubyholley.com
@rubyholleyhome",http://www.rubyholley.com/,132683,7018,5.29,contact@rubyholley.com,,Blogger,,https://scontent-lhr3-1.cdninstagram.com/vp/e51248e9e1d6b850d9a87a4d18400837/5E19A783/t51.2885-19/s150x150/54277247_347636769211913_4595837821033381888_n.jpg?_nc_ht=scontent-lhr3-1.cdninstagram.com,0,0,1,"2019-10-03 10:18:33"
2672,courtneyxmi,16245521,COURTNEY,COURTNEY,"contact: courtneyxmi@outlook.com",http://bit.ly/2h2mthH,283668,8458,2.98,courtneyxmi@outlook.com,,Blogger,,https://scontent-lhr3-1.cdninstagram.com/vp/87c7d7e0135eda9ac8658fc08cd10fda/5E266071/t51.2885-19/s150x150/67070709_910128436027476_1797934345885843456_n.jpg?_nc_ht=scontent-lhr3-1.cdninstagram.com,0,0,0,"2019-10-03 10:18:41"
2673,shei.mi,1636326992,"Sheida Mizani",,"Content creator
Los Angeles - @3l3v3narchive 
Contact: sheida.mizani@gmail.com",,114852,3278,2.85,sheida.mizani@gmail.com,,"Design & Fashion",,https://scontent-lhr3-1.cdninstagram.com/vp/481abef3c194513da326a887c985fc33/5E3071EB/t51.2885-19/s150x150/66769844_2699183256975045_227881593107120128_n.jpg?_nc_ht=scontent-lhr3-1.cdninstagram.com,0,0,1,"2019-10-03 10:18:48"
2674,laurajadestone,1651823,"Laura Jade Stone",Laura,"Hello@laurajadestone.com
Hair Tutorial ⬇️",https://m.youtube.com/watch?v=zfs1PmEgH54,804953,26575,3.3,hello@laurajadestone.com,,"Personal Blog",,https://scontent-lhr3-1.cdninstagram.com/vp/5e6aac0d189d2ebe85fde6c7e54f0cb2/5E2A1AAA/t51.2885-19/s150x150/68862404_370211983918239_8637330058622533632_n.jpg?_nc_ht=scontent-lhr3-1.cdninstagram.com,0,0,1,"2019-10-03 10:18:55"
2675,chloeadair1,16701833,"C H L O E   A D A I R",,"chloe.adair@live.co.uk
MD 💍🖤",http://21buttons.com/chloeadair1/,71252,3364,4.72,chloe.adair@live.co.uk,,Blogger,,https://scontent-lhr3-1.cdninstagram.com/vp/9b3a995cd0921463d27b26b27d52510d/5E2121AA/t51.2885-19/s150x150/71515433_1285189211659732_4093879628735709184_n.jpg?_nc_ht=scontent-lhr3-1.cdninstagram.com,0,0,0,"2019-10-03 10:19:03"
2676,sophmatth1,17207648,"Soph Matthews",,"❀❀ / 24 / Leeds ❀❀",,10951,359,3.28,,,,,https://scontent-lhr3-1.cdninstagram.com/vp/4ecc47c85e198ae727ca483a485fc9bd/5E26BCE1/t51.2885-19/s150x150/66694911_609907029842499_742578284742574080_n.jpg?_nc_ht=scontent-lhr3-1.cdninstagram.com,0,0,0,"2019-10-03 10:19:09"
2677,louisajayne_,174001,"LOUISA J. HEYWORTH",LOUISA,"27/virgo fashion creative - manchester 
womenswear & footwear designer 🏷",http://www.4thandreckless.com/,99237,3154,3.18,louisaheyworth@hotmail.com,,"Design & Fashion",,https://scontent-lhr3-1.cdninstagram.com/vp/f412d9bb3c4ad76066a7f40c51b4324f/5E2ABB2D/t51.2885-19/s150x150/49906689_234968597387650_25003938092679168_n.jpg?_nc_ht=scontent-lhr3-1.cdninstagram.com,0,0,1,"2019-10-03 10:19:16"
2678,aishapotter,175019169,"𝔞𝔦𝔰𝔥𝔞 𝔭𝔬𝔱𝔱𝔢𝔯 ⚡️",,@WILHELMINAMODELS,,152235,20861,13.7,aishapotters@gmail.com,,,,https://scontent-lhr3-1.cdninstagram.com/vp/384611fee718ca2ca2a7bd2c93ddddc6/5E3D6F40/t51.2885-19/s150x150/67843354_492706978228526_5997388441170477056_n.jpg?_nc_ht=scontent-lhr3-1.cdninstagram.com,0,0,0,"2019-10-03 10:19:24"
2679,abbyhuartson,177244180,"Abby Huartson",Abby,"📍 Leeds 
👻 abbyhuartson",http://www.twitter.com/abbyhuartson,12143,525,4.32,,,,,https://scontent-lhr3-1.cdninstagram.com/vp/c5074bda9fd66dd24affa36eecfdc53f/5E1FD010/t51.2885-19/s150x150/36616551_627961194244093_7450353814160277504_n.jpg?_nc_ht=scontent-lhr3-1.cdninstagram.com,0,0,0,"2019-10-03 10:19:31"
2680,ellaravenscroft,177771297,"Ella Ravenscroft",Ella,"HD brow technician: @hdbrowsbyella
Enquiries: ellaravenscroftx@outlook.com",http://www.youtube.com/c/EllaRavenscroft,282587,13672,4.84,ellaravenscroftx@outlook.com,,"Personal Blog",,https://scontent-lhr3-1.cdninstagram.com/vp/750f935bf28b170b4ebe8336f5e975b9/5E2DAC69/t51.2885-19/s150x150/58409578_439108376659106_6317299866192052224_n.jpg?_nc_ht=scontent-lhr3-1.cdninstagram.com,0,0,1,"2019-10-03 10:19:37"
2681,alberitanicki,18112854,"Alberita Nicki",,"founder of @nickistudios 
business inquiries: inti@artlikeyou.no",http://www.nickistudios.com/,191637,11010,5.75,alberita_nikci@hotmail.com,,Designer,,https://scontent-lhr3-1.cdninstagram.com/vp/edda2613907dee80c87a3e71764884c1/5E19CAE5/t51.2885-19/s150x150/66624793_461823161322561_5873679128049221632_n.jpg?_nc_ht=scontent-lhr3-1.cdninstagram.com,0,0,0,"2019-10-03 10:19:45"
2682,ardiananicki,18119874,ardiananicki,,"• Head Designer/founder: @nickistudios  🖤
• Influencer
• Business inquiries: blogger@artlikeyou.no
• 👻ardianakanzo",http://nickistudios.com/,122047,5593,4.58,ardiananikci@gmail.com,,Designer,,https://scontent-lhr3-1.cdninstagram.com/vp/3b20d481c24c30803a7c6bd001deff93/5E22699C/t51.2885-19/s150x150/67327595_443618479556986_5712109076918304768_n.jpg?_nc_ht=scontent-lhr3-1.cdninstagram.com,0,0,0,"2019-10-03 10:19:52"
2683,katyluise,182566054,"K A T Y",,,http://21buttons.com/katyluise/,194850,4100,2.1,katyluise@outlook.com,,"Personal Blog",,https://scontent-lhr3-1.cdninstagram.com/vp/d5454938fd2ecae4f68227bc62d251b3/5E3CE5F3/t51.2885-19/s150x150/67827520_676111376230225_5637636951050813440_n.jpg?_nc_ht=scontent-lhr3-1.cdninstagram.com,0,0,1,"2019-10-03 10:19:59"
2684,emmazoeyroche,18324764,"Emma Roche",Emma,"Dublin | PhD Researcher in Gender & Popular Literature|
emmazoeyroche@gmail.com
Shop My Outfits Below:",https://www.liketoknow.it/emmazoeyroche,147166,7898,5.37,emmazoeyroche@gmail.com,,"Personal Blog","#missguided #babesofmissguided #boohoo",https://scontent-lhr3-1.cdninstagram.com/vp/dc8c3f056b64defd0595631c3281ac2b/5E34F5E6/t51.2885-19/s150x150/58978595_272156737025093_5145466426580008960_n.jpg?_nc_ht=scontent-lhr3-1.cdninstagram.com,0,0,1,"2019-10-03 10:20:06"
2685,taramays25,183369586,"T a r a M a y n a r d 🌺🌸",,"🧚🏽‍♀️Baby Mama.No Drama💋💍Leo🦁
Collabs robin@agenc.co.uk 💐tara_2907@hotmail.co.uk ✨",http://www.21buttons.com/taramaynard25,83765,3293,3.93,tara_2907@hotmail.co.uk,,"Just For Fun",#sp,https://scontent-lhr3-1.cdninstagram.com/vp/34e0e4fbdf533d3a65aa25d570d434e6/5E2CECBE/t51.2885-19/s150x150/49279350_245816783024715_6691298827984437248_n.jpg?_nc_ht=scontent-lhr3-1.cdninstagram.com,0,0,1,"2019-10-03 10:20:12"
2686,daniellemetz,184132267,"DANIELLE METZ 🏹",DANIELLE,daniellemetz16@gmail.com,http://21buttons.com/daniellemetz/,241240,7883,3.27,daniellemetz16@gmail.com,,Blogger,,https://scontent-lhr3-1.cdninstagram.com/vp/8b469c6528d942dc372751a69b25e7f2/5E1ECBD8/t51.2885-19/s150x150/69276053_2392728960840524_7247290680983158784_n.jpg?_nc_ht=scontent-lhr3-1.cdninstagram.com,0,0,1,"2019-10-03 10:20:20"
2687,laceymontgomery1,18436219,𝐿𝑀𝐻,,"⁣𝕌𝕂📍
𝒞𝓁𝒾𝒸𝓀 𝑒𝓂𝒶𝒾𝓁 𝒻𝑜𝓇 𝑒𝓃𝓆𝓊𝒾𝓇𝒾𝑒𝓈
@babyboofashion",,285523,7491,2.62,laceymontgomery@outlook.com,,Blogger,,https://scontent-lhr3-1.cdninstagram.com/vp/6382f8f634c3a851ac145692751f23ac/5E31F995/t51.2885-19/s150x150/69756210_2365527503697852_7682095895671734272_n.jpg?_nc_ht=scontent-lhr3-1.cdninstagram.com,0,0,0,"2019-10-03 10:20:26"
2688,imhannahwhiting,185138054,"Hannah Whiting",Hannah,"Manchester UK
Influencer 
✉️ hannah.l.whiting@hotmail.co.uk
Shop all of my outfits via the link below",http://21buttons.com/imhannahwhiting/,113148,5041,4.46,hannah.l.whiting@hotmail.co.uk,,"Digital Creator",,https://scontent-lhr3-1.cdninstagram.com/vp/5986e808f236a47ffc4d1abbe22b8076/5E1B012A/t51.2885-19/s150x150/71211689_482980072256848_5747541010922078208_n.jpg?_nc_ht=scontent-lhr3-1.cdninstagram.com,0,0,1,"2019-10-03 10:20:32"
2689,victoriaturnerr,188353671,"Victoria Turner",Victoria,"XIII.XI.MMXVI
law student
management @musetheagency",,135185,6448,4.77,victoria@musetheagency.com,,"Just For Fun",,https://scontent-lhr3-1.cdninstagram.com/vp/ab5a0cf74f76296997e9d5acc2feb421/5E369DD6/t51.2885-19/s150x150/65492372_2266634926787910_8101858837809594368_n.jpg?_nc_ht=scontent-lhr3-1.cdninstagram.com,0,0,1,"2019-10-03 10:20:40"
2690,bethannawell,189047169,"Bethan Nawell",Bethan,"DEPOP - bethannawell",http://21buttons.com/bethannawell/,44598,1604,3.6,bethan_nawell@hotmail.com,,"Personal Blog",,https://scontent-lhr3-1.cdninstagram.com/vp/31e39f5b76bb865a4d2837cceb706ce5/5E3A9F8F/t51.2885-19/s150x150/69262136_490464501731796_6130263150076887040_n.jpg?_nc_ht=scontent-lhr3-1.cdninstagram.com,0,0,1,"2019-10-03 10:20:48"
2691,laurenworboys,189363525,"Lauren Worboys",Lauren,"UK
Laurenworboys@hotmail.com
@fashionnova ambassador",,260279,7549,2.9,laurenworboys@hotmail.co.uk,,"Personal Blog",,https://scontent-lhr3-1.cdninstagram.com/vp/57295d8bab1b9c1d5c8b7c72b901ec2f/5E2AC0F0/t51.2885-19/s150x150/66444438_572924729907311_6889933690965590016_n.jpg?_nc_ht=scontent-lhr3-1.cdninstagram.com,0,0,1,"2019-10-03 10:20:54"
2692,kayleighjcouture,190888674,"K A Y L E I G H",,"Fashion Blogger - Wifey - Betsy’s Mama 🐶
@kayleighscanihome 🏡
kljohnson1990@gmail.com
www.couture-girl.co.uk
shop my #outfits ↓",https://www.liketoknow.it/kayleighjcouture,197994,4964,2.51,kljohnson1990@gmail.com,,Blogger,"#fashionblogger #ootd #outfitdetails",https://scontent-lhr3-1.cdninstagram.com/vp/927a3279283cbed32ec219506efa87b2/5E32852B/t51.2885-19/s150x150/68767511_392210624771623_7254058308196106240_n.jpg?_nc_ht=scontent-lhr3-1.cdninstagram.com,0,0,1,"2019-10-03 10:21:00"
2693,claudine_kehoe,193267889,"ＣＬＡＵＤＩＮＥ ＫＥＨＯＥ",,"~ Dublin, Ireland 
~ Fashion | Fitness | Travel",,84987,1884,2.22,claudinekehoe18@outlook.ie,,"Personal Blog",#ootd,https://scontent-lhr3-1.cdninstagram.com/vp/4ead7c5efdedfefeda404f241da213b9/5E19E1E3/t51.2885-19/s150x150/61191174_2372572683027054_6435664985866633216_n.jpg?_nc_ht=scontent-lhr3-1.cdninstagram.com,0,0,1,"2019-10-03 10:21:06"
2694,yasminechanel,19442564,"𝓨𝓪𝓼𝓶𝓲𝓷𝓮 𝓒𝓱𝓪𝓷𝓮𝓵 🏹",,"𝕎𝕙𝕒𝕥𝕖𝕧𝕖𝕣 𝕪𝕠𝕦 𝕘𝕠 𝕥𝕙𝕣𝕠𝕦𝕘𝕙, 𝕡𝕣𝕖𝕤𝕖𝕣𝕧𝕖 𝕥𝕙𝕖 𝕞𝕒𝕘𝕚𝕔 𝕨𝕚𝕥𝕙𝕚𝕟 𝕪𝕠𝕦. 
 ½ 🇮🇪 ½ 🇹🇳 living in LDN.
NEXT: Dubai. Paris. Bali",,521423,13624,2.61,itsyasminemansur@hotmail.com,,Blogger,,https://scontent-lhr3-1.cdninstagram.com/vp/bbb3ea2222776cc167097bb61af0e7f6/5E2BBE69/t51.2885-19/s150x150/67306747_704274346678889_1613372037739315200_n.jpg?_nc_ht=scontent-lhr3-1.cdninstagram.com,0,0,0,"2019-10-03 10:21:12"
2695,viktoriahutter,195131100,"Viktoria J. Hutter",Viktoria,"Sharing what I love the most 
✉️ contact: viktoria.j.hutter@gmail.com",http://21buttons.com/viktoriahutter/,274293,18903,6.89,viktoria.j.hutter@gmail.com,,"Personal Blog",,https://scontent-lhr3-1.cdninstagram.com/vp/22f25c38ed93f240511c72c2b4c7d4e7/5E38F7D4/t51.2885-19/s150x150/69685196_758268851278322_7206055430118703104_n.jpg?_nc_ht=scontent-lhr3-1.cdninstagram.com,0,0,0,"2019-10-03 10:21:20"
2696,sarahhashcroft,195218938,"SARAH ASHCROFT",SARAH,"Owner of @SLAthelabel ⚡️
""DREAMS DONT WORK UNLESS YOU DO""",https://youtu.be/zWr4yaMku9Q,1114446,31601,2.84,contact@sarahashcroft.info,,"Just For Fun",#benefitbrowstyler,https://scontent-lhr3-1.cdninstagram.com/vp/f5b175e3c0258ece35611fbb323d4a6e/5E20E00E/t51.2885-19/s150x150/70511838_414542785870058_8664940178575458304_n.jpg?_nc_ht=scontent-lhr3-1.cdninstagram.com,1,0,1,"2019-10-03 10:21:28"
2697,danielle_fogarty1,1958742212,𝒟𝒶𝓃𝒾𝑒𝓁𝓁𝑒,,"Fashion & Travel 💛⚡️Co-Owner @stormfashionuk 
Danielle_fogarty@outlook.com 💌 @off_limits_ent",https://www.stormfashion.co.uk/,133220,5036,3.78,danielle_fogarty@outlook.com,,"Personal Blog",,https://scontent-lhr3-1.cdninstagram.com/vp/18362fafcc87db73f4eebbfbea499156/5E313D56/t51.2885-19/s150x150/64482553_2422041994741657_5603391604841775104_n.jpg?_nc_ht=scontent-lhr3-1.cdninstagram.com,0,0,1,"2019-10-03 10:21:36"
2698,jilvanhelen,200029652,,,Stylist/Consultant,,373079,25465,6.83,contact@jilvanhelen.com,,"Design & Fashion",,https://scontent-lhr3-1.cdninstagram.com/vp/d57a1e81f925c9a6e27de89776e214e4/5E2C289A/t51.2885-19/s150x150/52566064_1261461707340710_2024445225950248960_n.jpg?_nc_ht=scontent-lhr3-1.cdninstagram.com,0,0,1,"2019-10-03 10:21:42"
2699,becwatkinson,202543148,Bec,,"Email : bec@anythingbutregular.com
Manchester 
Click to shop my fits",http://21buttons.com/becwatkinson/,94710,4670,4.93,bec@anythingbutregular.com,,Blogger,,https://scontent-lhr3-1.cdninstagram.com/vp/ca47a9f06c0a696de5146a541e5221ad/5E1AE8DC/t51.2885-19/s150x150/68819271_674182173085212_2442486861159989248_n.jpg?_nc_ht=scontent-lhr3-1.cdninstagram.com,0,0,0,"2019-10-03 10:21:48"
2700,caitlin.fitzpatrickx,202816848,"Caitlin AngelaAnne Fitzpatrick",Caitlin,@hairbycaitlin_awhs,http://www.twitter.com/caitlinfitzpatx,10455,592,5.66,caitlinfitzpatrickx@gmail.com,,"Personal Blog",,https://scontent-lhr3-1.cdninstagram.com/vp/2ebad5d568d12a18e030bdb815268b2e/5E21A2DC/t51.2885-19/s150x150/69378720_586515268419127_2145727599081422848_n.jpg?_nc_ht=scontent-lhr3-1.cdninstagram.com,0,0,1,"2019-10-03 10:21:54"
2701,darcygilliesx,203801235,"Darcy Gillies",Darcy,"🇬🇧📍Business @lvlbydarcy",http://lvlbydarcy.kibook.co.uk/,29578,1166,3.94,darcy.gillies@hotmail.co.uk,,"Just For Fun",,https://scontent-lhr3-1.cdninstagram.com/vp/0b8892ebc64d9fbf4b0259c1d1965cb1/5E30B054/t51.2885-19/s150x150/64980627_1777305875705760_4824334990328201216_n.jpg?_nc_ht=scontent-lhr3-1.cdninstagram.com,0,0,1,"2019-10-03 10:22:02"
2702,sarahdescho,204280526,"SARAH DESCHO",SARAH,"Lifestyle and Fashion 
From Salzburg
Contact at sarah.descho@gmail.com",,186079,7074,3.8,sarah.descho@gmail.com,,Blogger,,https://scontent-lhr3-1.cdninstagram.com/vp/786d4d299964164d8009ae8b6ae26ae0/5E3B7E9B/t51.2885-19/s150x150/67897823_423758588256917_2082962364356886528_n.jpg?_nc_ht=scontent-lhr3-1.cdninstagram.com,0,0,1,"2019-10-03 10:22:09"
2703,arrestthisgal,204852101,"DANI 💋",DANI,"📍 augsburg | munich, germany
💌 business: mail@arrestthisgal.com
Dieser Account enthält Werbung. skrr skrrr
⬇️SHOP MY OUTFITS⬇️",http://21buttons.com/arrestthisgal/,143771,8574,5.96,mail@arrestthisgal.com,,"Public Figure",,https://scontent-lhr3-1.cdninstagram.com/vp/c70188223e53165df562f780f96413b1/5E336998/t51.2885-19/s150x150/59357179_327143954632906_8873111986372608000_n.jpg?_nc_ht=scontent-lhr3-1.cdninstagram.com,0,0,1,"2019-10-03 10:22:17"
2704,pollyinsider,2049462338,"Polly Insider",Polly,"Servin’ you the freshest celeb inspo on the daily💅🏽 || @ohpolly",http://www.ohpolly.com/,57932,5484,9.47,,,,,https://scontent-lhr3-1.cdninstagram.com/vp/8ebafef4deca54ef5c373d29b141290f/5E2B44B1/t51.2885-19/s150x150/56405608_1031110410416317_6695047123253067776_n.jpg?_nc_ht=scontent-lhr3-1.cdninstagram.com,0,0,0,"2019-10-03 10:22:23"
2705,emilycocklin,208971631,"ᴇ ᴍ ɪ ʟ ʏ  ᴄ ᴏ ᴄ ᴋ ʟ ɪ ɴ",,"Founder ⋆ @elainagraceuk
Management ✉️ annie@atgagency.co.uk",http://21buttons.com/emilycocklin/,244540,5985,2.45,cocklinemily@hotmail.co.uk,,"Digital Creator",#missygirls,https://scontent-lhr3-1.cdninstagram.com/vp/e6967251b8aeb2989c114e9cb68cd99a/5E30AC29/t51.2885-19/s150x150/70365407_436665840534589_7612279909490098176_n.jpg?_nc_ht=scontent-lhr3-1.cdninstagram.com,0,0,0,"2019-10-03 10:22:29"
2706,freyakillin,21129657,"FREYA KILLIN.",FREYA,"Hi my names Freya and I’m addicted to buying clothes. 
Glam life on the feed, real life on my stories. 
YOUTUBE ⬇️",https://youtu.be/pgs2btUuWS8,196036,16587,8.46,freyakillin1@hotmail.co.uk,,"Digital Creator",,https://scontent-lhr3-1.cdninstagram.com/vp/2a2655a91f3326c76956a2e77e24fa3e/5E39105E/t51.2885-19/s150x150/66140668_216060035956181_4179611745809072128_n.jpg?_nc_ht=scontent-lhr3-1.cdninstagram.com,0,0,0,"2019-10-03 10:22:36"
2708,bethanmccoy,220426475,"𝖇 𝖊 𝖙 𝖍 𝖆 𝖓",,"✰ 𝐚𝐥𝐥 𝐢 𝐞𝐯𝐞𝐫 𝐰𝐚𝐧𝐭𝐞𝐝 𝐰𝐚𝐬 𝐞𝐯𝐞𝐫𝐲𝐭𝐡𝐢𝐧𝐠 ✰
✉️ bethanmccoy@hotmail.com
@neonmodelmanagement",http://21buttons.com/bethanmccoy/,52902,1870,3.53,bethanmccoy@hotmail.com,,Art,,https://scontent-lhr3-1.cdninstagram.com/vp/a5c15b5e8298249f026fcf2e3b29d3ca/5E3BF592/t51.2885-19/s150x150/65099217_348137779211133_2904835185721737216_n.jpg?_nc_ht=scontent-lhr3-1.cdninstagram.com,0,0,1,"2019-10-03 10:22:50"
2054,amandakhamkaew,22306797,AMANDA,AMANDA,"Sweden • M💍
amanda.khamkaew@hotmail.com",,1204786,83251,6.91,amanda.khamkaew@hotmail.com,,Art,,https://scontent-lhr3-1.cdninstagram.com/vp/4a7275ebbdcf74f216bca2c8b094877b/5E39B897/t51.2885-19/s150x150/56236421_1353627731459266_2124368778258022400_n.jpg?_nc_ht=scontent-lhr3-1.cdninstagram.com,0,0,0,"2019-09-25 14:30:28"
2709,irisloveunicorns,223969486,"Ines Silva 🦄",Ines,"Believe in yourself...and Aliens 👽  
Owner of @rip.apparel and @neuher_official
Managed by @musetheagency 📧ines@musetheagency.com
👇🏻YOUTUBE CHANNEL👇🏻",https://youtu.be/obTnsGjq7zA,272378,6726,2.47,ines@musetheagency.com,,"Digital Creator",,https://scontent-lhr3-1.cdninstagram.com/vp/6f005794173f0d47644b23014fe064a9/5E25D06B/t51.2885-19/s150x150/59464500_1183621471799282_1238896227202891776_n.jpg?_nc_ht=scontent-lhr3-1.cdninstagram.com,0,0,0,"2019-10-03 10:22:58"
2710,charhunter,225085381,"🌴CHAR HUNTER⚡️",,,http://21buttons.com/charhunter,47937,1970,4.11,charlotte_hunter1@hotmail.co.uk,,,,https://scontent-lhr3-1.cdninstagram.com/vp/9e952c3114c36021ffd79962657536f0/5E1D8BF5/t51.2885-19/s150x150/69689705_2386726471574069_5072109162553409536_n.jpg?_nc_ht=scontent-lhr3-1.cdninstagram.com,0,0,0,"2019-10-03 10:23:04"
2711,amandampn,225690527,"Amanda Marie Nielsen",Amanda,"Copenhagen 
contact : Amandamariepn@gmail.com",,123409,20051,16.25,Amandamariepn@gmail.com,,Business,,https://scontent-lhr3-1.cdninstagram.com/vp/b8ef28cfed186308cbdfdad58731b138/5E3657B2/t51.2885-19/s150x150/66144430_900974660265285_6170245700715020288_n.jpg?_nc_ht=scontent-lhr3-1.cdninstagram.com,0,0,1,"2019-10-03 10:23:13"
2712,pollymarchant,22576520,"Polly Marchant",Polly,"▫️UK Influencer & Make Up Artist
▫️Contact: polly@elevationpr.co.uk
▫️CEO of @makeupbypolly_ 
▫️Owner of @glambypollysalon",http://www.makeupbypolly.com/,497262,8895,1.79,polly@elevationpr.co.uk,,,,https://scontent-lhr3-1.cdninstagram.com/vp/720965e786b1cee0a4fbbe39015ddfe2/5E237B95/t51.2885-19/s150x150/64571708_348270789454114_1429819201526169600_n.jpg?_nc_ht=scontent-lhr3-1.cdninstagram.com,0,0,1,"2019-10-03 10:23:21"
2713,sophfloyd,226326718,"𝔰𝔬𝔭𝔥𝔦𝔢 𝔣𝔩𝔬𝔶𝔡 🕷",,"✰ @topboytattoo 
✰youtube: sophie floyd
✰ info@sophfloyd.com",https://foreo.se/i3rv,274468,20627,7.52,info@sophfloyd.com,,,,https://scontent-lhr3-1.cdninstagram.com/vp/f09596468e6202c1ae5d21ecfca681c8/5E233346/t51.2885-19/s150x150/69703686_729846530770484_248144024743968768_n.jpg?_nc_ht=scontent-lhr3-1.cdninstagram.com,0,0,0,"2019-10-03 10:23:27"
2714,__stephdunn,227099550,"S T E P H D U N N",,"GLA 📍🌎                                             Depop - Steph2611 ❣️          @binky_theminidachshund",http://21buttons.com/__stephdunn/,26415,1917,7.26,stephaniedunn53@gmail.com,,"Personal Blog",,https://scontent-lhr3-1.cdninstagram.com/vp/e637de27673166b2cbc11ea68b1f4be1/5E379690/t51.2885-19/s150x150/65997392_2474273905929195_3820420431093956608_n.jpg?_nc_ht=scontent-lhr3-1.cdninstagram.com,0,0,1,"2019-10-03 10:23:33"
2715,amybamb,236730049,"Amy Bambrough",Amy,"Fashion posts, festivals, holidays & good times 👅@amybamextensions
@bamsboudoir",http://21buttons.com/amybamb/,59836,1348,2.25,amycbambrough@yahoo.co.uk,,"Personal Blog",,https://scontent-lhr3-1.cdninstagram.com/vp/ba0509997179428b876b47a9d48e755c/5E30183E/t51.2885-19/s150x150/69234509_698607980637858_7970498061925351424_n.jpg?_nc_ht=scontent-lhr3-1.cdninstagram.com,0,0,1,"2019-10-03 10:23:39"
2716,mon.agar,238385879,"monique agar",Monique,"Owner of @calmcreativeco 
styling | beauty | travel
collaborations: moniqueagar@gmail.com
👇🏼 blog, links, pinterest + depop",https://linktr.ee/moniqueagar,69705,6272,9,moniqueagar@gmail.com,,Blogger,,https://scontent-lhr3-1.cdninstagram.com/vp/e4fd7fe2ee6f1c849eb4c55a0fb081f3/5E379ECF/t51.2885-19/s150x150/67750209_1013840105620274_7405113424687923200_n.jpg?_nc_ht=scontent-lhr3-1.cdninstagram.com,0,0,0,"2019-10-03 10:23:45"
2717,ninninguyen,241140199,"N I N I  Ng . 🦋",,"》Empowered women empower women” 🕊
Based in Finland
contact - ninnicatarina-pr@hotmail.com",,293432,12596,4.29,ninnicatarina-pr@hotmail.com,,Business,,https://scontent-lhr3-1.cdninstagram.com/vp/87fece6660d3eb641e15f1264a964474/5E347E5E/t51.2885-19/s150x150/66518435_363607107900325_5341276231872544768_n.jpg?_nc_ht=scontent-lhr3-1.cdninstagram.com,0,0,1,"2019-10-03 10:23:51"
2718,sophiatuxford,24439617,"SOPHIA TUXFORD",SOPHIA,"you can find me and my bff on youtube and  @thegirlsbathroom 💜
sophiaandcinzia@hotmail.com💕💕💕💕💕",https://bit.ly/2F1VWfe,179743,26164,14.56,sophia.tuxford@icloud.com,,"Just For Fun",,https://scontent-lhr3-1.cdninstagram.com/vp/fbf1eb911a0ff99619aa2434c5164acd/5E16BA4F/t51.2885-19/s150x150/69236703_506622733449993_369384659382960128_n.jpg?_nc_ht=scontent-lhr3-1.cdninstagram.com,0,0,1,"2019-10-03 10:23:58"
2719,amyfuchsia,24580859,"Amy Shaw",Amy,"Styling & things 💕
I design clothes at @fuchsia.shaw
Shop my outfits & my YouTube below",https://linktr.ee/amyfuchsia,185534,9924,5.35,amyfcshaw@gmail.com,,"Fashion Designer",#liketkit,https://scontent-lhr3-1.cdninstagram.com/vp/77fdc0e92071ebd42e223d48dbc6f770/5E219B20/t51.2885-19/s150x150/67922985_395193387799593_5104818735831580672_n.jpg?_nc_ht=scontent-lhr3-1.cdninstagram.com,0,0,0,"2019-10-03 10:24:04"
2720,joeellyatt,246353813,"Joe Ellyatt 🦄",Joe,@wearekomodo,http://www.wearekomodo.com/,11807,732,6.2,joe.ellyatt@hotmail.com,7932422994,"Just For Fun",,https://scontent-lhr3-1.cdninstagram.com/vp/9c941e907626fab8ed31e7ef51e4e97c/5E18FF7E/t51.2885-19/s150x150/59008971_324325381591278_4142266777537085440_n.jpg?_nc_ht=scontent-lhr3-1.cdninstagram.com,0,0,1,"2019-10-03 10:24:11"
2721,lissyroddyy,248592887,"Alicia Roddy",Alicia,"Me in front of different concrete walls.
Email: alicia.roddy@hotmail.co.uk 
lissyroddy.com
youtube: lissyroddyy",,849416,25054,2.95,alicia.roddy@hotmail.co.uk,,"Personal Blog",,https://scontent-lhr3-1.cdninstagram.com/vp/04b20fd2dabb81c5eadb59fb3328f42f/5E1E121A/t51.2885-19/s150x150/66259004_421288481841123_7143942665350938624_n.jpg?_nc_ht=scontent-lhr3-1.cdninstagram.com,1,0,1,"2019-10-03 10:24:18"
2722,lauragilmour_,24886628,"LAURA GILMOUR",LAURA,"Glasgow - UK
Owner of @lalathelabel_
lauragilmourx@yahoo.com",http://www.lalathelabel.com/,173547,1692,0.97,lauragilmourx@yahoo.com,,Blogger,,https://scontent-lhr3-1.cdninstagram.com/vp/96d69cdeb2e0f0761fbf1a0029d878f6/5E23C535/t51.2885-19/s150x150/52843950_396508830925914_5642181640630304768_n.jpg?_nc_ht=scontent-lhr3-1.cdninstagram.com,0,0,0,"2019-10-03 10:24:25"
2723,sherriewebster,249780861,"SHERRIE 🦋 Fashion, streetstyle",SHERRIE,"London 🕊
Content creator 
Contact: nicole@lenismodels.com
YouTube - Sherrie Webster",http://21buttons.com/sherriewebster/,58356,2045,3.5,nicole@lenismodels.com,,Blogger,,https://scontent-lhr3-1.cdninstagram.com/vp/d65ab67853402b9e290539adab5d8d16/5E3460F5/t51.2885-19/s150x150/67248321_392239464618079_322959288433639424_n.jpg?_nc_ht=scontent-lhr3-1.cdninstagram.com,0,0,0,"2019-10-03 10:24:32"
2724,charlykhn,254059415,Charly,Charly,"all you see is not all i am.
✉️ management @musetheagency",,315931,22260,7.05,charly@musetheagency.com,,Business,,https://scontent-lhr3-1.cdninstagram.com/vp/0e7b6536fcc843e6ef66febc3b629f68/5E2BB489/t51.2885-19/s150x150/64325334_456377448279054_424668215696687104_n.jpg?_nc_ht=scontent-lhr3-1.cdninstagram.com,0,0,1,"2019-10-03 10:24:38"
2725,madeleinebitici,2571931,"Madeleine bitici",Madeleine,"Mommy to two little boys, eating plants and loving coffee ☕️ 
Management - g.allan@mokkingbird.com
Founder : @naliajewelry
NEW VIDEO 👇🏼",https://youtu.be/arqrptOO3Nw,275141,6392,2.32,g.allan@mokkingbird.com,,Entrepreneur,,https://scontent-lhr3-1.cdninstagram.com/vp/70d637d5c5b07118520d51433880f91f/5E233CC4/t51.2885-19/s150x150/62445810_342064263139361_2945104459786616832_n.jpg?_nc_ht=scontent-lhr3-1.cdninstagram.com,0,0,0,"2019-10-03 10:24:44"
2726,rebeccaspencerxx,259502161,"Rebecca Ann Spencer  👑",Rebecca,"Fashion Photographer 📸 my work > @rebeccaspencer_photography",https://youtu.be/Ph_KOFI_BTw,19414,831,4.28,rebeccaspencerphotography@hotmail.com,,Photographer,,https://scontent-lhr3-1.cdninstagram.com/vp/a3916458f9fa0c9c1319fc832e085c7b/5E255151/t51.2885-19/s150x150/70696631_455110688437123_922569192907997184_n.jpg?_nc_ht=scontent-lhr3-1.cdninstagram.com,0,0,1,"2019-10-03 10:24:52"
2727,aliceoliviac,262538961,"Alice Olivia",Alice,"manchester, UK 🇬🇧
business: aliceocross@gmail.com",https://youtu.be/9kO12qt14J8,464290,15168,3.27,aliceocross@gmail.com,,Blogger,,https://scontent-lhr3-1.cdninstagram.com/vp/81f0760bc89633b59f9947f3130043bf/5E3C0CFA/t51.2885-19/s150x150/71829681_447900955822598_2300521441654734848_n.jpg?_nc_ht=scontent-lhr3-1.cdninstagram.com,0,0,0,"2019-10-03 10:24:59"
2728,sophsuzanne,26469815,SOPH,,"☁️☁️☁️
Email 💌 - sophiemorgan98@yahoo.co.uk",http://www.21buttons.com/sophsuzanne,81491,1987,2.44,sophiemorgan98@yahoo.co.uk,,Business,,https://scontent-lhr3-1.cdninstagram.com/vp/ecb645d67147c1bf735081cd62f953ba/5E1CD784/t51.2885-19/s150x150/68900921_638721633317573_6967572423205978112_n.jpg?_nc_ht=scontent-lhr3-1.cdninstagram.com,0,0,1,"2019-10-03 10:25:06"
2729,paigekh,266680252,"Paige Howard",Paige,"Birmingham 
paigekhoward3@gmail.com",http://21buttons.com/paigekh,99922,3213,3.22,paigekhoward3@gmail.com,,"Personal Blog",,https://scontent-lhr3-1.cdninstagram.com/vp/f8f1ed336c347bce474c82c3899c015e/5E29B0E5/t51.2885-19/s150x150/56285377_398616000716903_6170570846919196672_n.jpg?_nc_ht=scontent-lhr3-1.cdninstagram.com,0,0,1,"2019-10-03 10:25:14"
2730,valentina.steinhart,268799034,VALENTINA,VALENTINA,"born in 1997, based in Salzburg                                                                               
contact: valentina.steinhart@gmail.com",,206568,12652,6.12,valentina.steinhart@gmail.com,,Blogger,,https://scontent-lhr3-1.cdninstagram.com/vp/fdca79afca128187db96886bbf262b64/5E291B80/t51.2885-19/s150x150/71170024_1147064305503070_4298541078157459456_n.jpg?_nc_ht=scontent-lhr3-1.cdninstagram.com,0,0,0,"2019-10-03 10:25:21"
2731,katerina_themis,26957173,"Katerina Themis 🐱",Katerina,"London 🇨🇾🇮🇪 
Mummy, DJ and influencer🖤 
@fashionnova ambassador 
For collabs email or dm me👇🏼
Selling items on Depop- katerina_themis",https://m.soundcloud.com/djkaterinathemis,388023,8533,2.2,katerina_1@hotmail.co.uk,,"Public Figure",,https://scontent-lhr3-1.cdninstagram.com/vp/2005ee432eb72ec30b18099a9618cc3e/5E252BF0/t51.2885-19/s150x150/42496273_2257088951192945_8344578387578191872_n.jpg?_nc_ht=scontent-lhr3-1.cdninstagram.com,0,0,1,"2019-10-03 10:25:29"
2732,noracim,270451385,"NORA NICKI CIMILI",NORA,"• Founder of @nickistudios 🙏🏻
• Influencer
• Agency: @artlikeyou
• Business inquiries: blogger@artlikeyou.no",http://nickistudios.com/,123963,8913,7.19,nora_nikci@hotmail.com,,Business,,https://scontent-lhr3-1.cdninstagram.com/vp/e7b6e0e99c541b5fbc5a73d209dee7c5/5E3AC8ED/t51.2885-19/s150x150/67288905_468532647030400_1645750481923866624_n.jpg?_nc_ht=scontent-lhr3-1.cdninstagram.com,0,0,1,"2019-10-03 10:25:35"
2733,amyshehab,270952998,,,"@shopamyshehab
📧 collabs@amyshehab.com",http://amyshehab.com/,168166,13015,7.74,collabs@amyshehab.com,,Business,,https://scontent-lhr3-1.cdninstagram.com/vp/07ca45b042611886c6f5818871bbd808/5E275A2C/t51.2885-19/s150x150/72597136_403540690546723_6764118628393549824_n.jpg?_nc_ht=scontent-lhr3-1.cdninstagram.com,0,0,1,"2019-10-03 10:25:41"
2734,sophinabull,271353095,"S O P H I N A  B U L L. 🕊",,"Nottingham
Some monochrome outfits",http://21buttons.com/sophinabull/,82571,7442,9.01,sophinabull@gmail.com,,Blogger,,https://scontent-lhr3-1.cdninstagram.com/vp/2a26bf9279f39b4b969aea3c5d7bd50a/5E38AC92/t51.2885-19/s150x150/67580331_370440417182989_1171070601880666112_n.jpg?_nc_ht=scontent-lhr3-1.cdninstagram.com,0,0,1,"2019-10-03 10:25:48"
2735,hollymcallisterrr,272099523,"DOLLY HOLLY",DOLLY,"PINK ADDICT 💖💖💖
Self taught MUA 🥰❤️
Live a life you will remember 
MAKE YOUR MARK 🌍
@makeupbyhollymcallister 
SCOTLAND 🏴󠁧󠁢󠁳󠁣󠁴󠁿❤️📍
COLLABORATION 📩❤️",https://youtu.be/E8-0qfDkrAM,85762,3266,3.81,hollydollly21@icloud.com,,"Public Figure",,https://scontent-lhr3-1.cdninstagram.com/vp/73032a68edbb62942f929a8c75cebf17/5E30D41D/t51.2885-19/s150x150/65800887_858592924520588_9132218077620994048_n.jpg?_nc_ht=scontent-lhr3-1.cdninstagram.com,0,0,0,"2019-10-03 10:25:54"
2736,lradwell,28502597,"Lucy Radwell 🙋🏼",Lucy,"Fashion Inspiration & Style 🕊Enquires@lucylurose.com                                    Shop my #fashion below 👇🏻",https://www.liketoknow.it/lradwell,187957,3216,1.71,enquires@lucylurose.com,,,,https://scontent-lhr3-1.cdninstagram.com/vp/8f23a0fe8329aad4f5409a9f967ccf28/5E2C2B69/t51.2885-19/s150x150/60326317_412927522893955_393459802207944704_n.jpg?_nc_ht=scontent-lhr3-1.cdninstagram.com,0,0,0,"2019-10-03 10:26:01"
2737,mariakragmann,2856007,"MARIA KRAGMANN",MARIA,"Copenhagen based
Founder of @MKAECPH 🌙
✉️ Agent: nina@social-works.com",http://www.mariakragmann.com/,203718,5402,2.65,maria_kragmann@hotmail.com,,"Digital Creator",,https://scontent-lhr3-1.cdninstagram.com/vp/106b21f56c8e84390eba594b36ba7316/5E253B64/t51.2885-19/s150x150/67483396_480833239146230_1243166214969098240_n.jpg?_nc_ht=scontent-lhr3-1.cdninstagram.com,0,0,0,"2019-10-03 10:26:08"
2738,cinziabayliszullo,285730113,"C I N Z I Λ",,"ɪ ᴍᴀᴋᴇ ᴠɪᴅᴇᴏs ᴡɪᴛʜ ᴍʏ ʙᴇsᴛɪᴇ🍦
@𝚝𝚑𝚎𝚐𝚒𝚛𝚕𝚜𝚋𝚊𝚝𝚑𝚛𝚘𝚘𝚖 🛁
💭𝚊𝚖𝚢@𝚖𝚊𝚛𝚐𝚛𝚊𝚟𝚒𝚗𝚎𝚖𝚊𝚗𝚊𝚐𝚎𝚖𝚎𝚗𝚝.𝚌𝚘𝚖",https://youtu.be/gTA3bUfYgsY,183919,31990,17.39,cinziaa_1997@hotmail.co.uk,,"Just For Fun",,https://scontent-lhr3-1.cdninstagram.com/vp/2a1c564fc2664fec42f5ab1551fe8388/5E199D77/t51.2885-19/s150x150/66025302_335541217400471_8262664560855482368_n.jpg?_nc_ht=scontent-lhr3-1.cdninstagram.com,0,0,1,"2019-10-03 10:26:16"
2739,yvzux,288191865,"IVONA ZUPET 🦂",IVONA,"Girl with high hopes and too many shoes 
London 
yvzux15@gmail.com",,235638,9305,3.95,yvzux15@gmail.com,,"Fashion Model",,https://scontent-lhr3-1.cdninstagram.com/vp/605bb70547e30a3f57a1784173cc83b9/5E279BF6/t51.2885-19/s150x150/65835154_2369339829948741_3471287813821956096_n.jpg?_nc_ht=scontent-lhr3-1.cdninstagram.com,0,0,0,"2019-10-03 10:26:23"
2740,sarahjoholder,28843331,"S A R A H  H O L D E R",,"UK | 25
Founder | @venusvirgoofficial 
Interior | @sarahjohome 
YouTube | Sarah Jo Holder",https://youtu.be/lmAwuvEmNzk,165549,8540,5.16,sarahjoholder@gmail.com,,"Digital Creator",,https://scontent-lhr3-1.cdninstagram.com/vp/803e74d753e0b630ddabf8401e9a3aa7/5E2A7E43/t51.2885-19/s150x150/60858177_596820134139392_8013857835542642688_n.jpg?_nc_ht=scontent-lhr3-1.cdninstagram.com,0,0,1,"2019-10-03 10:26:29"
2741,megemilymurray,28865171,"M     E     G",,"☾ Owner of @violetmoonstudio 
★@megmurraymakeup_andbeauty     
COLLABS: @pwrmanagementsocial  Emilie@pwrmanagement.co.uk",,79669,1495,1.88,megmurraymua@hotmail.com,,"Fashion Model",,https://scontent-lhr3-1.cdninstagram.com/vp/bf0c3e3517303321335923a1957dab44/5E1D34CB/t51.2885-19/s150x150/58113790_2285068241746874_8056559018874765312_n.jpg?_nc_ht=scontent-lhr3-1.cdninstagram.com,0,0,1,"2019-10-03 10:26:36"
2742,jillyisabella,29196957,"Jilly Isabella",Jilly,"To live where things happen on a big scale.
Outfit links -",http://21buttons.com/jillyisabella,60053,2765,4.6,jillycross123@hotmail.co.uk,,"Just For Fun",#ad,https://scontent-lhr3-1.cdninstagram.com/vp/a3591b0f0114329bc11e828bc64a6082/5E17BBA4/t51.2885-19/891500_1613858802193135_968165477_a.jpg?_nc_ht=scontent-lhr3-1.cdninstagram.com,0,0,1,"2019-10-03 10:26:42"
2743,hannahmbrownrigg,293884295,"🖤 𝙷𝚊𝚗𝚗𝚊𝚑",,"𝚁𝚎𝚌𝚘𝚟𝚎𝚛𝚒𝚗𝚐 𝚌𝚑𝚘𝚌𝚘𝚕𝚊𝚝𝚎 𝚊𝚍𝚍𝚒𝚌𝚝 🍩
@𝚑𝚊𝚗𝚗𝚊𝚑𝚖𝚋𝚌𝚕𝚘𝚜𝚎𝚝 
𝙲𝚘𝚕𝚕𝚊𝚋𝚜 𝙳𝙼 𝚘𝚛 𝚎𝚖𝚊𝚒𝚕
𝙱𝚛𝚘𝚠𝚗𝚛𝚒𝚐𝚐𝚑@𝚋𝚝𝚒𝚗𝚝𝚎𝚛𝚗𝚎𝚝.𝚌𝚘𝚖",https://bit.ly/2Nvmk6f,222138,10182,4.58,brownriggh@btinternet.com,,"Personal Blog","#ad #novababe",https://scontent-lhr3-1.cdninstagram.com/vp/7b07fc2b2d1b4d144117950a98200ca5/5E1C9AE0/t51.2885-19/s150x150/69006686_850888405312532_7484746645251293184_n.jpg?_nc_ht=scontent-lhr3-1.cdninstagram.com,0,0,1,"2019-10-03 10:26:49"
2744,elledarby_,29447207,ELLE,ELLE,"YouTuber ✨👼🏼
Team @womensbest 🍼😋",https://www.youtube.com/channel/UC1CUhQQjVS13V6cNKJyePDg,233338,25042,10.73,ellenorjanedarby@hotmail.com,,Blogger,#liketkit,https://scontent-lhr3-1.cdninstagram.com/vp/36d19fe3775f18c59a7c601fc1846e43/5E35BD9C/t51.2885-19/s150x150/67586680_602774193587640_7596760466072797184_n.jpg?_nc_ht=scontent-lhr3-1.cdninstagram.com,0,0,0,"2019-10-03 10:26:57"
2745,alexxcoll,29628684,"Alex Emily",Alex,"Nottingham 
Ambassador @missyempire 
Shop all of my outfits 👇🏼",http://21buttons.com/alexxcoll/,93354,6266,6.71,alex_collins19@hotmail.co.uk,,"Personal Blog",,https://scontent-lhr3-1.cdninstagram.com/vp/62dae0d4d7f43774866c9c7d8e5d5868/5E3CDF62/t51.2885-19/s150x150/56908087_261026951366873_4938842701089996800_n.jpg?_nc_ht=scontent-lhr3-1.cdninstagram.com,0,0,1,"2019-10-03 10:27:05"
2746,hannnb_x,29764001,Han,Han,"Ibiza 🌴 / manchester                                                               Follow my beauty page @bardsleybeauty",,10482,470,4.48,,,,,https://scontent-lhr3-1.cdninstagram.com/vp/a5ad635d2250a3cd35dabd40ba65d81a/5E1EA8FE/t51.2885-19/s150x150/47585269_1328382013969917_3130565313746173952_n.jpg?_nc_ht=scontent-lhr3-1.cdninstagram.com,0,0,0,"2019-10-03 10:27:13"
2747,charlotteemilysanders,29943791,"Charlotte Emily Sanders",Charlotte,info+charlotte@flourishmgmt.co.uk,https://www.isawitfirst.com/collections/charlotte-emily-sanders-style-edit?page=1,597965,12533,2.1,info+charlotte@flourishmgmt.co.uk,,"Personal Blog",,https://scontent-lhr3-1.cdninstagram.com/vp/beeeefd94e14421ee7c26fd90d1a8d48/5E2C73DF/t51.2885-19/s150x150/67839415_403397466959308_7517053865993175040_n.jpg?_nc_ht=scontent-lhr3-1.cdninstagram.com,0,0,1,"2019-10-03 10:27:19"
2748,leearnar,29967432,"Leearna Christie",Leearna,"MCR📍
MSc Criminology 
- For all outfit info...",http://21buttons.com/leearna/,40036,661,1.65,leearnaroberts@live.co.uk,,"Just For Fun",,https://scontent-lhr3-1.cdninstagram.com/vp/7c5ddaec7aa13d8a3d5a966fdf420199/5E24C357/t51.2885-19/s150x150/28152931_1444713505654977_5305835033624313856_n.jpg?_nc_ht=scontent-lhr3-1.cdninstagram.com,0,0,1,"2019-10-03 10:27:26"
2749,emilyshak,301060758,"E M I L Y S H A K",,"Scottish|Lebanese 🏴󠁧󠁢󠁳󠁣󠁴󠁿🇱🇧
✉️ @musetheagency",,918577,23318,2.54,shak@musetheagency.com,,"Personal Blog",#ad,https://scontent-lhr3-1.cdninstagram.com/vp/8bfcff2f2c531f01560bca0c0826b84f/5E2B85C7/t51.2885-19/s150x150/67368916_773581789724398_7103359764184170496_n.jpg?_nc_ht=scontent-lhr3-1.cdninstagram.com,0,0,1,"2019-10-03 10:27:32"
2750,holliepolliex,322340737,"Hollie Smyth-Curran",Hollie,"🔑 P O S I T I V I T Y 🔑
• Irish 👑 Supervisor&Pro Artist @ Inglot Newcastle 📍 •Enquiries: DM  • Freelance: @hsc_mua 
• YouTube 🎥 • depop:holliepolliex",https://youtu.be/jRKshrz1zkU,68282,815,1.19,holliersc@yahoo.co.uk,,"Personal Blog",#mua,https://scontent-lhr3-1.cdninstagram.com/vp/51a13e8106d56b2a6ec5aba286c7d7ef/5E20268D/t51.2885-19/s150x150/70660649_1674867179314894_2493398179421093888_n.jpg?_nc_ht=scontent-lhr3-1.cdninstagram.com,0,0,1,"2019-10-03 10:27:39"
2751,__k.wx,328361229,,,NCL,,13907,234,1.68,,,,,https://scontent-lhr3-1.cdninstagram.com/vp/19ef094f2b251df9159805e4dec047e0/5E2D5135/t51.2885-19/s150x150/40330086_317244005497958_5533481803689492480_n.jpg?_nc_ht=scontent-lhr3-1.cdninstagram.com,0,0,0,"2019-10-03 10:27:46"
2752,hattiebourn,336242725,"Hattie Smith",Hattie,"Otis & Marley’s Mummy, Wife & Co-owner of @bournsisters 🌙 
ellen@mokkingbird.com",http://www.bournsisters.com/,203969,18029,8.84,ellen@mokkingbird.com,,"Personal Blog",,https://scontent-lhr3-1.cdninstagram.com/vp/ef7f3d8f0aa00d3df8162a7e66952ea3/5E285B7D/t51.2885-19/s150x150/64510083_2393564270858735_7901469802810572800_n.jpg?_nc_ht=scontent-lhr3-1.cdninstagram.com,0,0,1,"2019-10-03 10:27:54"
2753,abbieblyth,338907813,"A B B I E XO",,"GLASGOW - L ❤️
Contact: abbieblyth@live.co.uk
Management: @agenc_uk
robin@agenc.co.uk
Shop all my outfits 👇🏼",http://21buttons.com/abbieblyth22/,207072,4797,2.32,abbieblyth@live.co.uk,,"Personal Blog",#ad,https://scontent-lhr3-1.cdninstagram.com/vp/f6517fff6cabf8687a290220becb1509/5E205E0D/t51.2885-19/s150x150/43817786_2232538503737346_2066472812381470720_n.jpg?_nc_ht=scontent-lhr3-1.cdninstagram.com,0,0,1,"2019-10-03 10:28:01"
2754,meganhelengrayx,35487560,MHG,,"📍 𝚄𝚔
𝚂𝚑𝚘𝚙 𝚖𝚢 𝚕𝚘𝚘𝚔𝚜 👇🏼",http://21buttons.com/meganhelengray/,66284,5902,8.9,meganhelengray1@gmail.com,,Blogger,,https://scontent-lhr3-1.cdninstagram.com/vp/05c9e1abb1ec7d85ec3509e9a1641080/5E212734/t51.2885-19/s150x150/67250423_1951627158270333_1250617669695045632_n.jpg?_nc_ht=scontent-lhr3-1.cdninstagram.com,0,0,1,"2019-10-03 10:28:08"
2755,parisnelson__,360035726,"Paris Nelson ✨",Paris,"▪️Manchester📍
▪️Fitness Instructor 🏋🏼‍♀️
▪️Sport Rehabilitation Student 👩🏼‍🎓
▪️Collabs: parisolivia19@icloud.com",http://21buttons.com/parisnelsonx,69462,2217,3.19,parisolivia19@icloud.com,,"Personal Blog",#ad,https://scontent-lhr3-1.cdninstagram.com/vp/f110f449a935d59a63011d6b92ce0b00/5E23854A/t51.2885-19/s150x150/67775866_342367920042713_4306107187035373568_n.jpg?_nc_ht=scontent-lhr3-1.cdninstagram.com,0,0,1,"2019-10-03 10:28:17"
2756,t22sra,36359648,"SARA LOU TURNBULL",SARA,"♌️ 2️⃣5️⃣
🐥 @ T22SRA
💖 21buttons.com/t22sra/
📍 DHM",https://depop.com/t22sra,13775,309,2.24,slturnbull_@hotmail.co.uk,,"Personal Blog",,https://scontent-lhr3-1.cdninstagram.com/vp/caecbd51cf4f6e174b22e54054dcd0c0/5E31A673/t51.2885-19/s150x150/69616772_649590152200003_521518276522541056_n.jpg?_nc_ht=scontent-lhr3-1.cdninstagram.com,0,0,1,"2019-10-03 10:28:25"
2757,laurenp0tts,372374304,LP,,"All things Instagram at @boohoo📱🧚🏼‍♀️
Home account: @no6isourhome 🏡",,24822,649,2.61,ljp0202@hotmail.co.uk,,"Just For Fun",,https://scontent-lhr3-1.cdninstagram.com/vp/6ba4a0da7eafe881456fca55083e1e46/5E16B88C/t51.2885-19/s150x150/70948122_894755644226981_8253987790614691840_n.jpg?_nc_ht=scontent-lhr3-1.cdninstagram.com,0,0,1,"2019-10-03 10:28:33"
2758,_rebeccajackson,375099518,"Rebecca Jackson",Rebecca,"Manchester UK
✉️ management @musetheagency 
Shop all my outfits via the link below",https://www.21buttons.com/_rebeccajackson,70186,7050,10.04,rebecca@musetheagency.com,,"Personal Blog",,https://scontent-lhr3-1.cdninstagram.com/vp/3f6e8fc2968fe3dd1f86046dacf6fdc4/5E286214/t51.2885-19/s150x150/56548149_169727493969660_7291985042673238016_n.jpg?_nc_ht=scontent-lhr3-1.cdninstagram.com,0,0,1,"2019-10-03 10:28:39"
2760,aconroyx,3873844643,"A M B E R 💋",,"20 |
Depop 💌 biancalincoln",http://21buttons.com/aconroyx,25708,1482,5.76,amberconroyyy@hotmail.com,,"Just For Fun",,https://scontent-lhr3-1.cdninstagram.com/vp/179167165ecb6a5d03840256ea1b4f5f/5E301B25/t51.2885-19/s150x150/62594804_2330496700550775_5964003385500762112_n.jpg?_nc_ht=scontent-lhr3-1.cdninstagram.com,0,0,1,"2019-10-03 10:28:54"
2761,oliviafaeh,3902309,"Olivia Faeh",Olivia,"ZURICH 🇨🇭
Shop my closet @oliviafaehvintage 
Contact: oliviafaeh@hotmail.com",http://www.oliviafaeh.com/,149588,3252,2.17,oliviafaeh@hotmail.com,,Art,,https://scontent-lhr3-1.cdninstagram.com/vp/9b7e21347014ce74accc5231b3522e36/5E22C90E/t51.2885-19/s150x150/67983938_491194504783578_8427800860771221504_n.jpg?_nc_ht=scontent-lhr3-1.cdninstagram.com,0,0,1,"2019-10-03 10:29:01"
2762,hollyboon__,420770030,"Holly Boon",Holly,"Founder/ CEO @hnbcosmetics
Email contact@hollyboon.co.uk",https://www.youtube.com/channel/UCIx7gDcJuZRUtaDGXPLkRig,504660,22013,4.36,contact@hollyboon.co.uk,,Art,,https://scontent-lhr3-1.cdninstagram.com/vp/e7cfe9ccf7b3668d3448f10bac130880/5E32A160/t51.2885-19/s150x150/64668571_914803975524662_5853768063391891456_n.jpg?_nc_ht=scontent-lhr3-1.cdninstagram.com,0,0,1,"2019-10-03 10:29:09"
2763,laurenwailesxo,449453286,"L A U R E N  🌙  G R A C E",,"Depop- Laurenwailesx 🛍
Collabs, email or DM-✉️lwailes2@hotmail.com💗💫",https://depop.com/laurengracechristinex,13384,1078,8.05,lwailes2@hotmail.com,,"Just For Fun",,https://scontent-lhr3-1.cdninstagram.com/vp/89d27231c7ee1f635d6b63bcd7b8c564/5E18E1EC/t51.2885-19/s150x150/69323817_534972413925435_3396699423189762048_n.jpg?_nc_ht=scontent-lhr3-1.cdninstagram.com,0,0,1,"2019-10-03 10:29:17"
2764,laurutherfordx,46155729,"Lauren Rutherford 💭",Lauren,"💌 Email: laurutherfordx@hotmail.com
👗 Depop shop: laurutherfordx
👛 Outfits tagged 21buttons: laurutherfordx
www.laurenrutherford.goherbalife.com",http://www.depop.com/laurutherfordx,79329,1350,1.7,laurutherfordx@hotmail.com,,"Just For Fun",,https://scontent-lhr3-1.cdninstagram.com/vp/46f0bf5ef91eb770266d75c9de902ecd/5E1E237F/t51.2885-19/s150x150/67295722_2268087356854165_1151974047706251264_n.jpg?_nc_ht=scontent-lhr3-1.cdninstagram.com,0,0,1,"2019-10-03 10:29:23"
2766,hayleypurcell,46558769,"H A Y L E Y  P U R C E L L",,"Essex / hayleypurcell@hotmail.co.uk",,153666,1995,1.3,hayleypurcell@hotmail.co.uk,,"Personal Blog",,https://scontent-lhr3-1.cdninstagram.com/vp/6bc0970fef311c3946b254e2efe888e3/5E2CB84E/t51.2885-19/s150x150/56816151_1060992310763877_1452006366922145792_n.jpg?_nc_ht=scontent-lhr3-1.cdninstagram.com,0,0,1,"2019-10-03 10:29:39"
2767,mary_bedford,469776821,"Mary Bedford",Mary,"2️⃣0️⃣
UK Model
Email • marybedford1@hotmail.co.uk
Management • @agenc_uk 
Robin@agenc.co.uk",http://21buttons.com/marybedford,109250,3247,2.97,marybedford1@hotmail.co.uk,,"Fashion Model",,https://scontent-lhr3-1.cdninstagram.com/vp/6edd243b1c0a64a2b9a63cc26ec95593/5E38E742/t51.2885-19/s150x150/67163413_365737344097252_8595379176012251136_n.jpg?_nc_ht=scontent-lhr3-1.cdninstagram.com,0,0,1,"2019-10-03 10:29:45"
2768,sofiamcoelho,472114465,"SOFIA COELHO",SOFIA,"London 
sofiamcoelho27@gmail.com",,199407,6714,3.37,sofiamcoelho27@gmail.com,,,,https://scontent-lhr3-1.cdninstagram.com/vp/e2d743065841d3fbb878acae490cf66d/5E2269D6/t51.2885-19/s150x150/72159216_798620103900298_8765005108321714176_n.jpg?_nc_ht=scontent-lhr3-1.cdninstagram.com,0,0,0,"2019-10-03 10:29:53"
2769,nataliakurda,49032674,Natalia,Natalia,"@fursbynatalia co-founder
Full outfit links on @21buttons_uk 
And below:",https://www.liketoknow.it/nataliakurda,136559,6385,4.68,nataliakurda@gmail.com,,"Digital Creator",,https://scontent-lhr3-1.cdninstagram.com/vp/8e4a54ccd2e5f4fc244e7e1956487db5/5E17D01F/t51.2885-19/s150x150/68665843_708406092965169_1530982573453344768_n.jpg?_nc_ht=scontent-lhr3-1.cdninstagram.com,0,0,1,"2019-10-03 10:29:58"
2771,molly.mcfarlane,500130369,"MISS MOLLY⚡️",,"GLA | MANC📍
YT Miss Molly 🎥
All outfits are tagged here",http://21buttons.com/missmollyx,63411,2832,4.47,info@grlpwrmanagement.co.uk,,"Personal Blog",#ad,https://scontent-lhr3-1.cdninstagram.com/vp/419260de44dc191246276698834b0419/5E1E050B/t51.2885-19/s150x150/69382573_499969527244031_1386723018641768448_n.jpg?_nc_ht=scontent-lhr3-1.cdninstagram.com,0,0,1,"2019-10-03 10:30:11"
2772,xnaomi_fordx,5044287,"Naomi Ford",Naomi,"half Vietnamese 29, Salon owner Chester 👇🏽naomi_heap@hotmail.com
@naomichantellehair @naomichantelle_",http://www.naomichantellehair.com/,17878,408,2.28,naomi_heap@hotmail.com,,,,https://scontent-lhr3-1.cdninstagram.com/vp/60c392784dc41802401f002d54d2a134/5E2E939A/t51.2885-19/s150x150/67331989_529589594517237_3078529611701682176_n.jpg?_nc_ht=scontent-lhr3-1.cdninstagram.com,0,0,0,"2019-10-03 10:30:17"
2773,aliciabonora,507187201,ALICIA,ALICIA,"I'm from the Netherlands
Mom of one 👶🏽",,129290,6641,5.14,aliciabonora18@gmail.com,,"Personal Blog",#ad,https://scontent-lhr3-1.cdninstagram.com/vp/af51094d4b4b56f0fe079ec74f0b83d2/5E324871/t51.2885-19/s150x150/70717568_1221648268007380_6656447792602415104_n.jpg?_nc_ht=scontent-lhr3-1.cdninstagram.com,0,0,1,"2019-10-03 10:30:24"
2774,katieewilliamson_,509895336,"Katie Williamson",Katie,📍Newcastle,,32658,441,1.35,,,,,https://scontent-lhr3-1.cdninstagram.com/vp/66e69d47af3e08cbca033d468260f0d5/5E261B01/t51.2885-19/s150x150/69869700_480454882797888_4010161765424824320_n.jpg?_nc_ht=scontent-lhr3-1.cdninstagram.com,0,0,0,"2019-10-03 10:30:31"
2775,naomigenes,51094824,"NAOMI GENES",NAOMI,"New mama, Fiancée & A/W shopping addict fuelled by Coffee ☕️ 
@mynolagirl for all things motherhood 
naomi@insanityhq.com",,635458,42219,6.64,naomi@insanityhq.com,,"Personal Blog",,https://scontent-lhr3-1.cdninstagram.com/vp/7d524d894d6970e987cd10be526b1927/5E363818/t51.2885-19/s150x150/69621225_741437989653573_3330439055748890624_n.jpg?_nc_ht=scontent-lhr3-1.cdninstagram.com,0,0,1,"2019-10-03 10:30:39"
2776,gracelk_,53365926,Grace,Grace,"London📍. Travel enthusiast ✈️ . Luxury marketing manager and Gen Z investor at @luxurypromise. Private account @gracelk_private",http://www.luxurypromise.com/,21457,894,4.17,grace.kennett@hotmail.com,,"Personal Blog",,https://scontent-lhr3-1.cdninstagram.com/vp/73c42d8086d346607e792ee34ed4549c/5E1E3C47/t51.2885-19/s150x150/54513480_1303861499769648_7517224045482344448_n.jpg?_nc_ht=scontent-lhr3-1.cdninstagram.com,0,0,1,"2019-10-03 10:30:46"
2777,barbarakristoffersen,5395721,"Barbara Kristoffersen",Barbara,"Copenhagen.
E-mail: barbarahkristoffersen@gmail.com",,165092,24451,14.81,barbarahkristoffersen@gmail.com,,"Personal Blog",#reklame,https://scontent-lhr3-1.cdninstagram.com/vp/ad17748921cfe13c13b4c352de43f9ba/5E21DEF5/t51.2885-19/s150x150/69316454_2688249271205843_1210976745050603520_n.jpg?_nc_ht=scontent-lhr3-1.cdninstagram.com,0,0,1,"2019-10-03 10:30:54"
2778,streetstyleluxe,550324358,streetstyleluxe,,"besties sharing our faves 👫 @lornaluxe + @samuelwthomas Shop LORNA LUXE x @inthestyle 👇🏻",https://www.inthestyle.com/lorna-luxe,351654,1939,0.55,,,,,https://scontent-lhr3-1.cdninstagram.com/vp/b6db335542d0f5109e93bc96627e3cc7/5E33D6D3/t51.2885-19/s150x150/13557343_1037915576244484_180205166_a.jpg?_nc_ht=scontent-lhr3-1.cdninstagram.com,0,0,0,"2019-10-03 10:31:00"
2779,chlocraig,593470231,"Chloë Craig",Chloë,"UK
collabs: chloecraig@hotmail.co.uk
outfit links ↓",http://21buttons.com/chlocraig,67292,4397,6.53,chloecraig@hotmail.co.uk,,"Fashion Model",,https://scontent-lhr3-1.cdninstagram.com/vp/f374078b7578403e4c7628abed63a5a0/5E38E551/t51.2885-19/s150x150/65049414_2425377387526263_3728685723562278912_n.jpg?_nc_ht=scontent-lhr3-1.cdninstagram.com,0,0,1,"2019-10-03 10:31:06"
2780,bethwalton__,598111299,"Beth Walton",Beth,"21 | north east 😜 ⠀⠀⠀⠀⠀⠀⠀⠀ ⠀⠀⠀⠀⠀⠀ ⠀ ⠀ ⠀⠀⠀⠀ DEPOP - bethwaltonxx",http://twitter.com/bethwalton__,39384,947,2.4,bethwalton-@outlook.com,,"Just For Fun",,https://scontent-lhr3-1.cdninstagram.com/vp/9b74ba80810956a5dee7d8e901943cad/5E1CB82F/t51.2885-19/s150x150/69278899_469896416899950_2082357671616315392_n.jpg?_nc_ht=scontent-lhr3-1.cdninstagram.com,0,0,1,"2019-10-03 10:31:12"
2781,jordanlipscombee,647408898,"YOUTUBER | 21",,"Business Email- jordanlipscombe@mcsaatchisocial.com
Twitter- @jordnlipscombe
Sc- jordancharliexo",https://www.missguided.co.uk/collaborations/jordan-lipscombe-x-missguided,428529,44819,10.46,jordanlipscombe@mcsaatchisocial.com,,"Video Creator",#ad,https://scontent-lhr3-1.cdninstagram.com/vp/93023301e56ec6aa0419efbf50416ab0/5E1F11B6/t51.2885-19/s150x150/66149543_755715924884798_2834583333374001152_n.jpg?_nc_ht=scontent-lhr3-1.cdninstagram.com,0,0,1,"2019-10-03 10:31:19"
2782,kateehutchins,684131419,"Kate Hutchins",Kate,"📍London 
🎓Graphic Branding & Identity at UAL         
💌 kate@whalarstars.com
✨Latest video linked below",https://youtu.be/ez5gr1_dKcw,169010,11517,6.81,kate@whalarstars.com,,Blogger,,https://scontent-lhr3-1.cdninstagram.com/vp/ee12f1879aed426f5c6fbe9d89806594/5E26E94B/t51.2885-19/s150x150/69803422_864981570564133_6541969356337709056_n.jpg?_nc_ht=scontent-lhr3-1.cdninstagram.com,0,0,0,"2019-10-03 10:31:26"
2783,hauteonlife,710162150,"✨Louise✨ | hauteonlife.com",,"•hauteonlife@gmail.com
•YouTube search 'Hauteonlife'
•Shop my Instagram ⤵️",https://www.hauteonlife.com/p/shop-my-instagram.html,118378,4115,3.48,hauteonlife@gmail.com,,"Personal Blog",#liketkit,https://scontent-lhr3-1.cdninstagram.com/vp/badc1ce61026efafc8e11e2ef2209bc1/5E36086A/t51.2885-19/s150x150/53470248_416563225816481_4324121568364986368_n.jpg?_nc_ht=scontent-lhr3-1.cdninstagram.com,0,0,1,"2019-10-03 10:31:34"
2784,stessostyle,7208003401,STESSO,,"Igniting the stylist in every female one outfit at a time ★
UK designed & worldwide shipping ⚡︎
No restocks BBY~
Tag us in your snaps & #mystessostyle",https://stessostyle.com/,14079,249,1.77,info@stessostyle.com,,"Clothing (Brand)",,https://scontent-lhr3-1.cdninstagram.com/vp/32ba209eb6464693af5a8300ef6b9d1d/5E34EF79/t51.2885-19/s150x150/54446567_2313108029013837_1952690439991590912_n.jpg?_nc_ht=scontent-lhr3-1.cdninstagram.com,0,0,1,"2019-10-03 10:31:41"
2785,laurenxwatsonnn,7707170,"🇱​🇦​🇺​🇷​🇪​🇳 ​ 🇼​🇦​🇹​🇸​🇴​🇳",,"⋆ Fashion, Travel, Lifestyle
⋆ Depop: laurenwatsonnnx
⋆ Preset filters in highlights",http://21buttons.com/laurenxwatsonnn/,59638,1376,2.31,laurenxwatsonnn@hotmail.com,,"Digital Creator",,https://scontent-lhr3-1.cdninstagram.com/vp/e46e2cebbf1a86b8894aa90e1feb74ac/5E24E601/t51.2885-19/s150x150/57625238_1003168549874215_2400617226446045184_n.jpg?_nc_ht=scontent-lhr3-1.cdninstagram.com,0,0,0,"2019-10-03 10:31:47"
2786,ranasheibani,7822185,"RANA SHEIBANI ⋆ daily outfits",RANA,"· Sweden📍                  
· ranasheibani.ig@gmail.com ✉️
 
· Subscribe to my YouTube channel  🎥",https://youtu.be/jfA3EVW52KU,81155,1632,2.01,ranasheibani.ig@gmail.com,,Blogger,,https://scontent-lhr3-1.cdninstagram.com/vp/6b5a706f7c87f08fc590f0d8cb3f4d90/5E3717DA/t51.2885-19/s150x150/24838649_529966097367343_2594601417234710528_n.jpg?_nc_ht=scontent-lhr3-1.cdninstagram.com,0,0,0,"2019-10-03 10:31:55"
2787,shannenjai,8080845,"SHANNEN JAI JEGGO",SHANNEN,"TWENTY-FIVE YEAR OLD WIFE, MUM-TO-BE, 
CEO/DESIGNER @BYSHANNENJAI & RETIRED FASHION BLOGGER, TAKING SELFIES IN MIRRORS SINCE 2012",http://WWW.BYSHANNENJAI.COM/,329435,16971,5.15,shannenjai@hotmail.com,,,,https://scontent-lhr3-1.cdninstagram.com/vp/5ef648a29d174eae40ed6442f0deab51/5E354767/t51.2885-19/s150x150/64465171_472248580218896_2660151551703646208_n.jpg?_nc_ht=scontent-lhr3-1.cdninstagram.com,0,0,0,"2019-10-03 10:32:02"
2788,hanevans25,854409007,HanEvans✨,,"Manchester/leeds 📍
20 years old 💛
@cutenutrition for discount use HAN10 💕
Depop: https://depop.com/hannahevansx 👗
Collabs: hannahevans25@outlook.com 💌",,70067,2351,3.36,hannahevans25@outlook.com,,"Just For Fun",,https://scontent-lhr3-1.cdninstagram.com/vp/ed12ac2f217d32404ae3b205c0e16e8b/5E23030A/t51.2885-19/s150x150/67610325_710503452755016_934655312483319808_n.jpg?_nc_ht=scontent-lhr3-1.cdninstagram.com,0,0,1,"2019-10-03 10:32:08"
2789,theoutfitcommunity,9162265293,"The Outfit Community",,"- Dubai📍
- @theoutfitcommunity 
- Fashion & inspiration content 
- Collabs -> DM or email",,84663,1717,2.03,outfitcommunity@outlook.com,,"Personal Blog",,https://scontent-lhr3-1.cdninstagram.com/vp/8240b7fd151b6c48dd1ab03329cc52bf/5E35EAC0/t51.2885-19/s150x150/68792783_1724890720989211_1078237138635456512_n.jpg?_nc_ht=scontent-lhr3-1.cdninstagram.com,0,0,1,"2019-10-03 10:32:15"
2790,emilyjadesheekey,944287380,"Emily Jade Sheekey 👸🏽",Emily,"•Surrey
•emilysheekey94@hotmail.com
MTP🔐",http://21buttons.com/emilyjadesheekey/,33126,655,1.98,emilysheekey94@hotmail.com,,"Personal Blog",,https://scontent-lhr3-1.cdninstagram.com/vp/d2946454ed30416f9ddf00b37bf9e5a3/5E34CFB9/t51.2885-19/s150x150/13687018_201023876962659_590356968_a.jpg?_nc_ht=scontent-lhr3-1.cdninstagram.com,0,0,1,"2019-10-03 10:32:21"
