7,cinema.magic,1680487310,"Cinema Magic",,"Sharing the love for Cinema.
Follow my second page @colorpalette.cinema",,1770012,73460,4.15,cinema.magic@outlook.com,,Community,,https://scontent-lht6-1.cdninstagram.com/vp/fc33f48ab3e523bad0a3fb1e15e67ba4/5E11C8A7/t51.2885-19/s150x150/12555881_582267995263101_871655601_a.jpg?_nc_ht=scontent-lht6-1.cdninstagram.com,0,0,1,"2019-09-09 09:33:41"
8,directors_visions,2082249778,"Directors Visions",,"Movies, Moments & More! 🍿🎬
Founder: @bartkwint",,479594,11256,2.35,directorsvisions@gmail.com,,Community,,https://scontent-lht6-1.cdninstagram.com/vp/2dea5613ec14ea5462519c2445ac1891/5E13B459/t51.2885-19/s150x150/43641324_171927180357374_7081857641776939008_n.jpg?_nc_ht=scontent-lht6-1.cdninstagram.com,0,0,1,"2019-09-09 09:33:47"
9,fuckinggoodmovies,2322540675,"fuckinggoodmovies ®",,"Movies, Films, Cinema 
A growing archive of posters, videos and stills
@freparedis",,296555,9479,3.2,freparedis1@hotmail.com,,"Media/News Company",,https://scontent-lht6-1.cdninstagram.com/vp/40378dd996c7b61816262a96663fe7d2/5DFF541F/t51.2885-19/s150x150/54247873_390822008422987_8934141667762503680_n.jpg?_nc_ht=scontent-lht6-1.cdninstagram.com,0,0,1,"2019-09-09 09:33:53"
10,bestof_movies,3703201061,,,"🎬 🖤",,111098,4721,4.25,rrmahajan007@gmail.com,,"Movie Theater",,https://scontent-lht6-1.cdninstagram.com/vp/f14aebef6a52648f5a84edbb2c5c92dc/5DFFCE57/t51.2885-19/s150x150/20067288_1486524931413464_4496280796939681792_a.jpg?_nc_ht=scontent-lht6-1.cdninstagram.com,0,0,1,"2019-09-09 09:34:00"
11,posteraholic,4212220311,"Posteraholic 🎬",,"💉Are You a Posteraholic?",,36264,1854,5.11,rasoul_acount@yahoo.com,9358924773,Art,"#postaraholic #quentintarantino #joker",https://scontent-lht6-1.cdninstagram.com/vp/6b85b9fe70dd1cce533bf5a27a7c390a/5E0690D3/t51.2885-19/s150x150/19052052_1804522673195317_6708858449586814976_a.jpg?_nc_ht=scontent-lht6-1.cdninstagram.com,0,0,1,"2019-09-09 09:34:07"
12,must_act,2021266871,"Must Act",,"Inspiring Actors,Filmmakers and Dreamers Worldwide. 
© Credit to all Photographers and Actors
📧Mustkeepacting@gmail.com",,218760,10351,4.73,mustkeepacting@gmail.com,,Community,,https://scontent-lht6-1.cdninstagram.com/vp/a5629d4fc07769216b2ef09281fab467/5DFCE94A/t51.2885-19/11230364_1397055800619928_787466990_a.jpg?_nc_ht=scontent-lht6-1.cdninstagram.com,0,0,1,"2019-09-09 09:34:13"
13,cinemadelarte,6506186850,"C I N E M A  D E L  A R T E",,"Good films make your life better.
DM for paid promotions 📩
Admin: @kaganasar",,65993,1582,2.4,,,"Video Creator",,https://scontent-lht6-1.cdninstagram.com/vp/43213dac2dcf27c6655531715827d68a/5DFD55F5/t51.2885-19/s150x150/64593299_2057733884534238_2714151582810767360_n.jpg?_nc_ht=scontent-lht6-1.cdninstagram.com,0,0,0,"2019-09-09 09:34:20"
14,eyesneverliechico,1695907208,🌑🕸🌕⚔🍷🗝,,"Submissions and Business enquiries; businessliechico@gmail.com or via DM 📩 
@artneverlieschico 🔮🥃 & @timeneverlieschico 🎸🍸",https://twitter.com/enlchico,1114631,41475,3.72,businessliechico@gmail.com,,Business,,https://scontent-lht6-1.cdninstagram.com/vp/8d60461cffeb3d0804146978d0fecbb1/5DF08EFD/t51.2885-19/s150x150/39049041_2022218121181714_4136644742656032768_n.jpg?_nc_ht=scontent-lht6-1.cdninstagram.com,0,0,1,"2019-09-09 09:34:27"
15,filmoment,1301110983,Filmoment,,📮filmoment@gmail.com,,130277,13427,10.31,filmoment@gmail.com,,Media,,https://scontent-lht6-1.cdninstagram.com/vp/30e9d3aed9dac65b29ce61421decd836/5E09AE2A/t51.2885-19/s150x150/60320998_384777712123618_4184065017009668096_n.jpg?_nc_ht=scontent-lht6-1.cdninstagram.com,0,0,1,"2019-09-09 09:37:08"
16,mastersofcinema,3231204998,"Masters of Cinema",,"Stop Making Excuses. Start Making Films.
•
Founded by @twm_burrows  
•
Check out our YouTube channel!⤵️
•",https://www.youtube.com/channel/UCwD6cBY-5-83mnhYyzwEloQ,61249,3531,5.76,mastersofcinemamail@gmail.com,,"Visual Arts","#cinematography #cinema #film",https://scontent-lht6-1.cdninstagram.com/vp/136bce4bc1588a83ecda201e158c0f50/5DFF5CE5/t51.2885-19/s150x150/53690433_2310321709211923_8136062802008735744_n.jpg?_nc_ht=scontent-lht6-1.cdninstagram.com,0,0,1,"2019-09-09 09:37:15"
17,cinematologist_,11045284173,Cinematologist,,"➡️ DM / email for promotions ⬅️",,60687,3323,5.48,cinematologistt@gmail.com,,Media,,https://scontent-lht6-1.cdninstagram.com/vp/0cfb202f53b99198787d62419c96ffbf/5DF57191/t51.2885-19/s150x150/56219739_356263011908354_8126949976623284224_n.jpg?_nc_ht=scontent-lht6-1.cdninstagram.com,0,0,0,"2019-09-09 09:37:21"
18,imdb,406678484,IMDb,,"#IMDb is the most authoritative source for movies, TV, and celebrity content.",https://imdb.to/TIFF19,1814194,18132,1,imdbsocial@amazon.com,,"Entertainment Website","#tiff19 #imdbstudio",https://scontent-lht6-1.cdninstagram.com/vp/38df3abf138af5fb7a9f8f3f60000107/5E00577C/t51.2885-19/s150x150/57390247_440185083471396_4330954311577108480_n.jpg?_nc_ht=scontent-lht6-1.cdninstagram.com,1,0,1,"2019-09-09 09:37:26"
19,lynncinema,2017552010,Cinéma,,"Everything cinema. @lynnsfeir",,89369,9340,10.45,lynn.sfeir@gmail.com,,"Entertainment Website",,https://scontent-lht6-1.cdninstagram.com/vp/62b12a3b9e89bd0e8020ff5365b9d8aa/5DFFB567/t51.2885-19/s150x150/42569016_468952933596730_5733758654142742528_n.jpg?_nc_ht=scontent-lht6-1.cdninstagram.com,0,0,1,"2019-09-09 09:37:33"
20,cinematic_imagery,4481662632,"Jake | Film Addict",Jake,"""Art is born out of an ill-designed world.""
Andrei Tarkovsky
Second Account: @cinematic_bts",,67214,2689,4,jakedurston@googlemail.com,,"Movie Theater","#instaart #cinephile #cinematography",https://scontent-lht6-1.cdninstagram.com/vp/5b242c5d4b00c170428fc5608637c22a/5E092F17/t51.2885-19/s150x150/17267396_199459473878845_1108640619418353664_a.jpg?_nc_ht=scontent-lht6-1.cdninstagram.com,0,0,1,"2019-09-09 09:37:41"
21,thecinegogue,2925085093,"The Cinegogue",,"come gather in praise of cinema
twitter: @TheCinegogue",http://thecinegogueshop.com/,52076,2154,4.14,contact@thecinegogue.com,,"Movie/Television Studio",,https://scontent-lht6-1.cdninstagram.com/vp/9c25641c6e22670a25f7e1b5dc0814c0/5DFAB038/t51.2885-19/s150x150/13402277_588548487982666_1113320827_a.jpg?_nc_ht=scontent-lht6-1.cdninstagram.com,0,0,1,"2019-09-09 09:37:47"
22,colorpalette.cinema,3556500983,"Color Palette Cinema",,"Color can affect us psychologically,
often without us being aware,
and can be used as a strong device in a story. 
📥| DM for requests.",,706896,23775,3.36,colorpalette.cinema@outlook.com,,"Visual Arts",,https://scontent-lht6-1.cdninstagram.com/vp/db191659cddb5cee63712dae2de4dc5b/5DEF480D/t51.2885-19/s150x150/26066012_160361574603041_7540011565701922816_n.jpg?_nc_ht=scontent-lht6-1.cdninstagram.com,0,0,1,"2019-09-09 09:37:53"
23,addicted_to_film,6164191654,"Addicted To Films🎬",,"“There are no two words in the English language more harmful than good job.”
My photography galery: @hfo.photography",,51141,4568,8.93,henriquefoliveira494@gmail.com,,Business,,https://scontent-lht6-1.cdninstagram.com/vp/f6d53e22e4268fec023ed9c8d8ce9179/5E027650/t51.2885-19/s150x150/22221242_343567072780274_1578534681828130816_n.jpg?_nc_ht=scontent-lht6-1.cdninstagram.com,0,0,1,"2019-09-09 09:37:59"
24,cultmovie_,8677517536,,,"“ᴄɪɴéᴍᴀ ᴄɪɴéᴍᴀ ᴄɪɴéᴍᴀ""",https://letterboxd.com/Renatonyc/,28638,1906,6.66,,,,,https://scontent-lht6-1.cdninstagram.com/vp/6cd3a7793b496a4d9608a7300ee50d28/5DEFF421/t51.2885-19/s150x150/67282691_503899713808503_4408803192272322560_n.jpg?_nc_ht=scontent-lht6-1.cdninstagram.com,0,0,0,"2019-09-09 09:38:07"
25,cinephile.club,4188156599,"CINEPHILE CLUB",,"""A Day without Movies is a Day Wasted."" 🍿
Quotes, Videos, BTS of underrated & overlooked movies/TV serials. 🎥
DM for Business 📩
📌@bestmovieframes",https://youtu.be/yMJnsTx-TBg,196740,12230,6.22,cinephileclub@yahoo.in,,Media,#dyk,https://scontent-lht6-1.cdninstagram.com/vp/057c2ffe91b36a65a4c97ec521b9a9f1/5DEFFBAB/t51.2885-19/s150x150/59704462_646533922459573_7488585173487845376_n.jpg?_nc_ht=scontent-lht6-1.cdninstagram.com,0,0,1,"2019-09-09 09:38:14"
26,cinema_perspective,716452672,sohbetm,,"Community of Cinephiles!🍿🎬
©️All copyrights belong to their respective owners!
Business, removal requests & questions!📩",https://bit.ly/2T2Dwlt,135409,3207,2.37,sohbetwayne@gmail.com,,Movie,,https://scontent-lht6-1.cdninstagram.com/vp/6c3676c3a13f0b4d14a738eeb624c493/5E0BE0AB/t51.2885-19/s150x150/14677455_1783405648580208_6609724359512686592_n.jpg?_nc_ht=scontent-lht6-1.cdninstagram.com,0,0,1,"2019-09-09 09:38:20"
27,endless_kaos,7227498868,Kaos,,"Art for broken hearts 💔",,86424,4254,4.92,boffimarco18@gmail.com,,"Personal Blog",,https://scontent-lht6-1.cdninstagram.com/vp/48d0bb6a6b6ae4464ad89a60d31636cc/5DF4BB0E/t51.2885-19/s150x150/29089824_152293012129094_3146697472902955008_n.jpg?_nc_ht=scontent-lht6-1.cdninstagram.com,0,0,1,"2019-09-09 09:38:26"
28,musicmonkeys_,6326837920,"Music Monkeys",,"• Music 🎧
• Entertainment 🎬
• Concerts 🎸
• DM for Collaborations 💻🎥🎙",http://www.lascimmiapensa.com/,115726,6004,5.19,lascimmiapensa.com@gmail.com,,"Entertainment Website",,https://scontent-lht6-1.cdninstagram.com/vp/1e3b31c3f0655b617f5144a53c5a059d/5DF3735C/t51.2885-19/s150x150/24125408_1679012335452614_822837831796785152_n.jpg?_nc_ht=scontent-lht6-1.cdninstagram.com,0,0,1,"2019-09-09 09:38:34"
29,popatemedia,2277673737,Popate,,"A rendezvous for TV Shows, Movies & Art!
New Artwork Every Day!
Original Artwork 🎨 by @vikrantbanerjee
DM for commissions
THE SHOP IS OPEN",http://popate.com/,8532,133,1.56,vikrant@popate.com,,Art,"#minimalistdesign #fanartfriday #cinephilecommunity",https://scontent-lht6-1.cdninstagram.com/vp/a37a29d474485577bf5ace7ce9decf52/5DF585C2/t51.2885-19/s150x150/28427418_360204024496417_5348166866948849664_n.jpg?_nc_ht=scontent-lht6-1.cdninstagram.com,0,0,1,"2019-09-09 09:38:42"
30,cinema.language,5349261164,"Cinema Language",,"₩• Everything Cinema •₩ 🎥💫
Second page: @1perfectframe 
Third page: @actors.assemble 
Letterboxd 👇",https://boxd.it/EvOR,63298,13232,20.9,cinema.language1@gmail.com,,"Film Director","#art #filmisnotdead #hollywood",https://scontent-lht6-1.cdninstagram.com/vp/f53efc9d6005f3bb3dc9e021d836b1eb/5DF21142/t51.2885-19/s150x150/46055485_343774333072525_8327590400353107968_n.jpg?_nc_ht=scontent-lht6-1.cdninstagram.com,0,0,0,"2019-09-09 09:38:49"
31,80s_90s_00s,1530601524,"80s 90s 00s",,"A look back at all things 80s, 90s and 00s.
Film, TV, Music and more. Enjoy!✌️ 
👉DM for enquiries/collabs💥",,661313,24471,3.7,,,,#90s,https://scontent-lht6-1.cdninstagram.com/vp/0c6a974e392a3c09bf578c1d2f8e7bac/5DFAB876/t51.2885-19/10735325_379914492164992_508297897_a.jpg?_nc_ht=scontent-lht6-1.cdninstagram.com,0,0,0,"2019-09-09 09:38:57"
32,thepurecinema,4187821314,"The Pure Cinema",,"All about the Art of making Motion Pictures. 🎬🍿
Follow my second page @davidfincher_",http://letterboxd.com/thepurecinema,165471,6120,3.7,thepurecinemas@gmail.com,,Community,,https://scontent-lht6-1.cdninstagram.com/vp/5f22bb4748f0186cd4710bf4ad158ec9/5DF0F69C/t51.2885-19/s150x150/67555785_531966471003165_8331081959656652800_n.jpg?_nc_ht=scontent-lht6-1.cdninstagram.com,0,0,1,"2019-09-09 09:39:04"
33,stanleykubrick,3412619536,"Stanley Kubrick",Stanley,"The official Instagram for Stanley Kubrick.",http://bit.ly/SKubrickCollection,309686,11880,3.84,,,,#stanleykubrick,https://scontent-lht6-1.cdninstagram.com/vp/d473de66b2cdb37738f43f73bf30d4c2/5E0ADD0F/t51.2885-19/s150x150/13525512_1700518500197984_204621191_a.jpg?_nc_ht=scontent-lht6-1.cdninstagram.com,1,0,0,"2019-09-09 09:39:10"
34,cinemartistry,2957524897,"Cinematic Artistry",,"Daily original posts devoted to cinematic art and the once in a while comic relief. All credits to the crews and casts from each film.",http://twitter.com/Cinemartistry,34868,550,1.58,,,,#cinematography,https://scontent-lht6-1.cdninstagram.com/vp/538b7df72d5934c5f10ddcc005bc7617/5DF4BD48/t51.2885-19/s150x150/61069544_703663243398466_7093458357033369600_n.jpg?_nc_ht=scontent-lht6-1.cdninstagram.com,0,0,0,"2019-09-09 09:39:18"
35,film_geek,3013089099,"Film Geek",,"My name is Joseph. I’m here to share all of the love & art of cinema.
Movies, trivia, quotes and more.
Second account: @cinema_of_tarkovsky",https://letterboxd.com/film__geek/,51244,1817,3.55,,,,"#cinematography #cinema #film",https://scontent-lht6-1.cdninstagram.com/vp/3b8a3b2570da546cf1fcef230960ba49/5E124E04/t51.2885-19/s150x150/67590794_2344274139164995_6366192120327307264_n.jpg?_nc_ht=scontent-lht6-1.cdninstagram.com,0,0,0,"2019-09-09 09:39:26"
36,gedogfx,3322795121,Gedo,Gedo,"Digital artist. 🌹❤ 
DM for Prints.
Shirts Store:",http://teespring.com/stores/gedogfxart,77280,15872,20.54,gedogfx369@gmail.com,,Business,"#movies #art",https://scontent-lht6-1.cdninstagram.com/vp/ac14950a50c7a45bdc62f7879eb7ca75/5DF61F0E/t51.2885-19/s150x150/60418097_416609592229780_8332426842766049280_n.jpg?_nc_ht=scontent-lht6-1.cdninstagram.com,0,0,1,"2019-09-09 09:39:33"
37,natgeo,787132,"National Geographic",,"Experience the world through the eyes of National Geographic photographers.",http://natgeo.com/,120846249,309479,0.26,instagram@natgeo.com,,"Media/News Company",,https://scontent-lht6-1.cdninstagram.com/vp/fe452e4fb90a838f60259c0cc3b595da/5E1141E8/t51.2885-19/s150x150/13597791_261499887553333_1855531912_a.jpg?_nc_ht=scontent-lht6-1.cdninstagram.com,1,0,1,"2019-09-09 09:39:39"
38,rottentomatoes,1350380832,"Rotten Tomatoes",,"Our first book 'Rotten Movies We Love' is out October 8th. Pre-order your copy now: http://bit.ly/RottenMoviesWeLove",https://likeshop.me/rottentomatoes,1006359,14125,1.4,customerservice@rottentomatoes.com,,"Entertainment Website",#tiff19,https://scontent-lht6-1.cdninstagram.com/vp/73fabc93783cee8f9fc5b4170722100f/5DF4D55D/t51.2885-19/s150x150/65079039_419417092247775_890863091493896192_n.jpg?_nc_ht=scontent-lht6-1.cdninstagram.com,1,0,1,"2019-09-09 09:39:45"
39,cinema.unchained,3601309981,,,,,27108,2969,10.95,,,,,https://scontent-lht6-1.cdninstagram.com/vp/f75b3752c57340755c58648a1feb183e/5E005A6A/t51.2885-19/s150x150/67273847_443756279814160_505450245522456576_n.jpg?_nc_ht=scontent-lht6-1.cdninstagram.com,0,0,0,"2019-09-09 09:39:51"
40,legends.inc,6431118077,"Movies & Cinema",,"A community for movie lovers 🎥
📩 DM for Promotions or Features",,226472,5394,2.38,premafilmproductions@gmail.com,,"Movie Theater",,https://scontent-lht6-1.cdninstagram.com/vp/dfc28409648f7180407b3790d94a5189/5DFA8BE5/t51.2885-19/s150x150/29740504_1639877732764592_3964319316026851328_n.jpg?_nc_ht=scontent-lht6-1.cdninstagram.com,0,0,1,"2019-09-09 09:39:57"
41,fuck_it_dude_lets_go_bowling,2116147388,,,,https://letterboxd.com/FxckItDude/lists/,15516,394,2.54,,,,,https://scontent-lht6-1.cdninstagram.com/vp/717b124d17ecf5c03e32a93e06643a6b/5E0F4A54/t51.2885-19/s150x150/13269367_1047937345301689_1370519938_a.jpg?_nc_ht=scontent-lht6-1.cdninstagram.com,0,0,0,"2019-09-09 09:40:03"
42,sebscinema,5918278496,"Seb's Cinema",,"The art of motion picture photography
🎬🎥🎞
DM 3 or more of your favourite shots, we will check and share the best of them!",,8616,190,2.21,amin.dorrak@gmail.com,,"Movie Theater","#cinema #tv #goldenglobes",https://scontent-lht6-1.cdninstagram.com/vp/85d381fc749750bb4be4eb59fc548de6/5DF7F33F/t51.2885-19/s150x150/43779057_348764182351248_3411939491869360128_n.jpg?_nc_ht=scontent-lht6-1.cdninstagram.com,0,0,1,"2019-09-09 09:40:09"
43,movieaddictied,5957492112,"Movie & Series Addicted",,"📽️
""Cinema is a mirror of reality and it's a filter.""",,41602,3551,8.54,,,"Society & Culture Website",,https://scontent-lht6-1.cdninstagram.com/vp/f8b71cc420ea8531bd82ed40d865041c/5E0554A8/t51.2885-19/s150x150/44692935_302360113702137_1768042189549469696_n.jpg?_nc_ht=scontent-lht6-1.cdninstagram.com,0,0,0,"2019-09-09 09:40:15"
44,filmfilemedia,9053287891,"Film File Media",,"“Movies are the memories of our lifetime”",,21619,1093,5.06,filmfilemedia@gmail.com,7925408168,"Film Director","#instafilm #filmcommunity #cinephilecommunity",https://scontent-lht6-1.cdninstagram.com/vp/c3c13f08c204092d5bb3a04f95cec601/5DFD8E92/t51.2885-19/s150x150/44721795_1063608370487302_4306360770494464000_n.jpg?_nc_ht=scontent-lht6-1.cdninstagram.com,0,0,0,"2019-09-09 09:40:20"
45,i.dream.movies,8289039971,"Movie Dreams",,"""Let us put a smile on that face.""
Dedicated to the world of Cinema. 🎬
One stop page for all movie holics. 🎥
#movie #moviedreams",,33525,2024,6.04,f20171058@hyderabad.bits-pilani.ac.in,,"Movie Theater","#movie #moviedreams #drama",https://scontent-lht6-1.cdninstagram.com/vp/b2083520bc1b37c53ca942f169917b4a/5DFC98CB/t51.2885-19/s150x150/61553509_191727038434586_2363172503263641600_n.jpg?_nc_ht=scontent-lht6-1.cdninstagram.com,0,0,1,"2019-09-09 09:40:28"
46,aaronpaul,146293615,"Aaron Paul",Aaron,,http://www.doshombres.com/,3693960,221635,6,,,,,https://scontent-lht6-1.cdninstagram.com/vp/fb9af80e162208b7cf0578cb4ed4833c/5DF28E35/t51.2885-19/11377798_614300048711932_379106669_a.jpg?_nc_ht=scontent-lht6-1.cdninstagram.com,1,0,0,"2019-09-09 09:40:36"
47,screenplayed,526773082,Screenplayed,,"Discover how actors, directors, and writers bring screenplays to life.
Created by: @KinnaneBrothers",http://www.screenplayed.film/,606236,39611,6.53,contact@screenplayed.film,,"Education Website",#screenplayed,https://scontent-lht6-1.cdninstagram.com/vp/10ff045e013f682c2e3c39caf67f1b9b/5E156104/t51.2885-19/s150x150/58409437_397677084294017_3138050002929057792_n.jpg?_nc_ht=scontent-lht6-1.cdninstagram.com,1,0,0,"2019-09-09 09:40:41"
48,cinefiloxx,4133124691,cinefiloxx,,"⭐:Un pequeño sitio para los adictos al cine
⭐:Cuenta en Español
⭐:Lo mejor del Séptimo Arte
⭐:Déjame tu comentario! 
⭐:🎥🎬📹🎞📽🎬💯",,28147,2085,7.41,miguelangel96ajg@gmail.com,,"Arts & Entertainment",,https://scontent-lht6-1.cdninstagram.com/vp/0a6696abd126a632c82d0a6a6851876a/5E08E15F/t51.2885-19/s150x150/16788465_1226171870830144_6193222156545949696_a.jpg?_nc_ht=scontent-lht6-1.cdninstagram.com,0,0,1,"2019-09-09 09:40:48"
49,daysofcinephilia,1437204898,"Days of Cinephilia",,"All the best of cinema!
Requests: direct message me 📩",,20388,112,0.55,malubarroso18@gmail.com,,"Entertainment Website","#movie #film #cinema",https://scontent-lht6-1.cdninstagram.com/vp/27b3b4ecf09ec5c72864f8e78a306fb7/5E0DAF12/t51.2885-19/s150x150/26870959_1950700238591624_3042083648804225024_n.jpg?_nc_ht=scontent-lht6-1.cdninstagram.com,0,0,1,"2019-09-09 09:40:55"
50,allthebestfilms,7856786292,"All the best films",,,,11214,210,1.87,clemencepau94@gmail.com,,Art,"#moviestills #moviescenes #cinema",https://scontent-lht6-1.cdninstagram.com/vp/24e467a20333c969557ee2563b487bfe/5E080F30/t51.2885-19/s150x150/32559037_2104531496445902_4974516016550772736_n.jpg?_nc_ht=scontent-lht6-1.cdninstagram.com,0,0,1,"2019-09-09 09:41:01"
51,cinephilia_universe,5644682739,"in the mood for love",In,"dm me for promotion📩",https://letterboxd.com/lynchedboy,36361,849,2.33,zhaysan@gmail.com,,"Movie/Television Studio",,https://scontent-lht6-1.cdninstagram.com/vp/773755e240f8390f3ff67c4c5f1738c3/5E0A941A/t51.2885-19/s150x150/28436493_150845012261955_8266886195879870464_n.jpg?_nc_ht=scontent-lht6-1.cdninstagram.com,0,0,1,"2019-09-09 09:41:09"
52,moviebuff_93,3446531476,Jake,Jake,"I’ve loved movies all my life, and I’m here to share that adoration with others.",,24246,2147,8.86,taylorjake19@yahoo.com,,"Movie Theater",,https://scontent-lht6-1.cdninstagram.com/vp/409eadfe5ca03a4206530d60d1af60a9/5DF22927/t51.2885-19/s150x150/47159917_275410289761885_4558553935786278912_n.jpg?_nc_ht=scontent-lht6-1.cdninstagram.com,0,0,1,"2019-09-09 09:41:14"
53,neonoirfilm,10588194749,"NEO-NOIR 🎥",,"📽 Film Noir & Neo-Noir 🖤🖤
🎬 Best Movies of All Time!!",,20706,890,4.3,neonoirfilm@gmail.com,,Movie,,https://scontent-lht6-1.cdninstagram.com/vp/e40c65fd80ff25bfd58529133e7c9640/5DF5E78B/t51.2885-19/s150x150/64989905_391601981473933_1841586903128735744_n.jpg?_nc_ht=scontent-lht6-1.cdninstagram.com,0,0,1,"2019-09-09 09:41:21"
54,spotflik,6326697699,"Spotflik App",,"🎬 For Movie Lovers 😍 By Movie Lovers 🎬
World's smartest movie finder 🤯👇
Find movies on Netflix, Prime, Hulu, Hbo NOW/GO...🤓👇
No signup required",http://spotflik.com/app,39313,2295,5.84,buzz@spotflik.com,,"App Page","#cult #film #spotflik",https://scontent-lht6-1.cdninstagram.com/vp/a7441138023e13617372c8de3e1f1e2d/5DFC291F/t51.2885-19/s150x150/36113733_239036620224342_1280030009464979456_n.jpg?_nc_ht=scontent-lht6-1.cdninstagram.com,0,0,1,"2019-09-09 09:41:28"
55,leverducine,1457981632,"Lever Du Ciné",Lever,"Welcome to the Rise of Cinema!
I post everything from Movie Reviews to some of the Best Scenes in cinematic history!
MOVIE SCENES DO NOT BELONG TO ME",https://www.leverducine.com/learn-1/colors-of-cinema,127188,4566,3.59,leverducine@gmail.com,,Art,,https://scontent-lht6-1.cdninstagram.com/vp/9fa62701a4ab35dea13f76b758f3060f/5E0B3606/t51.2885-19/s150x150/67369248_478842869571040_5725266099344244736_n.jpg?_nc_ht=scontent-lht6-1.cdninstagram.com,0,0,1,"2019-09-09 09:41:34"
56,cinema_pocho,2259282749,,,"🎬""Se può essere scritto, o pensato, può essere filmato""🎬",,24648,130,0.53,,,,"#regista #cinema #movie",https://scontent-lht6-1.cdninstagram.com/vp/1485a92119c7e791a6143656b5d294f0/5E001C1F/t51.2885-19/s150x150/47690661_800509930292423_259307490854830080_n.jpg?_nc_ht=scontent-lht6-1.cdninstagram.com,0,0,0,"2019-09-09 09:41:41"
57,greatest_movies_for_you,3035766702,greatest_movies_for_you,,"""I'm gonna make him an offer he can't refuse."" 📽🎞📺#greatestmoviesforyou  #movie #masterpiece #cinema",,88114,1764,2,orsibarbi.br@gmail.com,,Blogger,"#greatestmoviesforyou #movie #cinema",https://scontent-lht6-1.cdninstagram.com/vp/f29c56a359bea7898a8656c937cd169a/5E0F25C9/t51.2885-19/s150x150/12825799_206139886420264_1247169853_a.jpg?_nc_ht=scontent-lht6-1.cdninstagram.com,0,0,0,"2019-09-09 09:41:47"
58,caradelevingne,3255807,"Cara Delevingne",Cara,"Don't worry, be happy ❤️ Embrace your weirdness 💥 STOP LABELLING, START LIVING 😘 please follow @myecoresolution on Instagram 
snapchat: caradevilqueen",,43249343,737472,1.71,,,,,https://scontent-lht6-1.cdninstagram.com/vp/f36e8701339c1a3997e54556650176a4/5E0A771E/t51.2885-19/s150x150/23101296_140732679901816_7791387746609659904_n.jpg?_nc_ht=scontent-lht6-1.cdninstagram.com,1,0,0,"2019-09-09 09:41:53"
59,natgeotravel,23947096,"National Geographic Travel",,"It’s a big world. Explore it through the lens of our photographers.",http://natgeo.com/travel,33931117,202594,0.6,NatGeoTravelPitches@natgeo.com,8006475463,"News & Media Website",,https://scontent-lht6-1.cdninstagram.com/vp/39b8e8a7750771967642fe3780451fc3/5DF5DD39/t51.2885-19/s150x150/12132724_850743081710560_180824582_a.jpg?_nc_ht=scontent-lht6-1.cdninstagram.com,1,0,1,"2019-09-09 09:41:59"
60,bestmovieframes,8679852053,"Best Movie Frames",,"“Photography is truth. Cinema is truth 24 frames per sec” – Jean-Luc Godard ❤️
Some of the most Beautiful/Iconic Movie Frames! 
📌 @cinephile.club",https://youtu.be/Scf8nIJCvs4,54575,3662,6.71,exam.pranit@gmail.com,,Art,,https://scontent-lht6-1.cdninstagram.com/vp/857fe0c104c94795a3cacac841ea7d52/5E0F1763/t51.2885-19/s150x150/52136344_2107569629298566_9081547612535914496_n.jpg?_nc_ht=scontent-lht6-1.cdninstagram.com,0,0,1,"2019-09-09 09:42:07"
61,cinemashowtime,13047262261,"Cinema Show Time",,"Sharing the most iconic photos of cinema history 🎬",,10500,494,4.7,,,,,https://scontent-lht6-1.cdninstagram.com/vp/a754f5c4fe6a0a48d143b9446752ac63/5DFEBC61/t51.2885-19/s150x150/62253740_2322248341332213_6573218224123412480_n.jpg?_nc_ht=scontent-lht6-1.cdninstagram.com,0,0,0,"2019-09-09 09:42:12"
62,the_goodmusic,6236596625,"good music makes life better ♬",,"Turn on post notifications 🌠",,72927,4592,6.3,cinemataste@gmail.com,,Community,,https://scontent-lht6-1.cdninstagram.com/vp/02b5b26b2dfae9dbb3864f7360b6c989/5DF16FE3/t51.2885-19/s150x150/39850963_449724145520122_8371867995596652544_n.jpg?_nc_ht=scontent-lht6-1.cdninstagram.com,0,0,1,"2019-09-09 09:42:18"
63,finestfilmstills,1531690079,"FINEST 🎬 STILLS",,evan,,30326,2725,8.99,finestfilmstills@gmail.com,,Community,,https://scontent-lht6-1.cdninstagram.com/vp/1072e51add2bfcd16f5c594d67e82c30/5E097413/t51.2885-19/s150x150/28152304_197670670836394_6396469264647192576_n.jpg?_nc_ht=scontent-lht6-1.cdninstagram.com,0,0,1,"2019-09-09 09:42:35"
64,cinemasbest,3977586384,,,"Celebrating cinematography",,13780,872,6.33,cinemasbestfilms@gmail.com,,"Visual Arts",,https://scontent-lht6-1.cdninstagram.com/vp/92af445fa4233206436945971a9f27eb/5E0E6ACF/t51.2885-19/s150x150/21690616_1836868763290096_6278788788529397760_n.jpg?_nc_ht=scontent-lht6-1.cdninstagram.com,0,0,1,"2019-09-09 09:42:43"
65,cinema.of.soul,13205767889,"Cinema Of The Soul",,"“The beautiful is hidden from the eyes of those who are not searching for the truth”",,17790,1236,6.95,cine.of.soul@gmail.com,,Movie,,https://scontent-lht6-1.cdninstagram.com/vp/5082a961287b33c9fa116ebad7a4e425/5DF3B011/t51.2885-19/s150x150/57593738_341570573375578_170658575591407616_n.jpg?_nc_ht=scontent-lht6-1.cdninstagram.com,0,0,1,"2019-09-09 09:42:51"
66,rocknrroll,3044214145,,,"it's only rock'n'roll but we like it
by @luuvani",,255097,9984,3.91,lulu.enq@outlook.it,,"Live Music Venue",,https://scontent-lht6-1.cdninstagram.com/vp/b129e58cbb85d9aebe19e2de3d9dfece/5E0EC7E9/t51.2885-19/s150x150/24327340_891041017731718_33416975866658816_n.jpg?_nc_ht=scontent-lht6-1.cdninstagram.com,0,0,1,"2019-09-09 09:42:58"
67,tarantinouniverse,8627233340,"Quentin Tarantino Fans 🔥",Quentin,"🔥Get the Once Upon Poster (last stock) 👇
🎬All about Quentin Tarantino:
📰News
💭Quotes
🎞️References
🍔 Scenes
📩DM for promotions",http://tarantinouniverse.com/,120754,14395,11.92,tarantinouniverse@gmail.com,,Artist,"#quentintarantino #tarantino #onceuponatimeinhollywood",https://scontent-lht6-1.cdninstagram.com/vp/6541c8b82a2899b37cdcf170f2db797c/5E07870A/t51.2885-19/s150x150/50604791_2013261358787915_8118858241057751040_n.jpg?_nc_ht=scontent-lht6-1.cdninstagram.com,0,0,1,"2019-09-09 09:43:04"
68,cinematic_bts,5870968926,"Jake | Film Addict",Jake,"A collection of behind the screens images from some of cinemas greatest films.
Main account: @cinematic_imagery",,19358,2367,12.23,jake.durston@outlook.com,,Art,"#behindthescenes #photography #bts",https://scontent-lht6-1.cdninstagram.com/vp/20c88a7581eb109136eb72540f41c4e2/5E1168A2/t51.2885-19/s150x150/64269646_498453934056758_8845460282546323456_n.jpg?_nc_ht=scontent-lht6-1.cdninstagram.com,0,0,1,"2019-09-09 09:43:11"
69,nightdrivefilms,3129584587,,,"Where there is film there is life.",,7708,815,10.57,nightdrivefilms@gmail.com,,"Personal Blog","#drive #night #films",https://scontent-lht6-1.cdninstagram.com/vp/6116e7479328a17e37025272f11863c1/5E0AD12B/t51.2885-19/s150x150/60366345_2241362552609309_2191353955789832192_n.jpg?_nc_ht=scontent-lht6-1.cdninstagram.com,0,0,1,"2019-09-09 09:43:18"
70,cinematalking,7691666460,"Cinema Talking",,"For Cinephiles By Cinephile",,27136,1382,5.09,moviesbucket99@gmail.com,,Community,,https://scontent-lht6-1.cdninstagram.com/vp/42365a7d7801a67d281d92976008a251/5DF23FB6/t51.2885-19/s150x150/57552111_451454972327802_5538131707082833920_n.jpg?_nc_ht=scontent-lht6-1.cdninstagram.com,0,0,1,"2019-09-09 09:43:26"
71,natalieportman,6414707404,"Natalie Portman",Natalie,"My one and only social media account",https://times.upnow.us/2YCuMRT,4871345,225044,4.62,,,,,https://scontent-lht6-1.cdninstagram.com/vp/bba441f98515705892afd346b5e93966/5E071D33/t51.2885-19/s150x150/26068519_2008924189383302_5455783869619896320_n.jpg?_nc_ht=scontent-lht6-1.cdninstagram.com,1,0,0,"2019-09-09 09:43:34"
72,cinefilosoficial,2030444614,"Cinéfilos 🎬",,"El medio con la mayor comunidad de aficionados al séptimo arte.",http://cinefilosoficial.com/,630118,18128,2.88,agusperalta@cinefilosoficial.com,,"Entertainment Website",,https://scontent-lht6-1.cdninstagram.com/vp/ae234cb9deda935e6b274aa7479dc7cb/5E0FD5F5/t51.2885-19/s150x150/22427587_122438828468872_4862510875858173952_n.jpg?_nc_ht=scontent-lht6-1.cdninstagram.com,0,0,0,"2019-09-09 09:43:42"
73,good______vibes,1237936017,🎬Кино,,"𝗚𝗼𝗼𝗱 𝗩𝗶𝗯𝗲𝘀",,238294,6995,2.94,imanchanel5@gmail.com,,Art,,https://scontent-lht6-1.cdninstagram.com/vp/4a2fc4c5cb6ac3ec01a7a65ae0b0fa7b/5DFB722C/t51.2885-19/s150x150/18382430_658555647671548_907193940132757504_a.jpg?_nc_ht=scontent-lht6-1.cdninstagram.com,0,0,1,"2019-09-09 09:43:50"
74,passionofcinema,9027983145,"Passion of Cinema",,"Good films make your life better 🎬",https://youtu.be/zAGVQLHvwOY,17062,2634,15.44,,,,"#poc #hollywood #passionofcinema",https://scontent-lht6-1.cdninstagram.com/vp/64d5c07a89b826c8fcc767330e8e1b5d/5DFD77EE/t51.2885-19/s150x150/62468381_366182530964365_1352964996602003456_n.jpg?_nc_ht=scontent-lht6-1.cdninstagram.com,0,0,0,"2019-09-09 09:43:56"
75,filmsforyears,3469718825,|films|,,"For all movie lovers🎬⭐
🇦🇷",,12753,2355,18.47,camiigamba12@gmail.com,1121685521,"Arts & Entertainment",,https://scontent-lht6-1.cdninstagram.com/vp/4936165f801fc04f3f994d989220deaf/5E1538AB/t51.2885-19/s150x150/49376197_807543599592791_3600478604724535296_n.jpg?_nc_ht=scontent-lht6-1.cdninstagram.com,0,0,1,"2019-09-09 09:44:04"
76,renegade_filmtheory,7281896536,"Renegade Film Theory",,"Movie reviews, theories, recommendations, updates and more 🎥",https://mobile.twitter.com/RenegadeFilm_,8657,1391,16.07,,,,"#filmography #filmisnotdead #cinema",https://scontent-lht6-1.cdninstagram.com/vp/4e59d333b306fe31bb8d4cf7e861e2de/5E137354/t51.2885-19/s150x150/65764595_2423143184397944_998068567578509312_n.jpg?_nc_ht=scontent-lht6-1.cdninstagram.com,0,0,0,"2019-09-09 09:44:11"
77,astral.kingdom,7764284561,"Astral Kingdom",Astral,"⚡️A Visual Escape. Movies are cool⚡️
Follow for cool posts about cool movies
DM for suggestions 
astralkingdom99@gmail.com",,64150,5499,8.57,astralkingdom99@gmail.com,,Media,"#angelinajolie #bradleycooper #dakotajohnson",https://scontent-lht6-1.cdninstagram.com/vp/a9cead5879adae2b63dfb2e9c0e47967/5DFF1206/t51.2885-19/s150x150/47584087_2442159829144947_1480202470738100224_n.jpg?_nc_ht=scontent-lht6-1.cdninstagram.com,0,0,0,"2019-09-09 09:44:17"
78,cinema_aesthetic,4363168530,"Cinema Aesthetic",,"NYC ✨
•
Your #1 Cinema Inspiration
•
Movie Moodboard
•
Series: {Animated Collages} {Monthly Themes} + more 💖",,16199,2582,15.94,cinema.aesthetic@gmail.com,,"Visual Arts",,https://scontent-lht6-1.cdninstagram.com/vp/81a3229f5a48f282a2ffdd0bcbac97f9/5DF463C0/t51.2885-19/s150x150/18095872_812800298874083_4722364366412840960_a.jpg?_nc_ht=scontent-lht6-1.cdninstagram.com,0,0,1,"2019-09-09 09:44:22"
79,film.appetite,2962353442,"Film Appetite",,"News🎬
Facts🎞
Behind the Scenes📽
Business: filmappetite@gmail.com",,3319,557,16.78,filmappetite@gmail.com,,"Film Director",,https://scontent-lht6-1.cdninstagram.com/vp/9630d5d051a489905e3227f3cedb2346/5E0F373B/t51.2885-19/s150x150/64620878_443959703091231_2078930820290052096_n.jpg?_nc_ht=scontent-lht6-1.cdninstagram.com,0,0,0,"2019-09-09 09:44:30"
80,cinefiloses,1123492759,"Cinéfilos 🔝",,"🎬 Compartiendo el amor por el #Cine
📥 Propuestas y peticiones MD
🔥 MD para promociones (cuentas y blogs) 
👇🏼 Código CINEFILOS 15% descuento",http://tarantinouniverse.com/,141408,7773,5.5,cinefilosfacebook@gmail.com,,Art,"#directordecine #septimoarte #actores",https://scontent-lht6-1.cdninstagram.com/vp/117b5cc30eb29cc6fb72780c8f6cc542/5E0FFD95/t51.2885-19/11849160_475591202614555_272801913_a.jpg?_nc_ht=scontent-lht6-1.cdninstagram.com,0,0,1,"2019-09-09 09:44:38"
81,movieliv_,10250331987,movieliv,,"We make each other alive, does it matter if it hurts.",https://twitter.com/movieliv?s=09,7357,1051,14.29,zatelya@gmail.com,,Art,,https://scontent-lht6-1.cdninstagram.com/vp/03d6e0d71034858d4863c5b11a1f7b6d/5DFEC385/t51.2885-19/s150x150/66764993_490969841734080_1474003922396905472_n.jpg?_nc_ht=scontent-lht6-1.cdninstagram.com,0,0,1,"2019-09-09 09:44:44"
82,cinephiland,5695286060,Cinephiland,,🎬,,9510,555,5.84,cinephiland@gmail.com,,Artist,,https://scontent-lht6-1.cdninstagram.com/vp/00f915ac938f9254751d02f036fb19d2/5E02096C/t51.2885-19/s150x150/68896281_460991381152461_5644840143782150144_n.jpg?_nc_ht=scontent-lht6-1.cdninstagram.com,0,0,0,"2019-09-09 09:44:51"
83,filmasdream,5983310154,"fᵢₗₘₛ fᵢₗₘₛ fᵢₗₘₛ",,"ᶠⁱˡᵐˢ ᵃˢ ᵃ ˢᵘᵇˢᵗⁱᵗᵘᵗᵉ ᶠᵒʳ ʰᵘᵐᵃⁿ ⁱⁿᵗᵉʳᵃᶜᵗⁱᵒⁿ 🤘",,5528,193,3.49,drunk.k666@gmail.com,,"Movie Theater",,https://scontent-lht6-1.cdninstagram.com/vp/6d89b8c4bcb22bc4fb500e492874775d/5E10E82E/t51.2885-19/s150x150/67295722_482202692356804_8774831207515947008_n.jpg?_nc_ht=scontent-lht6-1.cdninstagram.com,0,0,1,"2019-09-09 09:44:59"
84,film_for_breakfast,1707732442,"Film for Breakfast",,"Italian girl, cinema lover 🇮🇹👩🏼📽💕",,25610,1552,6.06,filmforbreakfasttt@gmail.com,,"Movie Theater","#moviequotes #50s",https://scontent-lht6-1.cdninstagram.com/vp/19127b00fce5c296a2b4986f48428087/5E06DDB5/t51.2885-19/s150x150/28427440_2035008600120448_9049682876504735744_n.jpg?_nc_ht=scontent-lht6-1.cdninstagram.com,0,0,1,"2019-09-09 09:45:05"
85,viralpopculture,10987709650,"Viral Pop Culture",,"Where Culture Meets Entertainment.",,24264,5096,21,viralpopculture@gmail.com,,Media,,https://scontent-lht6-1.cdninstagram.com/vp/cb18d2b3cd1b4dddc93fca2e3ce5a2d7/5E0AB273/t51.2885-19/s150x150/56363698_2206600082923124_1209836641686913024_n.jpg?_nc_ht=scontent-lht6-1.cdninstagram.com,0,0,1,"2019-09-09 09:45:13"
86,golldies,1136442689,•GOLDIES•,,🌼🎞🌼🎞,,105495,5912,5.6,andguladze11@mail.ru,,Blogger,,https://scontent-lht6-1.cdninstagram.com/vp/2049b3b470e0ce9ca01253e7057f6a3f/5E0D547A/t51.2885-19/s150x150/52659584_2083996191693622_65478009083133952_n.jpg?_nc_ht=scontent-lht6-1.cdninstagram.com,0,0,0,"2019-09-09 09:45:19"
87,bestmovies.s,8427554600,"Movie lover💫",,"Ellen (17y/o)🖤🇦🇲
Sharing the best movies with you💣
Actors we love 🖤
Best scenes 🎥🎞
Dm for business inquiries, paid promotions📥",https://youtu.be/idXp9arL83g,8776,1032,11.76,gayane.hovakimyan.65@gmail.com,,"Movie Theater","#directors #cinema #movies",https://scontent-lht6-1.cdninstagram.com/vp/ca2f5f4fad50b8a5e7333cff4ac74b0e/5DF0B263/t51.2885-19/s150x150/69644566_2061307533974731_5807754476727042048_n.jpg?_nc_ht=scontent-lht6-1.cdninstagram.com,0,0,1,"2019-09-09 09:55:32"
88,cinema.activ,8345546699,"Cimema activ",,"Everything about Cinema 🎬 Follow @cinema.activ",,12818,3276,25.56,tazokhachidze@yahoo.com,,Movie,,https://scontent-lht6-1.cdninstagram.com/vp/aa76922381cd40baba7c2f942072ed59/5E097B42/t51.2885-19/s150x150/67848676_2456464061264331_1101754786115485696_n.jpg?_nc_ht=scontent-lht6-1.cdninstagram.com,0,0,1,"2019-09-09 09:55:40"
89,gone_girl_over_everything,203801720,"pedro ramos",Pedro,"Patriots over everything! The Godfather 1&2, Gone Girl, Molly’s Game, Steve Jobs, and The Social Network or gtfo! Movie scenes do not belong to me",,11566,590,5.1,,,,"#movie #movies #cinema",https://scontent-lht6-1.cdninstagram.com/vp/ad26ef2b0d7222c3b8d87068c262c758/5DF6B651/t51.2885-19/s150x150/66471456_2096059004022019_1905443695201615872_n.jpg?_nc_ht=scontent-lht6-1.cdninstagram.com,0,0,0,"2019-09-09 09:55:46"
90,primemovietvscenes,7508928538,"The Best Movie & TV Clips 🎥",,"These scenes DO NOT belong to me
💪 @primeprogression",,37673,2047,5.43,daveurjit@gmail.com,,Movie,"#instamood #instagood #instamovies",https://scontent-lht6-1.cdninstagram.com/vp/7b6e913828f60300f08efa2bec68ea88/5E0B6B92/t51.2885-19/s150x150/70164965_1241238106055488_3024629365569748992_n.jpg?_nc_ht=scontent-lht6-1.cdninstagram.com,0,0,1,"2019-09-09 09:55:54"
91,thescenesofcinema,1113757392,"Film Scenes",,"🍿Cinema is a wonderful way of telling life.",,83323,7251,8.7,thecinemascenes@gmail.com,,Media,,https://scontent-lht6-1.cdninstagram.com/vp/44c7fda7d8c478cb30171d95e252d8c4/5DF199A9/t51.2885-19/s150x150/60844023_867414126927147_5680957709185187840_n.jpg?_nc_ht=scontent-lht6-1.cdninstagram.com,0,0,1,"2019-09-09 09:56:01"
92,aneyeforcinema,6432124208,"An Eye For Cinema",,"👤Leo 🇬🇧 🇫🇷 
💭 Quotes 🎬 Film Stills 🎞 Clips 
🍿Old, New, Popular, Underrated movies🍿
 ⭐️ Join The Certified Cinéphiles Club⭐️",https://youtu.be/L2ZBn_Mi_bM,1656,1319,79.65,leob28@outlook.com,,"Film Director",,https://scontent-lht6-1.cdninstagram.com/vp/24732722cfe463c13798c19661781f99/5E03FD9B/t51.2885-19/s150x150/66650483_2430942363651067_4027877332994752512_n.jpg?_nc_ht=scontent-lht6-1.cdninstagram.com,0,0,1,"2019-09-09 09:56:09"
93,cinema_dream,1579560490,"CINEMA DREAM ™",,"Every Movie is a DayDream 🎬🍿
WHY I LOVE TARANTINO👇",https://www.youtube.com/watch?v=OnxUphSNm5s,575732,24667,4.28,cinema.dream.doc@gmail.com,,Community,,https://scontent-lht6-1.cdninstagram.com/vp/b9222e51d189e702c255a844d3529c7e/5E105BFB/t51.2885-19/s150x150/65309998_2246585408730363_6303322333213884416_n.jpg?_nc_ht=scontent-lht6-1.cdninstagram.com,0,0,1,"2019-09-09 09:56:17"
94,moviefestofficial,5523088824,"MovieFest Official",,"👤 Connor
🇬🇧 UK, 26
🍿 Movie Obsession
📺 Tv Addiction
🎥 Spoiler-Free Reviews
📰 Weekly NewsFest
⌨ Aspiring Movie Critic
.
Email/Dm for business enquiries",http://www.youtube.com/c/MovieFestOfficial,12560,541,4.31,moviefest1@yahoo.com,,"Media/News Company","#cinephilecommunity #moviefestofficial #director",https://scontent-lht6-1.cdninstagram.com/vp/fa376a42cfa56de29e25ea8a87d738fd/5E0673C0/t51.2885-19/s150x150/60708599_328416361186746_5295529611784880128_n.jpg?_nc_ht=scontent-lht6-1.cdninstagram.com,0,0,1,"2019-09-09 09:56:24"
95,quentin_scorsese_,8935748770,quentin_scorsese_,,"Big fan of two legends
Quentin tarantino
&
Martin scorsese
- 
-
-
-
Waiting for
{The irishman}
And
{Quentin Tarantino's final film}
.
.
Margot robbie❤",,5368,1928,35.92,quentinscorsese1@gmail.com,,"Film Director","#martinscorsese #goodfellas #cinema",https://scontent-lht6-1.cdninstagram.com/vp/5b40f2ea0c1ff1a5477ca618d7989c96/5DFB2471/t51.2885-19/s150x150/41809109_497320054069895_606889543328595968_n.jpg?_nc_ht=scontent-lht6-1.cdninstagram.com,0,0,1,"2019-09-09 09:56:29"
96,moviesmagix,8526699966,𝙈𝙊𝙑𝙄𝙀𝙎𝙈𝘼𝙂𝙄𝙓,,"📽️ 𝘊𝘪𝘯𝘦𝘮𝘢>𝘓𝘪𝘧𝘦
📩𝘋𝘔 𝘧𝘰𝘳 𝘱𝘢𝘪𝘥 𝘱𝘳𝘰𝘮𝘰𝘵𝘪𝘰𝘯𝘴.",,22689,2547,11.23,moviesmagix@gmail.com,,"Personal Blog",,https://scontent-lht6-1.cdninstagram.com/vp/e3115c13b01aa64fd57e21c34d2a728a/5E0C4EBC/t51.2885-19/s150x150/54513572_316795449032922_3076720245059092480_n.jpg?_nc_ht=scontent-lht6-1.cdninstagram.com,0,0,1,"2019-09-09 09:56:36"
97,silverscreenaddict,7583742182,"The Silverscreen Addict",,"Just someone in love with film 
Run by : @probablyajay 
Check out my Love Letter To Cinema 👇🏻",https://youtu.be/BgoGW8QYPUY,1850,275,14.86,dontgaveanemail@gmail.com,,"Movie Character",,https://scontent-lht6-1.cdninstagram.com/vp/582f0a28ddfb10279874adedb928cfef/5E042E01/t51.2885-19/s150x150/67503596_2620612447983531_2521461229445185536_n.jpg?_nc_ht=scontent-lht6-1.cdninstagram.com,0,0,1,"2019-09-09 09:56:42"
98,ultimatemovieaccount,1032690329,ultimatemovieaccount,,"For The Ultimate Movie Fan 🍿 
owner: @djthecure
My Latest Short Film ⬇️",https://youtu.be/NmVSVTSKj84,19600,1774,9.05,ultimatemoviechannel@gmail.com,,"Entertainment Website","#movielover #filmlover #cinema",https://scontent-lht6-1.cdninstagram.com/vp/bee30bc4de242cea46edcedf4a828411/5DF037F0/t51.2885-19/s150x150/69708011_444910286110188_7819287510567092224_n.jpg?_nc_ht=scontent-lht6-1.cdninstagram.com,0,0,1,"2019-09-09 09:56:51"
99,kidcassidyclips,11571867486,"Movie Lover",,"The best moments in cinema 🎬
Main page @kidcassidyfilms
No copyright infringement intended.
DM me for cheap promos
👇 Kubrick merch",http://shrsl.com/m89q,28385,1640,5.78,kidcassidy1996@gmail.com,,"Movie Theater","#moviefacts #movielover #moviescenes",https://scontent-lht6-1.cdninstagram.com/vp/359c77a31e712ef2ad28f6e34ce49d31/5DFF5FA1/t51.2885-19/s150x150/66917325_646478849161753_1795488611118874624_n.jpg?_nc_ht=scontent-lht6-1.cdninstagram.com,0,0,1,"2019-09-09 09:56:56"
100,qjtarantino,2673506482,"Quentin Tarantino",Quentin,"Fan Account",,5691,2043,35.9,,,,"#quentintarantino #onceuponatimeinhollywood #director",https://scontent-lht6-1.cdninstagram.com/vp/d2a96bf842788b8de9df8e342fd4fde8/5E0B36D1/t51.2885-19/s150x150/15803696_373167073049042_1267682137402769408_a.jpg?_nc_ht=scontent-lht6-1.cdninstagram.com,0,0,0,"2019-09-09 09:57:02"
101,britishfilmcritic,9189186073,Joe,Joe,"film critic, leftist, major cinephile
• DMs always open for questions, debates, etc ❤️",http://chng.it/VrfbJkFBkB,7092,2005,28.27,filmsfilmsfilmsgram@gmail.com,,"Personal Blog",,https://scontent-lht6-1.cdninstagram.com/vp/710a6fa1bc66293294bcf5cfa867c9fc/5DF6EE17/t51.2885-19/s150x150/65397587_887287628300153_7951512794648543232_n.jpg?_nc_ht=scontent-lht6-1.cdninstagram.com,0,0,1,"2019-09-09 09:57:10"
102,moviezonex,8542162691,"Movie Zone ™",,"© #movies🎬 , #facts💯 and everything related to the Industry, you will find here👇
© DM for Promotions!
© #Sphinx🌑 #Noah🌬️ and #Mason🔺",,30113,1638,5.44,moviezone185@gmail.com,685286577,"Movie Theater",,https://scontent-lht6-1.cdninstagram.com/vp/2188cf37d1eca8dff12b6cd724672efc/5DF9792C/t51.2885-19/s150x150/67323256_2269793079998093_3455457801319481344_n.jpg?_nc_ht=scontent-lht6-1.cdninstagram.com,0,0,1,"2019-09-09 09:57:16"
103,greatfilmscenes,11822561843,connor,Connor,"I’m posting about a lot of films and cinematography and maybe some opinions?
check out my favorite films video here:",https://youtu.be/fBc6Ft66_ig,1499,70,4.67,,,,,https://scontent-lht6-1.cdninstagram.com/vp/581280b363ef4ec436f9e9111366d119/5DFE4F8B/t51.2885-19/s150x150/67621622_2819648424730094_5040674769360388096_n.jpg?_nc_ht=scontent-lht6-1.cdninstagram.com,0,0,0,"2019-09-09 09:57:22"
104,film.in.motion,10723642128,"Film in Motion",,"Iconic film scenes in perpetual motion.
♾ 
📥 DM for requests
#cinemagraph",,8608,1720,19.98,filmframeinsta@gmail.com,,Media,,https://scontent-lht6-1.cdninstagram.com/vp/fd76f113f5f117386da52a097f7a452a/5DF4C950/t51.2885-19/s150x150/56563291_638216433294173_6436488940982632448_n.jpg?_nc_ht=scontent-lht6-1.cdninstagram.com,0,0,1,"2019-09-09 09:57:28"
105,quentin_tarantino_fan_club,5726666328,"Quentin Tarantino Fan Club",Quentin,"News & misc. about Quentin Tarantino
We fuckin' love #QuentinTarantino's movies!
Can't wait for #OnceUponATimeInHollywood...",https://www.quentintarantinofanclub.com/?p=shop,40379,4730,11.71,contact@quentintarantinofanclub.com,,"Film Director","#onceuponatimeinhollywood #quentintarantino",https://scontent-lht6-1.cdninstagram.com/vp/f2a73f7b99eaa49a53978598bb935637/5E0DB8E1/t51.2885-19/s150x150/50902228_408810063259881_2320220158833983488_n.jpg?_nc_ht=scontent-lht6-1.cdninstagram.com,0,0,1,"2019-09-09 09:57:34"
106,watchthattv,5722341656,WatchThatTV,,"Probably the fittest TV blogger on earth 🌏 📺 🍿 Follow my obsession on all things TV & Film. @itstommo_",,8271,762,9.21,,,,"#moviebuff #filmgeek #cinephile",https://scontent-lht6-1.cdninstagram.com/vp/4a84cc578f5f86881e24a549e954af02/5DF02B79/t51.2885-19/s150x150/66815123_1168582386676709_6216354841812271104_n.jpg?_nc_ht=scontent-lht6-1.cdninstagram.com,0,0,0,"2019-09-09 09:57:40"
107,tarantinophile,2556414662,Tarantinophile,,"Quentin Tarantino Director, Scriptwriter, Producer and Actor
 #Tarantinophile 
 @tarantinophile",https://www.facebook.com/Tarantinophile/,14863,812,5.46,,,,"#tarantinophile #quentintarantino #onceuponatimeinhollywood",https://scontent-lht6-1.cdninstagram.com/vp/d9350bc0167c7ae59bff3d0abcab9714/5E06DFEE/t51.2885-19/s150x150/53923252_2325733514313847_1987336244656340992_n.jpg?_nc_ht=scontent-lht6-1.cdninstagram.com,0,0,0,"2019-09-09 09:57:45"
108,filmarkable,14974217408,🎥,,,,1686,96,5.69,,,,,https://scontent-lht6-1.cdninstagram.com/vp/af51d509e2c1a8d9a962ee0dabbcd8e7/5DFC0776/t51.2885-19/s150x150/65911162_369835267063034_1094793473057357824_n.jpg?_nc_ht=scontent-lht6-1.cdninstagram.com,0,0,1,"2019-09-09 09:57:52"
109,tylerdurdenoffice,8458262925,"tyler durden",Tyler,👇👇👇👇👇FACEBOOK,https://www.facebook.com/Tyler-Durden-2036213979731683/,8713,962,11.04,,,"Movie Character","#tylerdurden #box #cinema",https://scontent-lht6-1.cdninstagram.com/vp/9d64cb165e5b3fcf9e42e49e71e74693/5E156AD5/t51.2885-19/s150x150/65656028_382715202366250_4746052025878315008_n.jpg?_nc_ht=scontent-lht6-1.cdninstagram.com,0,0,1,"2019-09-09 09:58:00"
110,cinematjoker,8543187561,"CinematKing Official",,"JUST ENJOY✌🏼😁",,2508,578,23.05,fghfjouv@gmail.com,,Movie,#post,https://scontent-lht6-1.cdninstagram.com/vp/3903a7f9f08ff4c1dc385821cab01876/5E100514/t51.2885-19/s150x150/57488069_407945463118868_4853672773760843776_n.jpg?_nc_ht=scontent-lht6-1.cdninstagram.com,0,0,1,"2019-09-09 09:58:06"
111,morefilmthusiast,10167122200,"More Filmthusiast",,"📽 Content that didn’t make it to @filmthusiast",,17666,4386,24.83,,,,,https://scontent-lht6-1.cdninstagram.com/vp/d4db81c3284fc699751160bfac19ea2b/5E08FD2B/t51.2885-19/s150x150/61604817_837435756623855_2409200860321021952_n.jpg?_nc_ht=scontent-lht6-1.cdninstagram.com,0,0,0,"2019-09-09 09:58:12"
112,film.odyssey,10100441568,"Film Odyssey",,"Poetry is untranslatable, like the whole of art. 
My Latest Short Film👇",https://vimeo.com/346563488,5155,491,9.52,geekof.everything@gmail.con,,Art,,https://scontent-lht6-1.cdninstagram.com/vp/52abfba911b5439bccfe3cb9a31e9185/5E05EE54/t51.2885-19/s150x150/68931050_402753270592302_8449924138528669696_n.jpg?_nc_ht=scontent-lht6-1.cdninstagram.com,0,0,1,"2019-09-09 09:58:18"
113,colormyframe,13103323439,"Color My Frame 🎥",,"🍿 Movie Stills
📺 TV Stills
📸 Frame by Frame
🌈 Color by Color
👥 Curated by @cinemafromthepast",,753,107,14.21,,,,,https://scontent-lht6-1.cdninstagram.com/vp/72ed52f0dcbae1043933178b27f3e5c3/5E061B97/t51.2885-19/s150x150/64331689_358117791516052_9197763414611460096_n.jpg?_nc_ht=scontent-lht6-1.cdninstagram.com,0,0,0,"2019-09-09 09:58:23"
114,actortalk,4037434259,actortalk,,"- lists
- polls
- rankings
- cinematography posts
- reviews",,1345,273,20.3,,,,"#movie #lfl #movies",https://scontent-lht6-1.cdninstagram.com/vp/15a7553b84a68b0e1a38c6ece9563948/5E1210B0/t51.2885-19/s150x150/21295017_660587397466687_6710214009984909312_a.jpg?_nc_ht=scontent-lht6-1.cdninstagram.com,0,0,0,"2019-09-09 09:58:30"
115,moviefestssidequests,9125665242,"MovieFest's Sidequests!",,"The 2nd Page of @moviefestofficial (12.6k)
This one covers the clips and the Sidequests!
Admin: Connor, 26, UK",,1280,767,59.92,connorashdownford@yahoo.com,7488274556,Brand,"#instamovies #bestmovies #director",https://scontent-lht6-1.cdninstagram.com/vp/094424dd075e370508520e420e403539/5E0EBEC9/t51.2885-19/s150x150/65302645_2371045416468182_1120060744184889344_n.jpg?_nc_ht=scontent-lht6-1.cdninstagram.com,0,0,1,"2019-09-09 09:58:36"
116,isleoffilms,6153596313,"film thot 😌✨",,"film fan, local clown, bill hader’s future husband
follow my twitter & letterboxd @filmshaveflavor
r+e",,13817,1022,7.4,,,,,https://scontent-lht6-1.cdninstagram.com/vp/4a04ca8734a54e5af8f2a5584e5e5247/5DF83E0D/t51.2885-19/s150x150/68763594_496874434434852_6257083771867103232_n.jpg?_nc_ht=scontent-lht6-1.cdninstagram.com,0,0,1,"2019-09-09 09:58:43"
117,filmfanatic21,14798119188,"Film Fanatic",,"Oh, there are frogs falling from the sky.",,433,61,14.09,hchapmanbrown@gmail.com,,"Personal Blog","#film #cinematography #cinema",https://scontent-lht6-1.cdninstagram.com/vp/963a77bcded11ee1618ec778916e2074/5E005F4A/t51.2885-19/s150x150/64769906_383353215866308_4879456110978793472_n.jpg?_nc_ht=scontent-lht6-1.cdninstagram.com,0,0,1,"2019-09-09 09:58:50"
118,cinemafromthepast,8466627652,"𝐊𝐲𝐥𝐞 𝐏𝐞𝐫𝐞𝐳",,"🎥 Cinema
🗣 Quotes 
🍿 Scenes
📊 Trivia
💭 Nostalgia
Check out my new page ⤵️
@colormyframe 
Check out my IMDb Profile ⤵️",https://www.imdb.com/user/ur64640683/,10623,795,7.48,pere4480@mylaurier.ca,,"Entertainment Website","#goldenageofhollywood #vintagehollywood #filmquotes",https://scontent-lht6-1.cdninstagram.com/vp/ea02dfce19d2f11638b36627f6061092/5E03DDE3/t51.2885-19/s150x150/65212156_469375926977848_3249805292489146368_n.jpg?_nc_ht=scontent-lht6-1.cdninstagram.com,0,0,1,"2019-09-09 09:58:58"
119,cinephile_ig,14787342860,"Cinephile IG",,"- Sharing my love for films 🎥",,645,186,28.84,cinefilia26@gmail.com,,Art,,https://scontent-lht6-1.cdninstagram.com/vp/6765a7356edd25646b0f5cb2962a6282/5E07C927/t51.2885-19/s150x150/62091736_613848222443008_6892408313682591744_n.jpg?_nc_ht=scontent-lht6-1.cdninstagram.com,0,0,1,"2019-09-09 09:59:04"
120,fr_movie,9025726482,"Fr Movie",Fr,,,5333,219,4.11,feredrez123@gmail.com,,"Movie Theater",,https://scontent-lht6-1.cdninstagram.com/vp/26e73499a430cfaa8ef181dd683bf2c1/5E10D97C/t51.2885-19/s150x150/66443326_484326112359173_6707335647457181696_n.jpg?_nc_ht=scontent-lht6-1.cdninstagram.com,0,0,1,"2019-09-09 09:59:12"
121,movieaddictsss,7647665509,DarenFletcher,,"Just visit the page and you'll immediatly love every post ,don't forget to follow !",,202,53,26.24,,,,"#movielovers #moviescenes #instagram",https://scontent-lht6-1.cdninstagram.com/vp/eaa077cac9b6dcac0482e699490a4b3e/5DF1E1FF/t51.2885-19/s150x150/68872293_935185330180541_7227880126044700672_n.jpg?_nc_ht=scontent-lht6-1.cdninstagram.com,0,0,0,"2019-09-09 09:59:19"
122,tomholland2013,176618189,"Tom Holland",Tom,✌️,https://bit.ly/2GyYuQK,31446509,6189286,19.68,,,,,https://scontent-lht6-1.cdninstagram.com/vp/3cc0df21a38cde44a033a1372fa9e7d7/5E0B391E/t51.2885-19/s150x150/62189141_2272560973058733_4422726492698443776_n.jpg?_nc_ht=scontent-lht6-1.cdninstagram.com,1,0,0,"2019-09-09 09:59:26"
123,the.alpacino,10435406990,"Hoo-Ah! It’s Al Pacino!",,"One and only Al Pacino! Hoo-Ah! This is fan account.
Daily posts 📩 Active 24 hours.",,13865,1668,12.03,elpacinolove@wp.pl,,Actor,,https://scontent-lht6-1.cdninstagram.com/vp/5acc05c25f19680d12b79aaa367c03ce/5E0B7403/t51.2885-19/s150x150/69488322_2365093513747258_2678590739658571776_n.jpg?_nc_ht=scontent-lht6-1.cdninstagram.com,0,0,1,"2019-09-09 09:59:34"
124,filmthusiast,5862604133,Filmthusiast,,"Curated for film enthusiasts, by film enthusiasts.
🗞: @filmthusiastnews",,603705,39454,6.54,thefilmthusiast@gmail.com,,"Entertainment Website",,https://scontent-lht6-1.cdninstagram.com/vp/8ff2abd914a3b1f4624febe0e2a42b39/5DF694D0/t51.2885-19/s150x150/60760279_442245146561471_7971197295486042112_n.jpg?_nc_ht=scontent-lht6-1.cdninstagram.com,0,0,1,"2019-09-09 09:59:40"
125,thefilmszone,2220153329,"The Films Zone",,"So you think you know movies...💭🤔",,288020,16899,5.87,,,Media,,https://scontent-lht6-1.cdninstagram.com/vp/d85659e2bb3528375e762403b37f82a3/5DF348A1/t51.2885-19/s150x150/67082889_641713973012913_7204440247537500160_n.jpg?_nc_ht=scontent-lht6-1.cdninstagram.com,0,0,1,"2019-09-09 09:59:46"
126,filmsycritic,4129941890,FilmsyCritic,,"📽 Film scenes
——
📤filmsycritic@gmail.com",,36623,7034,19.21,amazingjorgeo@gmail.com,,Movie,,https://scontent-lht6-1.cdninstagram.com/vp/0705deaa0a8cf295aefb43980446e008/5DF6441E/t51.2885-19/s150x150/64676205_406861286620847_4932082856357789696_n.jpg?_nc_ht=scontent-lht6-1.cdninstagram.com,0,0,1,"2019-09-09 09:59:52"
127,marvinmovie,12320496882,"Marvin Movie",Marvin,"Welcome to ""Marvin Movie"".🎬
marvinmovieentertainment@gmail.com 📧
Wanna watch some great scenes, there you go...🍿",,13207,4170,31.57,marvinmovieentertainment@gmail.com,,"Video Creator",,https://scontent-lht6-1.cdninstagram.com/vp/d926d25469d29b8351ff740b7d627926/5DF21ABD/t51.2885-19/59946779_2298499036893187_3582322622618140672_n.jpg?_nc_ht=scontent-lht6-1.cdninstagram.com,0,0,0,"2019-09-09 09:59:58"
128,studiobinder,1792600513,StudioBinder,,"The leading project management app for filmmakers.
🔥 Tag @studiobinder to be featured!
🎥 #filmmaking  | #videoproduction 
👇 ""What's in the box?!"" 👇",https://studiobinder.com/7,144582,3882,2.68,hello@studiobinder.com,3233795570,Product/Service,"#filmmaking #indiefilm #cinematographer",https://scontent-lht6-1.cdninstagram.com/vp/203ecb0564d4226c3d000fc7b55b0ff9/5E04C74A/t51.2885-19/s150x150/61571539_388200828456706_8162755010141093888_n.jpg?_nc_ht=scontent-lht6-1.cdninstagram.com,0,0,1,"2019-09-09 10:00:06"
129,pt5productions,9609485557,"Point 5 Productions",,"🎬| Join the Filmmaking Community
📚| Lessons for Filmmakers
🎥| Feature Film! @pt5featurefilm
👇 Free IG Growth Cheat Sheet 📲👇",http://bit.ly/cheatsheetig,34005,2886,8.49,mike@point5productions.com,,"Movie/Television Studio","#films #film #filmmaking",https://scontent-lht6-1.cdninstagram.com/vp/660c3c392580fd177387885614698db2/5E0912E1/t51.2885-19/s150x150/67086579_1352730488226077_4989877078754066432_n.jpg?_nc_ht=scontent-lht6-1.cdninstagram.com,0,0,1,"2019-09-09 10:00:14"
130,kinefilm,13309695724,"Kinefilm - Cinema & Actors",,"Curated Cinema Content for Film Enthusiasts 🍿",,12559,4893,38.96,thekinefilm@gmail.com,,,,https://scontent-lht6-1.cdninstagram.com/vp/e45386b852c96428372ec52e7a995b2e/5E13D6F4/t51.2885-19/s150x150/66346092_653533965146558_6356161035228938240_n.jpg?_nc_ht=scontent-lht6-1.cdninstagram.com,0,0,1,"2019-09-09 10:00:20"
131,film.gems,10740381166,"FILM GEMS",,"The best of film in HD.",http://WWW.BIT.LY/HEY-WILLY,28064,4794,17.08,contactfilmgems@gmail.com,,,,https://scontent-lht6-1.cdninstagram.com/vp/34f8b0ca9b9c16bd4bd83f05f67df137/5E0B7A98/t51.2885-19/s150x150/67492277_485539972298581_7139049808542564352_n.jpg?_nc_ht=scontent-lht6-1.cdninstagram.com,0,0,1,"2019-09-09 10:00:26"
132,filmthusiastnews,7468338937,"Filmthusiast News",,"News from the film industry.
A @filmthusiast page.",,12490,1603,12.83,askfilmthusiast@gmail.com,,"Entertainment Website","#boxoffice #d23expo",https://scontent-lht6-1.cdninstagram.com/vp/564947f590057196ab78793cf6ca09be/5E0CC4E5/t51.2885-19/s150x150/60043415_334548317232033_518974831249588224_n.jpg?_nc_ht=scontent-lht6-1.cdninstagram.com,0,0,1,"2019-09-09 10:00:33"
133,changehumans,7992081710,"PEOPLE WHO MAKE A DIFFERENCE",,"Check Out Our Latest Projects 👇",https://www.youtube.com/channel/UCiT-oVGAlgja3epmNvKb4ng,36037,2909,8.07,,,,,https://scontent-lht6-1.cdninstagram.com/vp/d5cf5ef601b004ba5758397499ad8d1f/5DF56FDA/t51.2885-19/s150x150/37038154_155232488614822_6962999893648474112_n.jpg?_nc_ht=scontent-lht6-1.cdninstagram.com,0,0,0,"2019-09-09 10:00:39"
134,filmrealist,4705233906,FilmRealist,,"If it can be written, or thought, it can be filmed.",,4144,263,6.35,filmrealist@gmail.com,,Art,,https://scontent-lht6-1.cdninstagram.com/vp/ccff3d63f512e57f4c42a7872adce375/5DF77C3B/t51.2885-19/s150x150/66823670_403190430325383_6748414445547945984_n.jpg?_nc_ht=scontent-lht6-1.cdninstagram.com,0,0,1,"2019-09-09 10:00:45"
135,movieworldonline,5722787563,"Movie World",,"A film is never really good unless the camera is an eye in the head of the poet. (Orson Welles)",https://letterboxd.com/Vokerka,11065,222,2.01,movieworldon@gmail.com,,Movie,"#moviejunkies #cinemaniacs #moderncinema",https://scontent-lht6-1.cdninstagram.com/vp/d3cb5e7716c738d3da3c269e822fc7e4/5DEFBDF8/t51.2885-19/s150x150/69023613_2162232310743838_5067411975865106432_n.jpg?_nc_ht=scontent-lht6-1.cdninstagram.com,0,0,1,"2019-09-09 10:00:51"
136,thefilmwave,9643151282,"The Film Wave",,"An endless archive of high quality stills from films. 🎥🍿",,7177,897,12.5,ojocinefilo@outlook.com,,Community,,https://scontent-lht6-1.cdninstagram.com/vp/a1a7b0808e8f659744984dab9f80f8a8/5DFAF9C0/t51.2885-19/s150x150/60815197_690289661401977_4439377415185104896_n.jpg?_nc_ht=scontent-lht6-1.cdninstagram.com,0,0,1,"2019-09-09 10:00:58"
137,dailyfilm.ig,3649603889,"BRUCE TETSUYA | filmmaker",BRUCE,"🏙  Daily Posts, Rain or Shine!
🌆  My Insta! @Bruce_Tetsuya
🌃  DM for Business Inquiries!",https://vimeo.com/356498056,6427,256,3.98,,,,"#cinema #movie #instacinema",https://scontent-lht6-1.cdninstagram.com/vp/0aca338e68ae2f541ac3af26e72e6a61/5DF3F353/t51.2885-19/s150x150/61076828_826874614348822_6787800206185332736_n.jpg?_nc_ht=scontent-lht6-1.cdninstagram.com,0,0,0,"2019-09-09 10:01:04"
138,cine.critique,4583738081,"Ciné Critique",,"""Passion is the friction between one's soul and the outside world.""",https://boxd.it/j6WJ,2614,158,6.04,,,,,https://scontent-lht6-1.cdninstagram.com/vp/7100c4e93bd4276f734c5c74c527d542/5DFCE83A/t51.2885-19/s150x150/60678581_609306472905804_6338573925835866112_n.jpg?_nc_ht=scontent-lht6-1.cdninstagram.com,0,0,0,"2019-09-09 10:01:12"
139,cinematogr,327755253,Cinematography,,,,537065,10716,2,cinematographyinfo@gmail.com,,Camera/Photo,,https://scontent-lht6-1.cdninstagram.com/vp/4b3d493671346fcc4da7fb2ca9d0ae2d/5E114D81/t51.2885-19/s150x150/16584767_251295345296480_6980903701045051392_a.jpg?_nc_ht=scontent-lht6-1.cdninstagram.com,0,0,1,"2019-09-09 10:01:20"
140,theacademy,3724687,"The Academy",,"Home of the #Oscars.",https://linkin.bio/theacademy,2303256,24243,1.05,socialmedia@oscars.org,3108599619,"Arts & Entertainment",,https://scontent-lht6-1.cdninstagram.com/vp/a88637c35f966bc56d16a1278c1ce932/5DF0B466/t51.2885-19/s150x150/67196742_423086161618424_4333125000933408768_n.jpg?_nc_ht=scontent-lht6-1.cdninstagram.com,1,0,1,"2019-09-09 10:01:26"
141,filmakrs,3079253005,"FILMMAKER #1 🎥🎬",,"🎥 Cameras 😎 People 🎬Gears 🎭 Humour
💰 Need promo/ad? 👉 Direct or email
📩 filmakrs@gmail.com",,770908,14221,1.84,filmakrs@gmail.com,,Camera/Photo,,https://scontent-lht6-1.cdninstagram.com/vp/0ce70deabd028dd5d456cbaf0b1cc192/5E0F193B/t51.2885-19/s150x150/13167360_235676620142407_549465706_a.jpg?_nc_ht=scontent-lht6-1.cdninstagram.com,0,0,1,"2019-09-09 10:01:34"
142,indiewire,190712515,IndieWire,,"The definitive outlet for film and TV news, reviews, and industry analysis.",https://linkin.bio/indiewire,272936,2016,0.74,zack@indiewire.com,,"Entertainment Website",#tiff19,https://scontent-lht6-1.cdninstagram.com/vp/756fb6f50f5b809c1714721dc61da474/5E02AB70/t51.2885-19/s150x150/13257136_184907435243199_1640130032_a.jpg?_nc_ht=scontent-lht6-1.cdninstagram.com,1,0,1,"2019-09-09 10:01:41"
143,filmmakersworld,4946193531,"Filmmakers World",,"🎥 Setlife | Cine Gears | BTS
🔥 The place for film industry insiders
▶️ By @emagiannini @rossbenedetto
👇 Follow & tag #filmmakersworld to be feature",https://youtu.be/rw7GLMCvj_s,445392,7483,1.68,marketing@studio-eg.com,,"News & Media Website",#filmmakersworld,https://scontent-lht6-1.cdninstagram.com/vp/db9e9f89684d54dff9735263fb4dab23/5E0BAC8A/t51.2885-19/s150x150/67479836_2361377704110876_2010798542892826624_n.jpg?_nc_ht=scontent-lht6-1.cdninstagram.com,0,0,1,"2019-09-09 10:01:49"
144,mr.cinematography,6037700944,"Mr. Cinematography",,"Reverse engineering the art of cinematography",http://fb.me/mr.cinematography,94090,7696,8.18,selim@cotalvisuals.com,,"Entertainment Website","#mrcinematography #videography #movie",https://scontent-lht6-1.cdninstagram.com/vp/b4e097fea07035dd42c72303be811b65/5E00FF7D/t51.2885-19/s150x150/22639289_664880850372076_2001531596900925440_n.jpg?_nc_ht=scontent-lht6-1.cdninstagram.com,0,0,1,"2019-09-09 10:01:55"
145,behindthescenegram,7117064446,"BTS GRAM - BEHIND THE SCENES",BTS,"*Filmset
*VFX Breakdown
*Tricks
*Tutorials
*Reviews",http://www.behindthescenegram.com/,217407,5686,2.62,filmbehindthescene@gmail.com,,Blogger,"#behindthescenegram #directorofphotography #cinematography",https://scontent-lht6-1.cdninstagram.com/vp/8e25b714037528a3392df0df7bb82c17/5E0DA232/t51.2885-19/s150x150/68698698_2346599662255778_5516493064845131776_n.jpg?_nc_ht=scontent-lht6-1.cdninstagram.com,0,0,0,"2019-09-09 10:02:00"
146,criterioncollection,196789812,"Criterion Collection",,"Since 1984, we’ve dedicated ourselves to gathering and publishing the greatest films from around the world.",http://bit.ly/2m49sqV,394330,4382,1.11,socialadmin@criterion.com,,Movie,,https://scontent-lht6-1.cdninstagram.com/vp/f28047e2a12bba13bb7455508d23b76c/5DF32920/t51.2885-19/10540226_1527220137501346_1552622441_a.jpg?_nc_ht=scontent-lht6-1.cdninstagram.com,1,0,1,"2019-09-09 10:02:06"
147,bryancranston,3443914682,"Bryan Cranston",Bryan,"Film, TV and theater actor",https://pca.eonline.com/movies/the-comedy-movie-of-2019,1630462,92787,5.69,bc@gmail.com,,Movie,,https://scontent-lht6-1.cdninstagram.com/vp/d480406651c09e4c3652aa895926375b/5E065256/t51.2885-19/s150x150/13636294_1868779360016327_971943275_a.jpg?_nc_ht=scontent-lht6-1.cdninstagram.com,1,0,1,"2019-09-09 10:02:12"
148,movie.effects.vfx,5444162294,"Movie Effects VFX 🎬",,"🎞 All about Movies 
🎥 BTS
🖥 VFX Breakdown
👨🏼‍💻 Owner: @timo_sell 
📧 movie.effects.vfx[at]gmail.com 📧
Content belongs to their owners",,500819,6238,1.25,movie.effects.vfx@gmail.com,,Business,"#makingofmovies #cinema #movies",https://scontent-lht6-1.cdninstagram.com/vp/b0a38db0423a19f667a7691146ab8017/5E0F20FD/t51.2885-19/s150x150/27575747_293063397889566_8255539021132857344_n.jpg?_nc_ht=scontent-lht6-1.cdninstagram.com,0,0,1,"2019-09-09 10:02:18"
149,__nitch,1095261660,NITCH,,,http://www.nitch.com/,912375,36117,3.96,,,,,https://scontent-lht6-1.cdninstagram.com/vp/15fc98e8665e318e05f0402be2f08acf/5E046AB3/t51.2885-19/s150x150/15802094_1374426432609069_3859209083903016960_a.jpg?_nc_ht=scontent-lht6-1.cdninstagram.com,0,0,0,"2019-09-09 10:02:23"
150,picturesque_film_frames,10504492886,,,"Daily photos of some of the best shots in cinema + brief and extended reviews for films I’m particularly passionate about 🎞 🎥",,3919,409,10.44,,,,,https://scontent-lht6-1.cdninstagram.com/vp/03c1a85e5aa86c6129dd03409e1173af/5DF0E587/t51.2885-19/s150x150/65400008_2115635542068742_3323911177905373184_n.jpg?_nc_ht=scontent-lht6-1.cdninstagram.com,0,0,0,"2019-09-09 10:02:31"
151,a24,306191226,A24,,"NOW PLAYING: The Farewell, Midsommar, @hbo’s Euphoria | COMING SOON: The Lighthouse, Waves, Uncut Gems & more",http://shop.a24films.com/,387546,31052,8.01,info@24films.com,,"Movie/Television Studio",,https://scontent-lht6-1.cdninstagram.com/vp/67224d76f30de2b6dfe245d740eecc7d/5E0A961C/t51.2885-19/s150x150/13166805_249312088792058_1105096901_a.jpg?_nc_ht=scontent-lht6-1.cdninstagram.com,1,0,1,"2019-09-09 10:02:37"
152,2cool4filmschool,8699092885,"Film School Frat Boys",,"🎥Community for Filmmakers and Cinephiles🎬
🔥 submit OC memes to get featured🔥
BTS 
Inspirational & educational posts",,18070,3100,17.16,leonkoentertainment@gmail.com,,Community,"#filmmaking #cinematography #filmmaker",https://scontent-lht6-1.cdninstagram.com/vp/c539ffb66a5ebe7da6ec9de38ff7dbd1/5DF6AE1F/t51.2885-19/s150x150/42707377_2148234008749934_6758138663822950400_n.jpg?_nc_ht=scontent-lht6-1.cdninstagram.com,0,0,1,"2019-09-09 10:02:44"
153,didyouknowmovies,1381339382,"Movie Facts",,"📽 | Bringing you the best movie facts! | 📽 ✨Check out @didyouknow.tv for the best TV facts 📺 No Ads!",,670700,34865,5.2,didyouknowmoviez@gmail.com,,Movie,"#movie #movies #film",https://scontent-lht6-1.cdninstagram.com/vp/9568e818ff77048c053cf0eeee771b7b/5E13BA07/t51.2885-19/16789854_204583603353748_4544077469342236672_n.jpg?_nc_ht=scontent-lht6-1.cdninstagram.com,0,0,1,"2019-09-09 10:02:51"
154,hollywoodreporter,182589350,"Hollywood Reporter",,"The premier destination and most widely-trusted resource for entertainment news, reviews, videos and analysis.
Daily news stories 👇",http://linkin.bio/hollywoodreporter,1329262,9512,0.72,product@thr.com,3235252000,Magazine,"#thrattiff #tiff19",https://scontent-lht6-1.cdninstagram.com/vp/a87982db60cacfa558edfc35f3474a3f/5E160EB1/t51.2885-19/s150x150/11849942_824797340975161_17478963_a.jpg?_nc_ht=scontent-lht6-1.cdninstagram.com,1,0,1,"2019-09-09 10:02:57"
155,complex,11954021,COMPLEX,,"The family: 
🏀 @ComplexSports
🎧 @ComplexMusic
👟 @ComplexSneakers
🎬 @ComplexPop
💧 @ComplexStyle 
🐦 @PigsandPlans
👣 @SoleCollector
🍔 @FirstWeFeast",https://linkin.bio/complex,5007026,101992,2.04,complexinstagram@complex.com,,"Media/News Company",,https://scontent-lht6-1.cdninstagram.com/vp/590ec13063770934fbf3bdefd9b3e982/5DFEB175/t51.2885-19/s150x150/37400698_703676739978828_3263273150288232448_n.jpg?_nc_ht=scontent-lht6-1.cdninstagram.com,1,0,1,"2019-09-09 10:03:03"
156,cinematiq_,13231294758,CINEMATIQ,,"𝘸𝘦 𝘴𝘦𝘦 𝘮𝘰𝘷𝘪𝘦𝘴 𝘢𝘴 𝘱𝘶𝘳𝘦 𝘢𝘳𝘵",http://bit.ly/Bitcoin_Profit_Secrets,5247,91,1.73,cinematiq1@outlook.com,,"Arts & Entertainment","#cine #instagood #hbo",https://scontent-lht6-1.cdninstagram.com/vp/61ad138a21ffaf4621cde85457063c49/5DF4114C/t51.2885-19/s150x150/58409629_371138353498215_7510073882712211456_n.jpg?_nc_ht=scontent-lht6-1.cdninstagram.com,0,0,1,"2019-09-09 10:03:10"
157,kidcassidyfilms,4224079659,"Movie Facts 🎬",,"The best film facts(with clips) on Instagram.
DM me for cheap promos.
All rights belong to their respective owners.
👇 Kubrick merch",http://shrsl.com/m89q,74107,9276,12.52,kidcassidy96@gmail.com,,"Entertainment Website",,https://scontent-lht6-1.cdninstagram.com/vp/c60e1ce89257f9ef450421021d464204/5E06428E/t51.2885-19/s150x150/53934249_2479859835381172_2931687944026587136_n.jpg?_nc_ht=scontent-lht6-1.cdninstagram.com,0,0,1,"2019-09-09 10:03:17"
158,marvel,204633036,"Marvel Entertainment",Marvel,"The official Instagram for Marvel comics, movies, games, and more.",http://marvel.com/,42377894,377566,0.89,onlinesupport@marvel.com,,Brand,,https://scontent-lht6-1.cdninstagram.com/vp/ca2cb639a0aa18e198ca989ef0116b1f/5E0B6329/t51.2885-19/11007912_807640775983280_1278253375_a.jpg?_nc_ht=scontent-lht6-1.cdninstagram.com,1,0,1,"2019-09-09 10:03:23"
159,daquan,1419706373,Daquan,Daquan,"💥Posting the funniest content from across the web
💢YYC🇨🇦/Ethiopian🇪🇹
📩 Daquan@imgn.media
📱+1-917-257-2429 WhatsApp/Text for content submissions",http://daquan.tv/,12910918,533264,4.13,daquan@imgn.media,,,,https://scontent-lht6-1.cdninstagram.com/vp/02a84158ce5329a46fee4dd4c4380634/5E119ADE/t51.2885-19/s150x150/47583615_2302271449786152_5112349677517275136_n.jpg?_nc_ht=scontent-lht6-1.cdninstagram.com,1,0,0,"2019-09-09 10:03:29"
160,moviefacts,4961856259,"Movie Facts",,"🍿 The world’s best dedicated @MovieFacts feed.
🍿 Strictly #Movies #Actors #Awards #Streaming #Tech content.
🍿 Like, follow, comment, and join the fun!",,163923,20154,12.29,geekfacts300418@gmail.com,,"Movie Theater",,https://scontent-lht6-1.cdninstagram.com/vp/1526cf9b7880d4cee442532a10dd6f1b/5DFE511A/t51.2885-19/s150x150/50615103_1010483945826204_3641252030640553984_n.jpg?_nc_ht=scontent-lht6-1.cdninstagram.com,0,0,1,"2019-09-09 10:03:35"
161,newcinemaexcelsior,16671243907,"New Cinema Excelsior || Films",,"Everything You Always Wanted to Know About Cinema 
English/Español
🎥@frames_excelsior
Main account got deleted: @cinema_excelsior",https://letterboxd.com/cinemaexcelsior/,837,308,36.8,newcinemaexcelsior@gmail.com,,Writer,,https://scontent-lht6-1.cdninstagram.com/vp/0171a62b635fd9dc6ff0537361d39f80/5E08571E/t51.2885-19/s150x150/66636591_791389044595918_850778028576342016_n.jpg?_nc_ht=scontent-lht6-1.cdninstagram.com,0,0,1,"2019-09-09 10:03:43"
162,thehughjackman,489110643,"Hugh Jackman",Hugh,,http://HughJackmanTheShow.com/,27839239,231039,0.83,,,,#themanthemusictheshow,https://scontent-lht6-1.cdninstagram.com/vp/6e33c25440716dfa024ffbbf6ce1cda2/5DFC4A8B/t51.2885-19/s150x150/66396307_702647860174407_1962085607937146880_n.jpg?_nc_ht=scontent-lht6-1.cdninstagram.com,1,0,0,"2019-09-09 10:03:50"
163,peakyblindersofficial,2267107280,"Peaky Blinders",,"#PeakyBlinders Series 5 airs Sundays at 9pm on BBC One. Series 1-4 available now on BBC iPlayer.",https://bbc.in/2Yieazr,1755375,83857,4.78,,,"TV Show",#peakyblinders,https://scontent-lht6-1.cdninstagram.com/vp/c9ff92221ea62eb34e050a584d7bc174/5DF90C15/t51.2885-19/s150x150/67306262_2350029458546384_8508656471976706048_n.jpg?_nc_ht=scontent-lht6-1.cdninstagram.com,1,0,1,"2019-09-09 10:03:56"
164,stanleykubrickfc,8582647776,"Stanley Kubrick Fans",Stanley,"🔥Use the code KUBRICK20 and get 20% discount 👇
🎬 All about Stanley Kubrick
💭 Quotes
🎞️ References
🍊 Scenes
📩 DM for promotions💵",https://bit.ly/2J2VCN6,37953,4336,11.42,cinefilosfacebook@gmail.com,,Art,"#kubrick #stanleykubrick",https://scontent-lht6-1.cdninstagram.com/vp/e7a257b079586be44d54d4b1c52fad80/5DFEF544/t51.2885-19/s150x150/44910224_190928261852594_584659978015473664_n.jpg?_nc_ht=scontent-lht6-1.cdninstagram.com,0,0,1,"2019-09-09 10:04:02"
165,avant.arte,1559275229,"Avant Arte",,,http://linkin.bio/avant-arte,1602543,12322,0.77,curtis@avantarte.com,,Community,,https://scontent-lht6-1.cdninstagram.com/vp/f7bbb1aac42771d3d7dc66a77572b663/5E0877C1/t51.2885-19/s150x150/17268024_1741186056195687_7030830896269754368_a.jpg?_nc_ht=scontent-lht6-1.cdninstagram.com,1,0,1,"2019-09-09 10:04:10"
166,magnumphotos,600168571,"Magnum Photos",Magnum,"A photographic cooperative of great diversity and distinction owned by its photographer members.",https://www.magnumphotos.com/,3281362,12541,0.38,magnum@magnumphotos.com,2129296000,"News & Media Website",#magnumphotos,https://scontent-lht6-1.cdninstagram.com/vp/ccda92f1567f36822f8424fbbdec40d0/5DF66FF1/t51.2885-19/s150x150/19227681_316187898816164_4966002231728930816_a.jpg?_nc_ht=scontent-lht6-1.cdninstagram.com,1,0,1,"2019-09-09 10:04:16"
167,rollingstone,11833370,"Rolling Stone",,,https://rol.st/instagram,4227330,19950,0.47,tips@rollingstone.com,,"Media/News Company",,https://scontent-lht6-1.cdninstagram.com/vp/251649414824278e40faed0c6c2db6c7/5E10A2AB/t51.2885-19/s150x150/65321883_456637638456399_4241350822652280832_n.jpg?_nc_ht=scontent-lht6-1.cdninstagram.com,1,0,1,"2019-09-09 10:04:22"
168,voguemagazine,198154074,Vogue,,"The official Instagram of American Vogue.",https://likeshop.me/voguemagazine,24554919,54886,0.22,contact@vogue.com,,Magazine,,https://scontent-lht6-1.cdninstagram.com/vp/02a0b294711984c430bdd34b890f50a2/5DFD4C40/t51.2885-19/s150x150/25024975_1053395324802105_3204556493470826496_n.jpg?_nc_ht=scontent-lht6-1.cdninstagram.com,1,0,1,"2019-09-09 10:04:30"
169,somewheremagazine,1460892949,"Somewhere Magazine",,"This is our mood board.",http://www.somewhere-magazine.com/,712344,9393,1.32,hello@somewhere-magazine.com,,"Arts & Humanities Website",#somewheremagazine,https://scontent-lht6-1.cdninstagram.com/vp/422dec285857ac1688e3dea36967cee3/5E038E3E/t51.2885-19/s150x150/25010172_532505227117464_6938034047620743168_n.jpg?_nc_ht=scontent-lht6-1.cdninstagram.com,0,0,1,"2019-09-09 10:04:35"
170,strangerthingstv,2093563594,"Stranger Things",,"snoǝƃɹoƃoɯǝp ɹn ᴉɥ",https://bit.ly/2YC4kHT,12925830,999366,7.73,,,"TV Show",,https://scontent-lht6-1.cdninstagram.com/vp/fa70f5f40d8a1a54496f717613d62e43/5DFBE82A/t51.2885-19/s150x150/31210979_445495872550768_676174748861857792_n.jpg?_nc_ht=scontent-lht6-1.cdninstagram.com,1,0,1,"2019-09-09 10:04:41"
171,nasa,528817151,NASA,,"Explore the universe and discover our home planet. 🌍🚀
⁣
Uncover more info about our images:",https://www.nasa.gov/instagram,48759877,955737,1.96,public-inquiries@hq.nasa.gov,,"Government Organization","#nasa #earth #space",https://scontent-lht6-1.cdninstagram.com/vp/6c0aeb63948376d64f6ffc419c79e0b0/5E10D3ED/t51.2885-19/s150x150/29090066_159271188110124_1152068159029641216_n.jpg?_nc_ht=scontent-lht6-1.cdninstagram.com,1,0,1,"2019-09-09 10:04:48"
