1729,ceo.paolo,10251703956,CeoPaolo,,"•FOUNDER @LiveStyle
•CHAIRMAN/CEO @LoganPaul @JakePaul",,191121,2372,1.24,,,,,https://scontent-lht6-1.cdninstagram.com/vp/8b219c27285ccc1ba3a7bb8a13184ae6/5E36DA6E/t51.2885-19/s150x150/62245740_451557655628561_8984736438343958528_n.jpg?_nc_ht=scontent-lht6-1.cdninstagram.com,0,0,0,"2019-09-16 11:21:11"
1730,riksfits,11101977411,,,"WELCOME TO MY CLOSET 🦋",http://depop.com/riksfits,26045,2337,8.97,,,,,https://scontent-lht6-1.cdninstagram.com/vp/3784b94435481a531aac7c9a1e810cc9/5E00040B/t51.2885-19/s150x150/51608686_321816961795353_2633753750694526976_n.jpg?_nc_ht=scontent-lht6-1.cdninstagram.com,0,0,0,"2019-09-16 11:21:17"
1731,gingerthegiantt,11617982044,"Ginger The Giant",Ginger,"• DM for promo📩
• Carrying on the legacy of Kong Da Savage ❤️@loganpaul is my dad 🐶 Sister of @broleyblue",,89406,5475,6.12,,,,,https://scontent-lht6-1.cdninstagram.com/vp/a47b1beb5b376d7317194ded53d2d6e4/5E0293DE/t51.2885-19/s150x150/59797432_365891480699590_8074803550321901568_n.jpg?_nc_ht=scontent-lht6-1.cdninstagram.com,0,0,0,"2019-09-16 11:21:24"
1732,angel_sheehan,1202996152,"Angel Sheehan",Angel,"Just a mom of some vlog kids! Check out our channels!",https://m.youtube.com/channel/UCZgOBjvF0gnK0disxAA2jzA,49134,851,1.73,asheehan@iservelending.com,,"Public Figure",,https://scontent-lht6-1.cdninstagram.com/vp/0d6550d50e868280b4cb6427a1dfba34/5E0E605F/t51.2885-19/s150x150/29416128_965604100258867_5369494656633536512_n.jpg?_nc_ht=scontent-lht6-1.cdninstagram.com,0,0,1,"2019-09-16 11:21:32"
1733,cortney.erin,13290940,"CORTNEY ERIN",CORTNEY,"🧜🏼‍♀️🐐 LA/OC. Enjoying the traffic.",http://depop.com/cortneyerin,71348,3157,4.42,contact.cortneyerin@yahoo.com,,"Just For Fun",,https://scontent-lht6-1.cdninstagram.com/vp/a39e92c770a81c9e74f19740de7fc429/5DF69C32/t51.2885-19/s150x150/56691588_793398064350385_957578381870759936_n.jpg?_nc_ht=scontent-lht6-1.cdninstagram.com,0,0,1,"2019-09-16 11:21:39"
1734,athenakavis,1336857874,"Athena Kavis🇬🇷",Athena,"💡 x4 Founder | @kavismg @mymerakius @cammelly @swimszn (exited)
🎙 Kavis Radio",http://athenakavis.com/kavisradio,153132,3820,2.49,contact@kavismg.com,,Entrepreneur,,https://scontent-lht6-1.cdninstagram.com/vp/53b839fd8941c997aeff813abcf50632/5E058E35/t51.2885-19/s150x150/66799006_2326812837411978_6777963743235014656_n.jpg?_nc_ht=scontent-lht6-1.cdninstagram.com,0,0,1,"2019-09-16 11:21:45"
1735,gingerthegiant,13604234578,"Ginger The Giant",Ginger,"Red Tibetan Mastiff. Sister of @BroleyBlue",https://maverickbyloganpaul.com/,498035,164858,33.1,,,,,https://scontent-lht6-1.cdninstagram.com/vp/8ed469fa9dbe991cddd87961f6e6956e/5E02AFD3/t51.2885-19/s150x150/60713722_1119479408176404_1777712621949026304_n.jpg?_nc_ht=scontent-lht6-1.cdninstagram.com,0,0,0,"2019-09-16 11:21:52"
1736,nickymayorga,13710921397,"Nick Mayorga",Nick,"this is just my spam account..
my main is @nickmayorga",,42450,5468,12.88,,,,,https://scontent-lht6-1.cdninstagram.com/vp/9d6e6a87aec7916c1eb16880edd2dc04/5E3AB87C/t51.2885-19/s150x150/60700161_2076898102609624_2434072333032357888_n.jpg?_nc_ht=scontent-lht6-1.cdninstagram.com,0,0,0,"2019-09-16 11:21:58"
1784,gio_mayoral,14809788,"Giovanni Mayoral",Giovanni,"Creativefornia MGMT & Consulting 
@team10official
 @inzeirecords
 @inzeilatino",,12125,840,6.93,,,Entrepreneur,,https://scontent-lht6-1.cdninstagram.com/vp/cf78618fa57092a0a779af878c987871/5DFB0308/t51.2885-19/s150x150/10554017_625036994302214_45877150_a.jpg?_nc_ht=scontent-lht6-1.cdninstagram.com,0,0,0,"2019-09-16 13:08:01"
1738,i_am_danid,1543339837,DD,,"Cheer is my world! Check out my YouTube channel! 
 account monitored by mom (angelsheehan)",https://www.youtube.com/channel/UCZgOBjvF0gnK0disxAA2jzA?app=desktop,80733,5037,6.24,angelsheehan@yahoo.com,,"Public Figure",,https://scontent-lht6-1.cdninstagram.com/vp/a06c64c53f08b0c70c3e226b3eb040e8/5DFA9BD0/t51.2885-19/s150x150/62436688_820389468340953_8036419779784867840_n.jpg?_nc_ht=scontent-lht6-1.cdninstagram.com,0,0,1,"2019-09-16 11:22:11"
1739,cohenchorabik,1554940370,"Cohen Chorabik",Cohen,"I make entrepreneurship relevant
And make doll hairs on the internet
DM me 🔌 to grow your IG page",,214415,4380,2.04,workwithcohen@gmail.com,2505755022,Actor,,https://scontent-lht6-1.cdninstagram.com/vp/d75cbdb5b89605f5fafe560756538a44/5E1D21D5/t51.2885-19/s150x150/69556689_390174658347514_1201206334402330624_n.jpg?_nc_ht=scontent-lht6-1.cdninstagram.com,0,0,1,"2019-09-16 11:22:17"
1740,tydus,1556997197,"Tydus Talbott",,"🔥Tydus🔥
Follow my other IG: @minijakepaul 
Musical.ly: mini_jake_paul 
Managed by my parents: @travistalbott @corey_talbott
SUBSCRIBE to my YouTube👇",https://youtu.be/VtL0SgDKAf8,674678,46996,6.97,coregrl17@aol.com,,"Video Creator",,https://scontent-lht6-1.cdninstagram.com/vp/124fd6f751796428c183b1ed6061822a/5E003B0B/t51.2885-19/s150x150/61335494_2252230265042099_5227476125562699776_n.jpg?_nc_ht=scontent-lht6-1.cdninstagram.com,0,0,1,"2019-09-16 11:22:23"
1741,alexdelena,15914181,"Alexandra DeLena",Alexandra,"💌: alexdelenabusiness@gmail.com",http://vsco.co/alexandradelena,122136,896,0.73,alexdelenabusiness@gmail.com,,"Personal Blog",,https://scontent-lht6-1.cdninstagram.com/vp/0bc4918ca5554e72055e1d8984d60dc4/5E192A9C/t51.2885-19/s150x150/60927858_2050994318528701_9002969747041550336_n.jpg?_nc_ht=scontent-lht6-1.cdninstagram.com,0,0,1,"2019-09-16 11:22:31"
1742,nicky,1635143843,Nicky,Nicky,"Stop bullying campaign coming soon tik tok -nickyvegas39",,283455,3159,1.11,,,,,https://scontent-lht6-1.cdninstagram.com/vp/d24e9c3c09e9f847a66b767b6a0df4f1/5E39DB6D/t51.2885-19/s150x150/32324053_1699864126774086_2958684875793629184_n.jpg?_nc_ht=scontent-lht6-1.cdninstagram.com,0,0,0,"2019-09-16 11:22:39"
1744,austinxhare,176257259,"Austin Hare",Austin,"TEAM 10
x New YouTube Video “below”",https://bit.ly/2y4B6Xy,357211,12105,3.39,HareAustin1@gmail.com,,Artist,,https://scontent-lht6-1.cdninstagram.com/vp/0bacc0010216531aa5f0449f2a606146/5E06708A/t51.2885-19/s150x150/67243081_2401020336843795_3848963297684488192_n.jpg?_nc_ht=scontent-lht6-1.cdninstagram.com,0,0,0,"2019-09-16 11:22:54"
1745,mikahlcaci,180785426,"MIKAHL CACI",,"LV ✈️ LA / Business Inquires 📩 cacitwins@gmail.com #cacitwins. My other half @cacitwins",,88506,10659,12.04,mikahlcaci@icloud.com,,"Public Figure",,https://scontent-lht6-1.cdninstagram.com/vp/f4df71dcfaa56700fe0894feaec4bb0c/5DF99E52/t51.2885-19/s150x150/68935247_951941331816827_2396088935051689984_n.jpg?_nc_ht=scontent-lht6-1.cdninstagram.com,0,0,1,"2019-09-16 11:23:01"
1746,slaterdavis,183564237,"slater davis",Slater,"@boygrl_ 
Los Angeles",http://theslaterdavis.com/,180279,1783,0.99,slaterd7@gmail.com,,Artist,,https://scontent-lht6-1.cdninstagram.com/vp/1fcbe5b6df978c328444c3ea6101b593/5DFF4632/t51.2885-19/s150x150/65917198_388286331820158_7928986090612981760_n.jpg?_nc_ht=scontent-lht6-1.cdninstagram.com,0,0,1,"2019-09-16 11:23:09"
1747,cacitwins,183599308,"CACI TWINS",,"Team 10                Highkey craz eee
Las Vegas raised LA LIVINNN @mikahlcaci @paytoncaci",https://m.youtube.com/channel/UC7qnMkgsIMv3f23KNztXzyw,354861,14817,4.18,cacitwins@gmail.com,,"Public Figure",,https://scontent-lht6-1.cdninstagram.com/vp/ae7d302f02ecf97045584cb605676c8d/5E06CA54/t51.2885-19/s150x150/68703355_495986421200248_8350202827640930304_n.jpg?_nc_ht=scontent-lht6-1.cdninstagram.com,0,0,1,"2019-09-16 11:23:15"
1748,paytoncaci,190326177,"P8yton Caci",,"Team 10
Contact:
Cacitwins@gmail.com            @cacitwins  📍LA♉️🏳️‍🌈 U MIGHT LUV ME",https://youtu.be/2Qo6hFKtJbI,83141,8390,10.09,paytoncaci@gmail.com,,"Public Figure",,https://scontent-lht6-1.cdninstagram.com/vp/6fbcc7df475e041630bdf6fb21593f13/5E38C2FE/t51.2885-19/s150x150/67126760_1128886827297012_4274387479164878848_n.jpg?_nc_ht=scontent-lht6-1.cdninstagram.com,0,0,0,"2019-09-16 11:23:23"
1750,geojammusic,2009490578,Geojam,,"Map Your Sound. Become a Headliner. Earn Rewards. 🎶
Request an invite at",http://geojam.com/,177985,462,0.26,sarah@geojam.com,,,"#mtvawards #mtv #vmas",https://scontent-lht6-1.cdninstagram.com/vp/16ef49e0bf9d76b0fc5c080e79a51ac0/5E056CF2/t51.2885-19/s150x150/67319770_371767400205583_2640929365440856064_n.jpg?_nc_ht=scontent-lht6-1.cdninstagram.com,0,0,0,"2019-09-16 11:23:38"
1751,sanchovanryan,202207328,"Sancho Van Ryan",Sancho,"Turn ON Post Notifications 🔊
📍 @Team10Official
Founder- Viva Luxe🎥 🎬
Executive Event Producer🚀
Pageant Host 🎤
🇦🇺 to 🇺🇸",https://people.com/tv/jake-paul-tana-mongeau-wedding-las-vegas/,210006,1789,0.85,sanchovanryan@gmail.com,7024087791,Entrepreneur,#wanderlust,https://scontent-lht6-1.cdninstagram.com/vp/cbf114fe9a4b8a6e0edfc5b4cf0dca1f/5E0597A4/t51.2885-19/s150x150/65289789_2918237798247732_8513449737083420672_n.jpg?_nc_ht=scontent-lht6-1.cdninstagram.com,0,0,0,"2019-09-16 11:23:44"
1752,andyaltig,20343264,"Andy Altig",Andy,"🇮🇹+🇺🇸 
📷Vlogger 
👨🏻‍🍳Chef 
💥CHECK OUT MY VLOG CHANNEL andyaltig",https://youtu.be/m2dOvobEzNA,329695,9348,2.84,andyaltig@altig.com,,"Personal Blog",,https://scontent-lht6-1.cdninstagram.com/vp/9b0772297c1ec6b2e43640ecd096acc6/5E092A09/t51.2885-19/s150x150/25007631_164278197513198_5537328097226915840_n.jpg?_nc_ht=scontent-lht6-1.cdninstagram.com,0,0,1,"2019-09-16 11:23:50"
1754,jaaydabarber,211929043,jaay,,"TEAM 10.
@linedup__",,352855,9987,2.83,,,,,https://scontent-lht6-1.cdninstagram.com/vp/d3d1931f82598ce1a555ea45333713b6/5E0EB800/t51.2885-19/s150x150/66244055_344216619844739_836568112097656832_n.jpg?_nc_ht=scontent-lht6-1.cdninstagram.com,0,0,0,"2019-09-16 11:24:05"
1755,nicklauer,236374613,"Nick Lauer",Nick,"📍 mi | la
🚀 social growth
💻 business development
💡 @team10official
🙏🏼 jeremiah 29:11",,241829,5122,2.12,,,,"#team10 #graffitimansion",https://scontent-lht6-1.cdninstagram.com/vp/f04241aa764c22b071b181db066335e6/5DFA5E1E/t51.2885-19/s150x150/67794209_456063281918325_313343844500373504_n.jpg?_nc_ht=scontent-lht6-1.cdninstagram.com,0,0,0,"2019-09-16 11:24:11"
1756,andrewblue,2442148519,"ANDREW BLUE",ANDREW,"I love pasta 
Videographer/Photographer for @jakepaul 
Business inquiries : AndrewBlueFilms@Gmail.com
📍Calabasas,Ca",http://andrewbluefilms.com/,76897,5022,6.53,andrewbluefilms@gmail.com,,"Film Director",,https://scontent-lht6-1.cdninstagram.com/vp/191fe1b07d19785cc68608195721a5db/5DFE781E/t51.2885-19/s150x150/56734964_235661400621674_6091894424810291200_n.jpg?_nc_ht=scontent-lht6-1.cdninstagram.com,0,0,1,"2019-09-16 11:24:19"
1757,moe_sheehan,266629736,"M O R G A N  S H E E H A N",,"Nashville TN
 
Twitter @Moe_Sheehan
Snapchat @Morgan_Sheehan
@macy_viah_sheehan  💕🐶",,23865,773,3.24,morgansheehan72@gmail.com,,"Just For Fun",,https://scontent-lht6-1.cdninstagram.com/vp/720d78b236a769922efd0292b800e87f/5DFBAC11/t51.2885-19/s150x150/36789544_561239494273527_7748467167758123008_n.jpg?_nc_ht=scontent-lht6-1.cdninstagram.com,0,0,1,"2019-09-16 11:24:27"
1758,theslaygawd,30610238,Ryan,Ryan,"on air @wearechannelq 
the literal definition of slay.",http://wearechannelq.com/listen,46169,641,1.39,theslaygawd@gmail.com,,"Public Figure",,https://scontent-lht6-1.cdninstagram.com/vp/5b6633b9be1854d05eb943107ad947bd/5E3AB594/t51.2885-19/s150x150/32660854_1804860059822462_8223942978255716352_n.jpg?_nc_ht=scontent-lht6-1.cdninstagram.com,0,0,1,"2019-09-16 11:24:33"
1759,brandonamato,320066045,"Brandon Amato",Brandon,"Business 📲 Brandonamatobusiness@gmail.com",,362998,26517,7.3,brandonamatobusiness@gmail.com,,Artist,,https://scontent-lht6-1.cdninstagram.com/vp/216fb14fd94e486051c3145626ffd432/5DF69406/t51.2885-19/s150x150/69145198_2510830255675162_7686419643543584768_n.jpg?_nc_ht=scontent-lht6-1.cdninstagram.com,0,0,0,"2019-09-16 11:24:39"
1760,realdanduminy,3219423603,"Daniel Duminy- SPREAD KINDNESS",Daniel,"This is my time",http://youtube.com/danielduminy,207254,3349,1.62,danielduminy7@gmail.com,,"Public Figure",,https://scontent-lht6-1.cdninstagram.com/vp/aeb4bb13284ff734a7cec37b90d8a0cc/5E3B86E9/t51.2885-19/s150x150/67826853_545470509526109_4655056220225273856_n.jpg?_nc_ht=scontent-lht6-1.cdninstagram.com,0,0,0,"2019-09-16 11:24:46"
1761,highkrown,3436802991,HighKrown,,"We make your friends VIRAL🔌 
DM for Credit/Promos😋
#comedy #funnyvideos",,593089,7827,1.32,officialkrownking@gmail.com,,"Digital Creator",,https://scontent-lht6-1.cdninstagram.com/vp/1411696dcca101bacf1bee7f0524b672/5DF7D1C3/t51.2885-19/s150x150/42496445_242963666381258_1578492685637910528_n.jpg?_nc_ht=scontent-lht6-1.cdninstagram.com,0,0,0,"2019-09-16 11:24:52"
1762,dogs.so.awesome,3459663911,"Dogs are Awesome",,"What can we say? Dogs are just awesome! Share your awesome and savage dog photos and we might post them with a shoutout!  egLYMF",,72459,1045,1.44,,,Business,#dog,https://scontent-lht6-1.cdninstagram.com/vp/b0c066149cb0b700212fece8cb66c2cc/5DF74521/t51.2885-19/s150x150/67395798_491915108274827_4325640337520328704_n.jpg?_nc_ht=scontent-lht6-1.cdninstagram.com,0,0,1,"2019-09-16 11:25:00"
1763,karlireese,398301552,"Karli Reese",Karli,"🥀🌞🌻
dancer | 15 | sophomore 
clothing line: @ivyandsaige
dogs channel : @dax.and.tucker 
family vlogs: @ourfamilynest
⬇️NEW VIDEO⬇️",https://youtu.be/scMDcH7AV4A,282223,18852,6.68,karli@karlireese.com,,"Video Creator",,https://scontent-lht6-1.cdninstagram.com/vp/926931b7b571810c0bafa56dd337b2fa/5E36E1DB/t51.2885-19/s150x150/67515260_505931316881825_1814547425415659520_n.jpg?_nc_ht=scontent-lht6-1.cdninstagram.com,0,0,1,"2019-09-16 11:25:08"
1764,jankov2,4109648523,"George Janko 2",George,"Always looking at the bright side! #Jankster",http://bit.ly/2zYSQUC,272370,7638,2.8,,,,,https://scontent-lht6-1.cdninstagram.com/vp/6fb6b4c9e82e677674c1abce8eb9e4d7/5E022DCC/t51.2885-19/s150x150/29400962_158812101470734_7022474131157286912_n.jpg?_nc_ht=scontent-lht6-1.cdninstagram.com,0,0,0,"2019-09-16 11:25:14"
1765,tessabrooksarmy,4181175934,"Hi i’m Lu",Hi,"🔹Tessa follows
🌀 some positive phrases👇",https://pin.it/o2ktgx6ckgalu4,33473,245,0.73,tessabrooksarmy@gmail.com,,"Fan Page","#tessabrooks #tessabrooksedit #videostar",https://scontent-lht6-1.cdninstagram.com/vp/cfa3feb841869f5f8807d16efc20d91f/5E00BEBF/t51.2885-19/s150x150/64887411_496045631138692_7551156232740929536_n.jpg?_nc_ht=scontent-lht6-1.cdninstagram.com,0,0,1,"2019-09-16 11:25:22"
1766,rockygarcia._,519983344,✰,,"rockymarie.garcia@gmail.com 💌
Los Angeles 👼🏼",,31350,729,2.33,rockymarie.garcia@gmail.com,,"Visual Arts",,https://scontent-lht6-1.cdninstagram.com/vp/a90ea0fd9d1af57041df0150762d7851/5E1D1D91/t51.2885-19/s150x150/58115023_2128161057271244_5952010891917524992_n.jpg?_nc_ht=scontent-lht6-1.cdninstagram.com,0,0,1,"2019-09-16 11:25:28"
1767,lydiakenney,52669121,"Lydia Kenney",Lydia,"★  ★ ★ 
@lydiarosekenney 
twitter: @lydkenney",https://spoti.fi/2TdFKMC,519097,24012,4.63,lydiakenney123@gmail.com,,"Just For Fun",,https://scontent-lht6-1.cdninstagram.com/vp/d012579683198b9c749a0408c93d7c54/5E0712E4/t51.2885-19/s150x150/43915530_584061888717584_8559806723563454464_n.jpg?_nc_ht=scontent-lht6-1.cdninstagram.com,0,0,1,"2019-09-16 11:25:36"
1768,grandmafleek,5401022456,"Micheline Sheppard",Micheline,,,17441,6133,35.16,,,,,https://scontent-lht6-1.cdninstagram.com/vp/ff3b7017475a36e016fe852b0d051ff1/5E002854/t51.2885-19/s150x150/35155850_1891595384241513_5944185302590423040_n.jpg?_nc_ht=scontent-lht6-1.cdninstagram.com,0,0,0,"2019-09-16 11:25:44"
1769,noahnyles,5423361652,Noah,Noah,🤔🤔,,170922,1710,1,,,,,https://scontent-lht6-1.cdninstagram.com/vp/1d77e16c60301e04434f163da8b395e4/5DFD4CEC/t51.2885-19/s150x150/66846173_481728469285524_4487417792621969408_n.jpg?_nc_ht=scontent-lht6-1.cdninstagram.com,0,0,0,"2019-09-16 11:25:49"
1771,rbcamartinez,56037603,"Rebeca Martinez",Rebeca,"sharing my life here 
shark supporter ★
Barcelona based 
twitter/tiktok: rbcamartinez",,281697,6907,2.45,,,,,https://scontent-lht6-1.cdninstagram.com/vp/922b5d14e423bdbc1ecb9740202b1f85/5E1802C1/t51.2885-19/s150x150/69259427_1181126912085938_3369572620201623552_n.jpg?_nc_ht=scontent-lht6-1.cdninstagram.com,0,0,0,"2019-09-16 11:26:04"
1772,apollothek9_._,5654430069,Apollo,Apollo,"Dm or Email for promos 📩
Daily Jake Posts ⭐️
WOOF! I'm Apollo (Belgian malinois)😎 Jake Paul is my Dad & I'll eat your face off if you talk sideways ☺️",,518088,10713,2.07,ogbusiness18@gmail.com,,Blogger,,https://scontent-lht6-1.cdninstagram.com/vp/abde7908d5e6606ed8317807ac47b3d7/5DF9CC73/t51.2885-19/s150x150/21569069_801966293311054_8189752276915585024_a.jpg?_nc_ht=scontent-lht6-1.cdninstagram.com,0,0,0,"2019-09-16 11:26:12"
1775,willow_lee_morgan,6044511769,"Willow Morgan",Willow,"Willow 🖤
Managed by: Mom @katie_b_morgan Rep’d by @je_kids 
SUBSCRIBE to my YouTube channel 😘 ❌ VLOG OUT NOW 📣",https://youtu.be/B9gIiLHhSlk,228486,9780,4.28,minierikacostell@yahoo.com,,"Fashion Model",,https://scontent-lht6-1.cdninstagram.com/vp/7a96328e01057db46d841ce4a59ce7c0/5E17D169/t51.2885-19/s150x150/35618080_495231354242751_6327694511682093056_n.jpg?_nc_ht=scontent-lht6-1.cdninstagram.com,0,0,0,"2019-09-16 11:26:34"
1776,basic.vodka,6273802957,"Basic Vodka",,"Smooth. Good. 21+ to follow",http://www.basicvodka.com/findit,182269,224,0.12,leye.basicvodka@gmail.com,2482556949,Wine/Spirits,,https://scontent-lht6-1.cdninstagram.com/vp/fa3a3894be91a287a3371772b5d3c599/5E3CF73F/t51.2885-19/s150x150/54511659_316231742424483_7075875555492495360_n.jpg?_nc_ht=scontent-lht6-1.cdninstagram.com,0,0,1,"2019-09-16 11:26:42"
1777,graffitimansion,6285710052,"Graffiti Mansion",,"😈 Supreme Mansion",https://youtu.be/qPQ3NSuvFWM,194340,3201,1.65,,,Artist,,https://scontent-lht6-1.cdninstagram.com/vp/fc8336265e21d8a8f3bfab0836770412/5E0C00CD/t51.2885-19/s150x150/46124192_262038991148224_8307017618674417664_n.jpg?_nc_ht=scontent-lht6-1.cdninstagram.com,0,0,0,"2019-09-16 11:26:50"
1778,pam_stepnick,654336046,"Pam Stepnick",Pam,Vlogmom.co,https://youtu.be/sRsmGrPhVpA,544901,14765,2.71,Pam19636@aol.com,,"Performance Art",,https://scontent-lht6-1.cdninstagram.com/vp/2de272fc160ef5b0c0bb5b91244fa0ad/5DFE7613/t51.2885-19/s150x150/62087378_2728603093833639_4389899804252045312_n.jpg?_nc_ht=scontent-lht6-1.cdninstagram.com,0,0,1,"2019-09-16 11:26:57"
1779,tonysvibe,7160053912,"ᴇʟɪᴢᴀʙᴇᴛʜ || ʜᴇ ғᴏʟʟᴏᴡs ☆",,"{ᴾᴼˢᵀ ᵂᴴᴬᵀᴱᵛᴱᴿ, ᵂᴴᴱᴺᴱᵛᴱᴿ}
love anthony for anthony not ‘cause
he’s someone’s friend <3 @imanthonytruj ☁️💛 
ᴍᴇᴛ ʜɪᴍ. 5.22.18 ♡
ᴜɴғᴏʀɢᴇᴛᴛᴀʙʟᴇ. 6.6.18✨",,47174,783,1.66,,,"Fan Page","#omg #team10 #anthonytrujillo",https://scontent-lht6-1.cdninstagram.com/vp/92048852f09dea32a8cdc99154a007fa/5E08BD1F/t51.2885-19/s150x150/52703035_2233026660279944_6034448747600019456_n.jpg?_nc_ht=scontent-lht6-1.cdninstagram.com,0,0,0,"2019-09-16 11:27:05"
1780,thorpuppypaull,7438637036,Thor,Thor,"• Dm for Promos 📩
• No.1 place for Jake and Logan Videos ☺️
• @thorpuppypaull 🐶",,368258,6139,1.67,ogbusiness18@gmail.com,,Blogger,,https://scontent-lht6-1.cdninstagram.com/vp/2345ce82bfe7a5c98b556de40359b28a/5E1BF1F7/t51.2885-19/s150x150/65812788_761093167626878_5611686535310082048_n.jpg?_nc_ht=scontent-lht6-1.cdninstagram.com,0,0,0,"2019-09-16 11:27:11"
1781,healthvape,7447911202,HealthVape,,"Vape supplements with the original vitamin inhalers!
😴SOOTHE 🚀BOOST 🍏VITAL 🧘🏽‍♀️CHILL 💋BEAUTY⚡️ENERGY
Tag us for a shoutout! 🙌🏼 #HealthVape",https://healthvape.com/,173609,1060,0.61,contact@healthvape.com,2133227272,Vitamins/Supplements,,https://scontent-lht6-1.cdninstagram.com/vp/1b591446e4c76bd9cd2ad2fadfbf3600/5E013EEF/t51.2885-19/s150x150/67180585_783413288727111_3998593550185922560_n.jpg?_nc_ht=scontent-lht6-1.cdninstagram.com,0,0,1,"2019-09-16 11:27:17"
1782,jittnquan,7874949095,"Jitt n Quan",,"🍽@jittdsk 🍽 👑@kingquannupnext 👑",https://foundation-media.lnk.to/JNQMoneyDance,150461,6526,4.34,jittnquan@me.com,,Musician/Band,"#jittnquan #rap #hiphop",https://scontent-lht6-1.cdninstagram.com/vp/f599e4cdb9c1bfcc536f2243a343f0d3/5E067165/t51.2885-19/s150x150/57978705_2315924045333612_6191363999074877440_n.jpg?_nc_ht=scontent-lht6-1.cdninstagram.com,0,0,1,"2019-09-16 11:27:23"
1783,gotdrip,8880494701,"Got Drip?",,"Optimal Brilliance 💎
Worldwide Shipping 🌍",http://gotdrip.com/,183307,1791,0.98,support@gotdrip.co,,Accessories,#gotdrip,https://scontent-lht6-1.cdninstagram.com/vp/2494592cfa1664a8d5941960d8b37b3a/5DF8E02E/t51.2885-19/s150x150/66464155_339927310294623_2264626377032466432_n.jpg?_nc_ht=scontent-lht6-1.cdninstagram.com,0,0,1,"2019-09-16 11:27:29"
