3994,reigntogether,10815361739,"Reign Together",Reign,"~De-Stress to Connect~
CBD Massage Oil for couples
Bring the spa home",http://www.reigntogether.com/pages/shop-products,10249,55,0.54,bart@reigntogether.com,5026485113,Health/Beauty,,https://scontent-lhr3-1.cdninstagram.com/vp/ad8728e91ee2dcb8715358598b8b7433/5E2FB2E7/t51.2885-19/s150x150/53270929_559151754594009_9081096881488003072_n.jpg?_nc_ht=scontent-lhr3-1.cdninstagram.com,0,0,1,"2019-10-11 20:28:59"
3997,sadboyedgar,11041263953,"Edgar Gutierrez💰",Edgar,"Infinity G35💨 x Mustang🐎 
Living my Best Life💰🥵 Self Made🤯",http://instagram.com/curlyedgar,10436,715,6.85,curlyedgar@gmail.com,,"Public Figure",,https://scontent-lhr3-1.cdninstagram.com/vp/8ec824e6111edfc148144b33a5f2c4d5/5E37A161/t51.2885-19/s150x150/70558064_1102356306626640_7899678213037621248_n.jpg?_nc_ht=scontent-lhr3-1.cdninstagram.com,0,0,1,"2019-10-11 20:29:20"
4013,ss.ghoss,14686315948,"SouthSide Ghøss",,"A cold lonely soul stranded to find guidance🙏🏾 Stay💯chase a 💰and feed ya fam💯 ""Stand for something or be a slave to someone"" ORL‼️🤘🏾 DM for features",https://music.apple.com/us/album/no-one-knows-single/1471143011,12491,128,1.02,hicksonarmond101@gmail.com,,Artist,#repost,https://scontent-lhr3-1.cdninstagram.com/vp/bfda3a7381f654b12ececba76151e552/5E19F856/t51.2885-19/s150x150/70611385_958057084563579_5307876934091276288_n.jpg?_nc_ht=scontent-lhr3-1.cdninstagram.com,0,0,1,"2019-10-11 20:31:09"
4025,digitalnomaduniversity,217499947,"Digital Nomad University",,"💻 Digitalpreneur & Coach
✈️ Escape the 9-5🌴
📲 Build A Digital Lifestyle Biz
👊🏼 Get Paid While Traveling
📚 Join The Community &
👇🏼Learn How Free👇🏼",http://www.digitalnomadbiz.com/,30039,233,0.78,drew@digitalnomadu.com,,Education,"#laptoplife #passionsintoprofits #passportready",https://scontent-lhr3-1.cdninstagram.com/vp/5eb12103782cf0834acf77c431b71ddf/5E3C59F6/t51.2885-19/s150x150/56201291_303604893640593_5360779888817078272_n.jpg?_nc_ht=scontent-lhr3-1.cdninstagram.com,0,0,1,"2019-10-11 20:32:34"
4032,pauljudge,3006079,"Dr. Paul Judge",,"Technology entrepreneur & investor👨🏾‍💻Cofounder @pindrophq. Cofounder @techsquare. Previously Luma, Barracuda, Purewire, Secure Computing, CipherTrust",http://www.pJudge.com/,15884,494,3.11,pjudge@pjudge.com,,Entrepreneur,#a3c,https://scontent-lhr3-1.cdninstagram.com/vp/63a7cd8d75113d77a623ede9e989bd1d/5E29C306/t51.2885-19/s150x150/40470307_326896941392977_530103379276333056_n.jpg?_nc_ht=scontent-lhr3-1.cdninstagram.com,0,0,1,"2019-10-11 20:33:28"
4033,sublimelistings,3294936726,"Sublime Listings",,"Luxury Real Estate Marketplace
Discover listings below",http://SublimeListings.com/,29432,4252,14.45,info@sublimelistings.com,,Website,#sublimelistings,https://scontent-lhr3-1.cdninstagram.com/vp/76b37fbad2a32b4c571b625813fd65cd/5E36CF14/t51.2885-19/s150x150/57457108_452165418886223_3542604839533936640_n.jpg?_nc_ht=scontent-lhr3-1.cdninstagram.com,0,0,1,"2019-10-11 20:33:35"
4040,saftajik,4626666113,"Saf Tajik️",,"🎤- Singer
🖊- Songwriter
🎹- Music Producer
🌴 - ""Tropicana"" out now @jakecardinale  👇👇👇👇",http://hyperurl.co/0gvc97,31321,1863,5.95,saftajik@gmail.com,65434772,Musician,"#love #music #like",https://scontent-lhr3-1.cdninstagram.com/vp/fbc513b4b9776863e0c476bda08f6cd5/5E3B4529/t51.2885-19/s150x150/64482904_2320230934970661_3265857277491412992_n.jpg?_nc_ht=scontent-lhr3-1.cdninstagram.com,0,0,0,"2019-10-11 20:34:24"
187,bowles,5450238632,"Hayden Bowles",Hayden,"Spent a few million on FB Ads.
Highschool dropout, but always learning!
Active traveler, 25+ countries
👻 hayden123bowles
Fun cars @haydensgarage",,48934,3321,6.79,reachthisnetwork@gmail.com,,Entrepreneur,,https://scontent-lht6-1.cdninstagram.com/vp/03590ae30d9ba8bbe0bc944ed7ccb2bd/5E027A3E/t51.2885-19/s150x150/28766089_183059015813513_9016402609447108608_n.jpg?_nc_ht=scontent-lht6-1.cdninstagram.com,0,0,1,"2019-09-09 23:05:27"
340,sebb,5883242511,"Sebastian Ghiorghiu",Sebastian,"120k YT 
I build brands",,28355,2287,8.07,ghiorghiusebastian@gmail.com,,"Internet Company",,https://scontent-lht6-1.cdninstagram.com/vp/2f58eb81e6e8315cdcac5b795077b896/5E04AF2A/t51.2885-19/s150x150/54446950_2362746837287987_4864117636008509440_n.jpg?_nc_ht=scontent-lht6-1.cdninstagram.com,0,0,1,"2019-09-09 23:23:30"
689,ryanscribnerofficial,6270511802,"Ryan Scribner",Ryan,"💵 | 6 Figure Affiliate Marketer
📲 | 400k YouTube Subscribers
Full Blueprint For A 6 Figure Online Business
👇 link below 👈",https://m.me/ryanoscribner?ref=w5070937,58695,586,1,info@ryanoscribner.com,,"Educational Consultant",,https://scontent-lht6-1.cdninstagram.com/vp/000ab557526f401c270d3bff96d2f774/5E14FA7D/t51.2885-19/s150x150/60783202_832175140480139_8792283764173570048_n.jpg?_nc_ht=scontent-lht6-1.cdninstagram.com,0,0,1,"2019-09-10 00:02:09"
4054,jackkitchener458,6877870386,"Jack Kitchener",Jack,"📦 UK ECom Entrepreneur
🏠 Property Investor
🏎 Car Enthusiast
🎥 Youtube (8000+ Subs)
⬇️🔥 FREE SHOPIFY TRAINING 🔥 ⬇️",https://linktr.ee/jackkitchener458,12571,50,0.4,jackkitchener458@gmail.com,,Business,"#entrepreneur #goals #wealth",https://scontent-lhr3-1.cdninstagram.com/vp/7f2e4dd8c0e03ed2ebf267b32a769744/5E2CAF0A/t51.2885-19/s150x150/26155159_754307381437083_2714647621468684288_n.jpg?_nc_ht=scontent-lhr3-1.cdninstagram.com,0,0,1,"2019-10-11 20:36:00"
185,beastofecom,7063401811,"Beast Of Ecom",,"💻 Laptop Lifestyle
📦 I Sell Stuff Online
💰 8 Figure Ecommerce Expert
🔥 JOIN MY COURSE WAIT LIST👇🏽",https://www.ecombeastcourse.com/join,12487,709,5.68,beastofecom@gmail.com,,Entrepreneur,,https://scontent-lht6-1.cdninstagram.com/vp/f7454d3d0c40774babfe316e8b6fba57/5DEF7B9A/t51.2885-19/s150x150/42614289_170470280542151_4683918451994001408_n.jpg?_nc_ht=scontent-lht6-1.cdninstagram.com,0,0,1,"2019-09-09 23:05:13"
4056,jmaxfx,7298378841,"Jason Maxfield",Jason,"2 1  ✖️ Central N Y 🗽
Founder/Lead Educator✖️ @fxforensics 
Foreign Currency Exchange Trader 💱
DM for investing mentorship/enrollment📱",http://www.fxforensics.com/,19737,965,4.89,Jason.RMaxfield@yahoo.com,,,,https://scontent-lhr3-1.cdninstagram.com/vp/6c379ae000de3972bc004469160d3bd5/5E3EB3B9/t51.2885-19/s150x150/72412042_383737569234142_5443539738197753856_n.jpg?_nc_ht=scontent-lhr3-1.cdninstagram.com,0,0,1,"2019-10-11 20:36:15"
4059,thewolfofwifimoney,7487885900,"Michael Saba 🐺",Michael,"I build profitable online businesses & show others how they can too.
⬇️ My Story + What I Offer ⬇️",https://learnwiththewolf.com/,24421,1185,4.85,michaeljsabaofficial@gmail.com,,Entrepreneur,,https://scontent-lhr3-1.cdninstagram.com/vp/6c48e068a700d9230c93a02af5d0f708/5E39F26E/t51.2885-19/s150x150/30087439_439575843167154_2007020638119657472_n.jpg?_nc_ht=scontent-lhr3-1.cdninstagram.com,0,0,0,"2019-10-11 20:36:34"
4060,ecombenjamin,7690104673,"🇬🇧 Benjamin Newcombe 🇬🇧",,"🥂 Over $2.5 Million In Ecommerce Revenue
🌍 World Traveller 
🔐 Proud Mentor Of Future Millionaires",,21653,573,2.65,ecombenjamin@gmail.com,,Entrepreneur,,https://scontent-lhr3-1.cdninstagram.com/vp/4be833aa4319aaa4fa9cf6425cf1954c/5E2C1F34/t51.2885-19/s150x150/65148974_2406593969585966_8225687516661940224_n.jpg?_nc_ht=scontent-lhr3-1.cdninstagram.com,0,0,1,"2019-10-11 20:36:41"
4066,ecommerce_kyle,8024043165,Kyle,Kyle,"20| US
💰 Drop Shipping/ Ecommerce💰
📈 7 figure Coach
👨🏼‍💻 Social Media Marketing
⬇️ Join the fam! ⬇️",https://linktr.ee/ecommerce_kyle,16979,1213,7.14,kyle.ecommerce@gmail.com,,Entrepreneur,,https://scontent-lhr3-1.cdninstagram.com/vp/6cb6a6c5feca3d284f6cca4b19fba3e3/5E2BA74B/t51.2885-19/s150x150/59946284_2119527108137089_3683863681084424192_n.jpg?_nc_ht=scontent-lhr3-1.cdninstagram.com,0,0,1,"2019-10-11 20:37:21"
4067,dropship_shenanigans,8141094657,"Dropshipping | Amazon | Ebay",,"💰 Sold More Than SIX Figures On Amazon
🚺Single mom working from home!
💟Love helping people succeed!
👇Learn How to SELL ON Amazon Below👇",http://m.me/dropshipshenanigans,18558,95,0.51,arc4749@yahoo.com,,School,"#dropshipping #shopifydropshipping #amazondropshipping",https://scontent-lhr3-1.cdninstagram.com/vp/c40ebc4d5474ba966749e691a1f17355/5E32D09C/t51.2885-19/s150x150/50651176_436106107158223_4369115400944746496_n.jpg?_nc_ht=scontent-lhr3-1.cdninstagram.com,0,0,1,"2019-10-11 20:37:27"
4069,ryan.melnick,8147472219,"Ryan Melnick 🐐",Ryan,"💰Millions In Ecom & F2F Sales
🤝Ph.D in helping others
✳️Live Q&A Wednesdays @ 12 Noon EST✳️
🔥FREE GIVEAWAYS Every Tuesday🔥
⬇️ Subscribe to Qualify ⬇️",https://www.youtube.com/watch?v=cZ9U0A7uqaM&feature=youtu.be,13458,315,2.34,ryan.melnick44@gmail.com,,Entrepreneur,"#entrepreneur #entrepreneurship #entrepreneurmindset",https://scontent-lhr3-1.cdninstagram.com/vp/c4bdfe9e23151b426505dd8f3b3f43b4/5E180DD4/t51.2885-19/s150x150/66198727_926986527644718_986690877088858112_n.jpg?_nc_ht=scontent-lhr3-1.cdninstagram.com,0,0,1,"2019-10-11 20:37:42"
732,gabrielstger,8205343040,"Gabriel St-Germain",Gabriel,"📘eCom Entrepreneur
👨🏻‍💻Digital Marketer
🇨🇦Canada
⬇️eCom Blueprint 2.0",https://ecomblueprint.net/,28744,1073,3.73,hello@gabrielstgermain.com,,Entrepreneur,,https://scontent-lht6-1.cdninstagram.com/vp/60c8fdb87a4dc7d99f2a0f752828320e/5DF1C91A/t51.2885-19/s150x150/47586212_223941468509715_4805589128823439360_n.jpg?_nc_ht=scontent-lht6-1.cdninstagram.com,0,0,1,"2019-09-10 00:35:13"
423,theecomlifestyle,8361861237,Christian,Christian,"🙏The Guru For Those Who Come From NOTHING
🤑$1,500,000+ In Revenue
🧠$25 Full Dropshipping Course+ Mentorship👇
👏Mentor to 1.3K+
🚀 DM me for Scaling!",https://linktr.ee/theecomlifestyle,16459,816,4.96,ecomlifestyle@outlook.com,,Entrepreneur,"#dropshipping #shopify #ecommerce",https://scontent-lht6-1.cdninstagram.com/vp/d794a4fa2517c483c790423d8e2af859/5E09A763/t51.2885-19/s150x150/67052479_726437631132639_7526834460008906752_n.jpg?_nc_ht=scontent-lht6-1.cdninstagram.com,0,0,0,"2019-09-09 23:32:56"
4072,heynatalia,8386172,"Natalia Perez",Natalia,"On-Air w/ Big Boy's Neighborhood & Real 92.3🎙 FUSE TV 📺 Dodgers In-Game Host 🎤⚾️. My 💜 is taken. Obsessed w/ ☕️ 🎬 🎧 - iHeartMedia ❤️",http://bit.ly/2m1kM6Y,95781,4779,4.99,nataliaperez@iheartmedia.com,,"Personal Blog",,https://scontent-lhr3-1.cdninstagram.com/vp/ab7b780334ea4755a9450eb31d801edf/5E27C046/t51.2885-19/s150x150/17126086_1932529087033243_5826941057710948352_a.jpg?_nc_ht=scontent-lhr3-1.cdninstagram.com,0,0,1,"2019-10-11 20:38:05"
4073,savour_wines,8402557929,"Savour Wines",,"Savour the moments in your life. Allow us to be a small moment in your day. #savourwines🥂
🍷Wine Lounge Open! 🎉🎊
Wine Club Available 🔜",http://ywcaelpaso.ywca.org/site/TR/WalkaMile/YWCAElPasoDelNorteRegion?pg=team&fr_id=1450&team_id=1718,11197,275,2.46,jr@savourit.net,9152276238,"Local Business",,https://scontent-lhr3-1.cdninstagram.com/vp/7389695f7928c628b4c28fdc591a4e12/5E373F90/t51.2885-19/s150x150/58453842_2328591470747006_7869518703577006080_n.jpg?_nc_ht=scontent-lhr3-1.cdninstagram.com,0,0,1,"2019-10-11 20:38:12"
4078,ecomchad,8603323832,Chad,Chad,"• 18 Yr Old #entrepreneur 
• E-commerce & Marketing Expert
• I Teach People How to make $ online!
• Custom built store with 5 winning products ⬇️",https://nextlevel-ecomacademy.com/sales-page,21830,1822,8.35,ecomchad1@gmail.com,,Entrepreneur,,https://scontent-lhr3-1.cdninstagram.com/vp/96da6cf8180ac2c95ec701124d1a4b81/5E3B6C46/t51.2885-19/s150x150/53566472_329767717678125_6505739383050600448_n.jpg?_nc_ht=scontent-lhr3-1.cdninstagram.com,0,0,1,"2019-10-11 20:38:45"
4084,jayluhz,9049429565,"Jack 🥺",Jack,"I awnswer DMS🤭💞
•Make sure to turn on post + story notifications (•••) “on” (send proof)💖
• Follow for a cute dm🙈",,20206,2616,12.95,dacasualjack@gmail.com,,"Personal Blog",,https://scontent-lhr3-1.cdninstagram.com/vp/49d49773a2265a0e5d8d2c109b30d1b5/5E374899/t51.2885-19/s150x150/72475003_2642046859171932_482262142293114880_n.jpg?_nc_ht=scontent-lhr3-1.cdninstagram.com,0,0,1,"2019-10-11 20:39:25"
4092,jakellewin,9761792143,"Jake Lewin",Jake,"I’m 17.
6 digit dropshipper. 🍳",http://jakellewin.com/,10316,656,6.36,me@jakellewin.com,,Entrepreneur,,https://scontent-lhr3-1.cdninstagram.com/vp/3602cd4e456c0206110bd238ecaec186/5E315CB0/t51.2885-19/s150x150/67442219_463202937744624_3085205683096780800_n.jpg?_nc_ht=scontent-lhr3-1.cdninstagram.com,0,0,0,"2019-10-11 20:40:24"
4093,youknowdenise,9863502,"Denise Jones",Denise,"🎥 @lakersnationofficial @mostlyfbshow
🎙 #SecretSauceSesh podcast
📦 #Unboxing w/ @kickstothepitch
💻 Biz Dev @thegreatcompany",http://youknowdenise.com/,33575,1174,3.5,alondrabradfield@gmail.com,,Business,#jamesonpartner,https://scontent-lhr3-1.cdninstagram.com/vp/4607161ab3f7c2bee0e99a7e1ab384ce/5E3AFBB5/t51.2885-19/s150x150/47582858_928514634007798_1818190932072202240_n.jpg?_nc_ht=scontent-lhr3-1.cdninstagram.com,0,0,1,"2019-10-11 20:40:34"
